<?xml version="1.0" encoding="UTF-8" standalone="no"?> <svg xmlns="http://www.w3.org/2000/svg" xmlns:xlink="http://www.w3.org/1999/xlink" width="156pt" height="377pt" viewBox="0.00 0.00 156.00 376.80">
<g id="graph0" class="graph" transform="scale(1 1) rotate(0) translate(4 372.8)">
<title>%0</title>
<polygon fill="#ffffff" stroke="transparent" points="-4,4 -4,-372.8 152,-372.8 152,4 -4,4"></polygon>
<g id="clust1" class="cluster">
<title>cluster</title>
<polygon fill="#234178" fill-opacity="0.184314" stroke="#000000" points="8,-8 8,-360.8 140,-360.8 140,-8 8,-8"></polygon>
<text text-anchor="middle" x="74" y="-344.2" font-family="Times,serif" font-size="14.00" fill="#000000">Global</text>
</g>
<g id="clust2" class="cluster">
<title>cluster_1</title>
<polygon fill="#234178" fill-opacity="0.184314" stroke="#000000" points="39,-190 39,-328 109,-328 109,-190 39,-190"></polygon>
</g>
<!-- Logger_0_1808023492826843441_5 -->
<g id="node1" class="node">
<title>Logger_0_1808023492826843441_5</title>
<g id="a_node1">">
<polygon fill="#fffea3" stroke="transparent" points="131.5,-90 16.5,-90 16.5,-16 131.5,-16 131.5,-90"></polygon>
<text text-anchor="start" x="52.8423" y="-72.5" font-family="times" font-size="15.00" fill="#000000">Logger</text>
<text text-anchor="start" x="20.5705" y="-49.5" font-family="times" font-style="italic" font-size="15.00" fill="#000000">'chemical profile'</text>
<text text-anchor="start" x="70.75" y="-24.5" font-family="times" font-size="15.00" fill="#000000">5</text>
<polygon fill="#000000" stroke="#000000" points="17,-41 17,-41 132,-41 132,-41 17,-41"></polygon>
<polygon fill="none" stroke="#000000" points="16.5,-16 16.5,-90 131.5,-90 131.5,-16 16.5,-16"></polygon>
</g>
</g>
<!-- c_0 -->
<g id="node2" class="node">
<title>c_0</title>
<g id="a_node2">
<ellipse fill="#d3d247" stroke="#000000" cx="74" cy="-144" rx="27" ry="18"></ellipse>
<text text-anchor="middle" x="74" y="-139.8" font-family="Times,serif" font-size="14.00" fill="#000000">c</text>
</g>
</g>
<!-- c_0&#45;&gt;Logger_0_1808023492826843441_5 -->
<g id="edge2" class="edge">
<title>c_0-&gt;Logger_0_1808023492826843441_5</title>
<path fill="none" stroke="#112c5f" stroke-width="2" d="M74,-125.5848C74,-118.189 74,-109.2921 74,-100.3013"></path>
<polygon fill="#112c5f" stroke="#112c5f" stroke-width="2" points="77.5001,-100.1854 74,-90.1855 70.5001,-100.1855 77.5001,-100.1854"></polygon>
</g>
<!-- System_1_0_5 -->
<g id="node3" class="node">
<title>System_1_0_5</title>
<g id="a_node3">">
<polygon fill="#fffea3" stroke="transparent" points="100,-248 48,-248 48,-198 100,-198 100,-248"></polygon>
<text text-anchor="start" x="51.9163" y="-230.5" font-family="times" font-size="15.00" fill="#000000">System</text>
<text text-anchor="start" x="64.625" y="-206.5" font-family="times" font-size="15.00" fill="#000000">0.5</text>
<polygon fill="#000000" stroke="#000000" points="48,-223 48,-223 100,-223 100,-223 48,-223"></polygon>
<polygon fill="none" stroke="#000000" points="48,-198 48,-248 100,-248 100,-198 48,-198"></polygon>
</g>
</g>
<!-- System_1_0_5&#45;&gt;c_0 -->
<g id="edge1" class="edge">
<title>System_1_0_5-&gt;c_0</title>
<path fill="none" stroke="#8f100d" stroke-width="3" d="M74,-197.5691C74,-189.5402 74,-180.6193 74,-172.397"></path>
<polygon fill="#8f100d" stroke="#8f100d" stroke-width="3" points="77.5001,-172.1242 74,-162.1242 70.5001,-172.1242 77.5001,-172.1242"></polygon>
</g>
<!-- k_1 -->
<g id="node4" class="node">
<title>k_1</title>
<g id="a_node4">
<ellipse fill="#d3d247" stroke="#000000" cx="74" cy="-302" rx="27" ry="18"></ellipse>
<text text-anchor="middle" x="74" y="-297.8" font-family="Times,serif" font-size="14.00" fill="#000000">k</text>
</g>
</g>
<!-- k_1&#45;&gt;System_1_0_5 -->
<g id="edge3" class="edge">
<title>k_1-&gt;System_1_0_5</title>
<path fill="none" stroke="#112c5f" stroke-width="2" d="M74,-283.6772C74,-276.0766 74,-266.9908 74,-258.1933"></path>
<polygon fill="#112c5f" stroke="#112c5f" stroke-width="2" points="77.5001,-258.1046 74,-248.1046 70.5001,-258.1047 77.5001,-258.1046"></polygon>
</g>
</g>
</svg>