-0.000	-0.000	0.000	0.000	-0.000	0.000	-0.000	0.000	-0.000	0.000	-0.001	0.004	-0.013	-0.011	-0.004	-0.034	-0.039	-0.051	-0.059	-0.073	-0.069	-0.071	-0.066	-0.026	-0.009	0.002	-0.001	0.000	-0.000	0.000	-0.000	0.000	-0.000	0.000	-0.000	0.000	-0.000	0.000	-0.000	0.000	-0.000	0.000	-0.000	0.000	-0.000	0.000	-0.000	0.000	-0.000	0.000	0.000	0.000	0.000	0.000	0.000	0.000	0.000	0.000	0.000	0.000	0.000	0.000	0.000	0.000	0.000	0.000	0.000	0.000	0.000	0.000	0.000	0.000	0.000	0.000	0.000	0.000	0.000	0.000	0.000	0.000	0.000	0.000	0.000	0.000	0.000	0.000	0.000	0.000	0.000	0.000	0.000	0.000	0.000	0.000	0.000	0.000	0.000	0.000	0.000	0.000	0.000	0.000	0.000	0.000	0.000	0.000	0.000	0.000	0.000	0.000	0.000	0.000	-0.000	0.000	-0.000	0.000	-0.000	0.000	-0.000	0.000	-0.000	0.000	-0.000	0.000	-0.000	0.000	-0.000	0.000	-0.000	0.000	-0.000	0.000	-0.000	0.001	-0.002	0.009	0.026	0.066	0.071	0.069	0.073	0.059	0.051	0.039	0.034	0.004	0.011	0.013	-0.004	0.001	-0.000	0.000	-0.000	0.000	-0.000	0.000	-0.000	0.000	-0.000	-0.000
0.000	-0.000	0.000	-0.000	0.000	-0.000	0.000	-0.000	0.000	-0.001	0.003	-0.011	-0.021	-0.027	-0.051	-0.070	-0.090	-0.110	-0.129	-0.154	-0.154	-0.131	-0.103	-0.057	-0.029	-0.008	0.002	-0.001	0.000	-0.000	0.000	-0.000	0.000	-0.000	0.000	0.000	-0.000	0.000	-0.000	0.000	-0.000	0.000	-0.000	0.000	-0.000	0.000	-0.000	0.000	-0.000	0.000	-0.000	-0.000	-0.000	-0.000	-0.000	-0.000	-0.000	-0.000	-0.000	-0.000	-0.000	-0.000	-0.000	-0.000	-0.000	-0.000	-0.000	-0.000	-0.000	-0.000	-0.000	-0.000	-0.000	-0.000	-0.000	-0.000	-0.000	-0.000	-0.000	-0.000	-0.000	-0.000	-0.000	-0.000	-0.000	-0.000	-0.000	-0.000	-0.000	-0.000	-0.000	-0.000	-0.000	-0.000	-0.000	-0.000	-0.000	-0.000	-0.000	-0.000	-0.000	-0.000	-0.000	-0.000	-0.000	-0.000	-0.000	-0.000	-0.000	-0.000	-0.000	0.000	-0.000	0.000	-0.000	0.000	-0.000	0.000	-0.000	0.000	-0.000	0.000	-0.000	0.000	-0.000	-0.000	0.000	-0.000	0.000	-0.000	0.000	-0.000	0.001	-0.002	0.008	0.029	0.057	0.103	0.131	0.154	0.154	0.129	0.110	0.090	0.070	0.051	0.027	0.021	0.011	-0.003	0.001	-0.000	0.000	-0.000	0.000	-0.000	0.000	-0.000	0.000	0.000
-0.000	-0.000	0.000	-0.000	0.000	-0.000	0.000	-0.001	0.003	-0.011	-0.021	-0.027	-0.052	-0.064	-0.111	-0.154	-0.175	-0.225	-0.243	-0.241	-0.233	-0.207	-0.140	-0.072	-0.053	-0.018	0.005	-0.001	0.000	-0.000	0.000	-0.000	0.000	-0.000	0.000	-0.000	-0.000	0.000	-0.000	0.000	-0.000	0.000	-0.000	0.000	-0.000	0.000	-0.000	0.000	-0.000	0.000	-0.000	-0.000	-0.000	-0.000	-0.000	-0.000	-0.000	-0.000	-0.000	-0.000	-0.000	-0.000	-0.000	-0.000	-0.000	-0.000	-0.000	-0.000	-0.000	-0.000	-0.000	-0.000	-0.000	-0.000	-0.000	-0.000	-0.000	-0.000	-0.000	-0.000	-0.000	-0.000	-0.000	-0.000	-0.000	-0.000	-0.000	-0.000	-0.000	-0.000	-0.000	-0.000	-0.000	-0.000	-0.000	-0.000	-0.000	-0.000	-0.000	-0.000	-0.000	-0.000	-0.000	-0.000	-0.000	-0.000	-0.000	-0.000	-0.000	-0.000	-0.000	0.000	-0.000	0.000	-0.000	0.000	-0.000	0.000	-0.000	0.000	-0.000	0.000	-0.000	0.000	0.000	-0.000	0.000	-0.000	0.000	-0.000	0.000	-0.000	0.001	-0.005	0.018	0.053	0.072	0.140	0.207	0.233	0.241	0.243	0.225	0.175	0.154	0.111	0.064	0.052	0.027	0.021	0.011	-0.003	0.001	-0.000	0.000	-0.000	0.000	-0.000	0.000	-0.000
0.000	0.000	-0.000	0.000	-0.000	0.000	-0.001	0.003	-0.011	-0.019	-0.035	-0.082	-0.117	-0.170	-0.223	-0.259	-0.301	-0.336	-0.334	-0.307	-0.297	-0.243	-0.169	-0.100	-0.030	-0.020	-0.011	0.003	-0.001	0.000	-0.000	0.000	-0.000	0.000	-0.000	0.000	0.000	-0.000	0.000	-0.000	0.000	-0.000	0.000	-0.000	0.000	-0.000	0.000	-0.000	0.000	-0.000	0.000	-0.000	-0.000	-0.000	-0.000	-0.000	-0.000	-0.000	-0.000	-0.000	-0.000	-0.000	-0.000	-0.000	-0.000	-0.000	-0.000	-0.000	-0.000	-0.000	-0.000	-0.000	-0.000	-0.000	-0.000	-0.000	-0.000	-0.000	-0.000	-0.000	-0.000	-0.000	-0.000	-0.000	-0.000	-0.000	-0.000	-0.000	-0.000	-0.000	-0.000	-0.000	-0.000	-0.000	-0.000	-0.000	-0.000	-0.000	-0.000	-0.000	-0.000	-0.000	-0.000	-0.000	-0.000	-0.000	-0.000	-0.000	-0.000	-0.000	0.000	-0.000	0.000	-0.000	0.000	-0.000	0.000	-0.000	0.000	-0.000	0.000	-0.000	0.000	-0.000	-0.000	0.000	-0.000	0.000	-0.000	0.000	-0.000	0.001	-0.003	0.011	0.020	0.030	0.100	0.169	0.243	0.297	0.307	0.334	0.336	0.301	0.259	0.223	0.170	0.117	0.082	0.035	0.019	0.011	-0.003	0.001	-0.000	0.000	-0.000	0.000	-0.000	0.000
-0.000	-0.000	0.000	-0.000	0.000	-0.001	0.002	-0.008	-0.031	-0.046	-0.083	-0.162	-0.230	-0.297	-0.380	-0.402	-0.414	-0.404	-0.371	-0.332	-0.281	-0.223	-0.147	-0.090	-0.033	-0.019	-0.011	0.003	-0.001	0.000	-0.000	0.000	-0.000	0.000	-0.000	0.000	0.000	-0.000	0.000	-0.000	0.000	-0.000	0.000	-0.000	0.000	-0.000	0.000	-0.000	0.000	-0.000	0.000	-0.000	-0.000	-0.000	-0.000	-0.000	-0.000	-0.000	-0.000	-0.000	-0.000	-0.000	-0.000	-0.000	-0.000	-0.000	-0.000	-0.000	-0.000	-0.000	-0.000	-0.000	-0.000	-0.000	-0.000	-0.000	-0.000	-0.000	-0.000	-0.000	-0.000	-0.000	-0.000	-0.000	-0.000	-0.000	-0.000	-0.000	-0.000	-0.000	-0.000	-0.000	-0.000	-0.000	-0.000	-0.000	-0.000	-0.000	-0.000	-0.000	-0.000	-0.000	-0.000	-0.000	-0.000	-0.000	-0.000	-0.000	-0.000	-0.000	0.000	-0.000	0.000	-0.000	0.000	-0.000	0.000	-0.000	0.000	-0.000	0.000	-0.000	0.000	-0.000	-0.000	0.000	-0.000	0.000	-0.000	0.000	-0.000	0.001	-0.003	0.011	0.019	0.033	0.090	0.147	0.223	0.281	0.332	0.371	0.404	0.414	0.402	0.380	0.297	0.230	0.162	0.083	0.046	0.031	0.008	-0.002	0.001	-0.000	0.000	-0.000	0.000	-0.000
0.000	0.000	-0.000	0.000	-0.001	0.002	-0.007	-0.032	-0.044	-0.091	-0.190	-0.288	-0.396	-0.467	-0.494	-0.495	-0.467	-0.398	-0.339	-0.284	-0.204	-0.161	-0.111	-0.056	-0.026	-0.021	-0.010	0.003	-0.001	0.000	-0.000	0.000	-0.000	0.000	-0.000	0.000	-0.000	-0.000	0.000	-0.000	0.000	-0.000	0.000	-0.000	0.000	-0.000	0.000	-0.000	0.000	-0.000	0.000	-0.000	-0.000	-0.000	-0.000	-0.000	-0.000	-0.000	-0.000	-0.000	-0.000	-0.000	-0.000	-0.000	-0.000	-0.000	-0.000	-0.000	-0.000	-0.000	-0.000	-0.000	-0.000	-0.000	-0.000	-0.000	-0.000	-0.000	-0.000	-0.000	-0.000	-0.000	-0.000	-0.000	-0.000	-0.000	-0.000	-0.000	-0.000	-0.000	-0.000	-0.000	-0.000	-0.000	-0.000	-0.000	-0.000	-0.000	-0.000	-0.000	-0.000	-0.000	-0.000	-0.000	-0.000	-0.000	-0.000	-0.000	0.000	-0.000	0.000	-0.000	0.000	-0.000	0.000	-0.000	0.000	-0.000	0.000	-0.000	0.000	-0.000	0.000	0.000	-0.000	0.000	-0.000	0.000	-0.000	0.000	-0.000	0.001	-0.003	0.010	0.021	0.026	0.056	0.111	0.161	0.204	0.284	0.339	0.398	0.467	0.495	0.494	0.467	0.396	0.288	0.190	0.091	0.044	0.032	0.007	-0.002	0.001	-0.000	0.000	-0.000	0.000
-0.000	-0.000	0.000	-0.001	0.002	-0.007	-0.033	-0.041	-0.102	-0.211	-0.313	-0.456	-0.564	-0.587	-0.566	-0.507	-0.406	-0.328	-0.261	-0.188	-0.126	-0.089	-0.058	-0.040	-0.021	0.006	-0.002	0.000	-0.000	0.000	-0.000	0.000	-0.000	0.000	-0.000	0.000	0.000	-0.000	0.000	-0.000	0.000	-0.000	0.000	-0.000	0.000	-0.000	0.000	-0.000	0.000	-0.000	0.000	-0.000	-0.000	-0.000	-0.000	-0.000	-0.000	-0.000	-0.000	-0.000	-0.000	-0.000	-0.000	-0.000	-0.000	-0.000	-0.000	-0.000	-0.000	-0.000	-0.000	-0.000	-0.000	-0.000	-0.000	-0.000	-0.000	-0.000	-0.000	-0.000	-0.000	-0.000	-0.000	-0.000	-0.000	-0.000	-0.000	-0.000	-0.000	-0.000	-0.000	-0.000	-0.000	-0.000	-0.000	-0.000	-0.000	-0.000	-0.000	-0.000	-0.000	-0.000	-0.000	-0.000	-0.000	-0.000	-0.000	-0.000	0.000	-0.000	0.000	-0.000	0.000	-0.000	0.000	-0.000	0.000	-0.000	0.000	-0.000	0.000	-0.000	0.000	-0.000	-0.000	0.000	-0.000	0.000	-0.000	0.000	-0.000	0.000	-0.000	0.002	-0.006	0.021	0.040	0.058	0.089	0.126	0.188	0.261	0.328	0.406	0.507	0.566	0.587	0.564	0.456	0.313	0.211	0.102	0.041	0.033	0.007	-0.002	0.001	-0.000	0.000	-0.000
0.000	0.000	-0.001	0.002	-0.007	-0.033	-0.041	-0.102	-0.209	-0.321	-0.486	-0.613	-0.661	-0.644	-0.541	-0.430	-0.320	-0.210	-0.161	-0.108	-0.068	-0.039	-0.014	-0.024	-0.010	0.003	-0.001	0.000	-0.000	0.000	-0.000	0.000	-0.000	0.000	-0.000	0.000	0.000	-0.000	0.000	-0.000	0.000	-0.000	0.000	-0.000	0.000	-0.000	0.000	-0.000	0.000	-0.000	0.000	-0.000	-0.000	-0.000	-0.000	-0.000	-0.000	-0.000	-0.000	-0.000	-0.000	-0.000	-0.000	-0.000	-0.000	-0.000	-0.000	-0.000	-0.000	-0.000	-0.000	-0.000	-0.000	-0.000	-0.000	-0.000	-0.000	-0.000	-0.000	-0.000	-0.000	-0.000	-0.000	-0.000	-0.000	-0.000	-0.000	-0.000	-0.000	-0.000	-0.000	-0.000	-0.000	-0.000	-0.000	-0.000	-0.000	-0.000	-0.000	-0.000	-0.000	-0.000	-0.000	-0.000	-0.000	-0.000	-0.000	-0.000	-0.000	-0.000	0.000	-0.000	0.000	-0.000	0.000	-0.000	0.000	-0.000	0.000	-0.000	0.000	-0.000	0.000	-0.000	-0.000	0.000	-0.000	0.000	-0.000	0.000	-0.000	0.000	-0.000	0.001	-0.003	0.010	0.024	0.014	0.039	0.068	0.108	0.161	0.210	0.320	0.430	0.541	0.644	0.661	0.613	0.486	0.321	0.209	0.102	0.041	0.033	0.007	-0.002	0.001	-0.000	0.000
-0.000	-0.001	0.003	-0.012	-0.016	-0.045	-0.103	-0.204	-0.340	-0.476	-0.635	-0.703	-0.694	-0.600	-0.445	-0.321	-0.192	-0.112	-0.080	-0.048	-0.028	-0.020	-0.011	0.003	-0.001	0.000	-0.000	0.000	-0.000	0.000	-0.000	0.000	-0.000	0.000	-0.000	-0.000	0.000	-0.000	0.000	-0.000	0.000	-0.000	0.000	-0.000	0.000	-0.000	0.000	-0.000	0.000	-0.000	-0.000	-0.000	-0.000	-0.000	-0.000	-0.000	-0.000	-0.000	-0.000	-0.000	-0.000	-0.000	-0.000	-0.000	-0.000	-0.000	-0.000	-0.000	-0.000	-0.000	-0.000	-0.000	-0.000	-0.000	-0.000	-0.000	-0.000	-0.000	-0.000	-0.000	-0.000	-0.000	-0.000	-0.000	-0.000	-0.000	-0.000	-0.000	-0.000	-0.000	-0.000	-0.000	-0.000	-0.000	-0.000	-0.000	-0.000	-0.000	-0.000	-0.000	-0.000	-0.000	-0.000	-0.000	-0.000	-0.000	-0.000	-0.000	-0.000	-0.000	0.000	-0.000	0.000	-0.000	0.000	-0.000	0.000	-0.000	0.000	-0.000	0.000	-0.000	0.000	-0.000	0.000	0.000	-0.000	0.000	-0.000	0.000	-0.000	0.000	-0.000	0.000	-0.000	0.001	-0.003	0.011	0.020	0.028	0.048	0.080	0.112	0.192	0.321	0.445	0.600	0.694	0.703	0.635	0.476	0.340	0.204	0.103	0.045	0.016	0.012	-0.003	0.001	-0.000
0.000	-0.001	0.005	-0.019	-0.048	-0.090	-0.194	-0.335	-0.506	-0.641	-0.710	-0.718	-0.619	-0.468	-0.330	-0.192	-0.104	-0.054	-0.042	-0.018	-0.007	-0.014	0.004	-0.001	0.000	-0.000	0.000	-0.000	0.000	-0.000	0.000	-0.000	0.000	-0.000	0.000	0.000	-0.000	0.000	-0.000	0.000	-0.000	0.000	-0.000	0.000	-0.000	0.000	-0.000	0.000	-0.000	0.000	-0.000	0.000	-0.000	0.000	-0.000	0.000	-0.000	0.000	-0.000	0.000	-0.000	0.000	-0.000	0.000	-0.000	0.000	-0.000	0.000	-0.000	0.000	-0.000	0.000	-0.000	0.000	-0.000	0.000	-0.000	0.000	-0.000	0.000	-0.000	0.000	-0.000	0.000	-0.000	0.000	-0.000	0.000	-0.000	0.000	-0.000	0.000	-0.000	0.000	-0.000	0.000	-0.000	0.000	-0.000	0.000	-0.000	0.000	-0.000	0.000	-0.000	0.000	-0.000	0.000	-0.000	0.000	-0.000	0.000	-0.000	0.000	-0.000	0.000	-0.000	0.000	-0.000	0.000	-0.000	0.000	-0.000	0.000	-0.000	-0.000	0.000	-0.000	0.000	-0.000	0.000	-0.000	0.000	-0.000	0.000	-0.000	0.001	-0.004	0.014	0.007	0.018	0.042	0.054	0.104	0.192	0.330	0.468	0.619	0.718	0.710	0.641	0.506	0.335	0.194	0.090	0.048	0.019	-0.005	0.001	0.000
-0.000	0.001	-0.006	-0.038	-0.083	-0.172	-0.311	-0.506	-0.666	-0.729	-0.737	-0.641	-0.479	-0.324	-0.204	-0.118	-0.042	-0.013	-0.024	-0.010	0.003	-0.001	0.000	-0.000	0.000	-0.000	0.000	-0.000	0.000	-0.000	0.000	-0.000	0.000	-0.000	0.000	-0.000	0.000	-0.000	0.000	-0.000	0.000	-0.000	0.000	-0.000	0.000	-0.000	0.000	-0.000	0.000	-0.000	0.000	-0.000	0.000	-0.000	0.000	-0.000	0.000	-0.000	0.000	-0.000	0.000	-0.000	0.000	-0.000	0.000	-0.000	0.000	-0.000	0.000	-0.000	0.000	-0.000	0.000	-0.000	0.000	-0.000	0.000	-0.000	0.000	-0.000	0.000	-0.000	0.000	-0.000	0.000	-0.000	0.000	-0.000	0.000	-0.000	0.000	-0.000	0.000	-0.000	0.000	-0.000	0.000	-0.000	0.000	-0.000	0.000	-0.000	0.000	-0.000	0.000	-0.000	0.000	-0.000	0.000	-0.000	0.000	-0.000	0.000	-0.000	0.000	-0.000	0.000	-0.000	0.000	-0.000	0.000	-0.000	0.000	-0.000	0.000	-0.000	0.000	-0.000	0.000	-0.000	0.000	-0.000	0.000	-0.000	0.000	-0.000	0.000	-0.000	0.001	-0.003	0.010	0.024	0.013	0.042	0.118	0.204	0.324	0.479	0.641	0.737	0.729	0.666	0.506	0.311	0.172	0.083	0.038	0.006	-0.001	-0.000
0.000	-0.011	-0.015	-0.050	-0.146	-0.266	-0.469	-0.679	-0.776	-0.778	-0.672	-0.494	-0.351	-0.202	-0.100	-0.058	-0.028	-0.008	0.002	-0.001	0.000	-0.000	0.000	-0.000	0.000	-0.000	0.000	-0.000	0.000	-0.000	0.000	-0.000	-0.000	0.000	-0.000	0.000	-0.000	0.000	-0.000	0.000	-0.000	0.000	-0.000	0.000	-0.000	0.000	-0.000	0.000	-0.000	0.000	-0.000	0.000	-0.000	0.000	-0.000	0.000	-0.000	0.000	-0.000	0.000	-0.000	0.000	-0.000	0.000	-0.000	0.000	-0.000	0.000	-0.000	0.000	-0.000	0.000	-0.000	0.000	-0.000	0.000	-0.000	0.000	-0.000	0.000	-0.000	0.000	-0.000	0.000	-0.000	0.000	-0.000	0.000	-0.000	0.000	-0.000	0.000	-0.000	0.000	-0.000	0.000	-0.000	0.000	-0.000	0.000	-0.000	0.000	-0.000	0.000	-0.000	0.000	-0.000	0.000	-0.000	0.000	-0.000	0.000	-0.000	0.000	-0.000	0.000	-0.000	0.000	-0.000	0.000	-0.000	0.000	-0.000	0.000	-0.000	0.000	-0.000	0.000	0.000	-0.000	0.000	-0.000	0.000	-0.000	0.000	-0.000	0.000	-0.000	0.000	-0.000	0.001	-0.002	0.008	0.028	0.058	0.100	0.202	0.351	0.494	0.672	0.778	0.776	0.679	0.469	0.266	0.146	0.050	0.015	0.011	0.000
-0.000	-0.006	-0.037	-0.085	-0.222	-0.407	-0.612	-0.806	-0.843	-0.743	-0.564	-0.361	-0.211	-0.114	-0.054	-0.029	-0.008	0.002	-0.001	0.000	-0.000	0.000	-0.000	0.000	-0.000	0.000	-0.000	0.000	-0.000	0.000	-0.000	0.000	-0.000	0.000	-0.000	0.000	-0.000	0.000	-0.000	0.000	-0.000	0.000	-0.000	0.000	-0.000	0.000	-0.000	0.000	-0.000	0.000	-0.000	0.000	-0.000	0.000	-0.000	0.000	-0.000	0.000	-0.000	0.000	-0.000	0.000	-0.000	0.000	-0.000	0.000	-0.000	0.000	-0.000	0.000	-0.000	0.000	-0.000	0.000	-0.000	0.000	-0.000	0.000	-0.000	0.000	-0.000	0.000	-0.000	0.000	-0.000	0.000	-0.000	0.000	-0.000	0.000	-0.000	0.000	-0.000	0.000	-0.000	0.000	-0.000	0.000	-0.000	0.000	-0.000	0.000	-0.000	0.000	-0.000	0.000	-0.000	0.000	-0.000	0.000	-0.000	0.000	-0.000	0.000	-0.000	0.000	-0.000	0.000	-0.000	0.000	-0.000	0.000	-0.000	0.000	-0.000	0.000	-0.000	0.000	-0.000	0.000	-0.000	0.000	-0.000	0.000	-0.000	0.000	-0.000	0.000	-0.000	0.000	-0.000	0.001	-0.002	0.008	0.029	0.054	0.114	0.211	0.361	0.564	0.743	0.843	0.806	0.612	0.407	0.222	0.085	0.037	0.006	-0.000
0.000	-0.018	-0.048	-0.152	-0.306	-0.545	-0.754	-0.879	-0.832	-0.655	-0.449	-0.248	-0.120	-0.053	-0.030	-0.008	0.002	-0.001	0.000	-0.000	0.000	-0.000	0.000	-0.000	0.000	-0.000	0.000	-0.000	0.000	-0.000	0.000	-0.000	-0.000	0.000	-0.000	0.000	-0.000	0.000	-0.000	0.000	-0.000	0.000	-0.000	0.000	-0.000	0.000	-0.000	0.000	-0.000	0.000	-0.000	0.000	-0.000	0.000	-0.000	0.000	-0.000	0.000	-0.000	0.000	-0.000	0.000	-0.000	0.000	-0.000	0.000	-0.000	0.000	-0.000	0.000	-0.000	0.000	-0.000	0.000	-0.000	0.000	-0.000	0.000	-0.000	0.000	-0.000	0.000	-0.000	0.000	-0.000	0.000	-0.000	0.000	-0.000	0.000	-0.000	0.000	-0.000	0.000	-0.000	0.000	-0.000	0.000	-0.000	0.000	-0.000	0.000	-0.000	0.000	-0.000	0.000	-0.000	0.000	-0.000	0.000	-0.000	0.000	-0.000	0.000	-0.000	0.000	-0.000	0.000	-0.000	0.000	-0.000	0.000	-0.000	0.000	-0.000	0.000	-0.000	0.000	0.000	-0.000	0.000	-0.000	0.000	-0.000	0.000	-0.000	0.000	-0.000	0.000	-0.000	0.000	-0.000	0.001	-0.002	0.008	0.030	0.053	0.120	0.248	0.449	0.655	0.832	0.879	0.754	0.545	0.306	0.152	0.048	0.018	0.000
-0.000	-0.038	-0.089	-0.205	-0.411	-0.671	-0.865	-0.910	-0.774	-0.552	-0.318	-0.157	-0.075	-0.024	-0.010	0.003	-0.001	0.000	-0.000	0.000	-0.000	0.000	-0.000	0.000	-0.000	0.000	-0.000	0.000	-0.000	0.000	-0.000	0.000	-0.000	0.000	-0.000	0.000	-0.000	0.000	-0.000	0.000	-0.000	0.000	-0.000	0.000	-0.000	0.000	-0.000	0.000	-0.000	0.000	-0.000	0.000	-0.000	0.000	-0.000	0.000	-0.000	0.000	-0.000	0.000	-0.000	0.000	-0.000	0.000	-0.000	0.000	-0.000	0.000	-0.000	0.000	-0.000	0.000	-0.000	0.000	-0.000	0.000	-0.000	0.000	-0.000	0.000	-0.000	0.000	-0.000	0.000	-0.000	0.000	-0.000	0.000	-0.000	0.000	-0.000	0.000	-0.000	0.000	-0.000	0.000	-0.000	0.000	-0.000	0.000	-0.000	0.000	-0.000	0.000	-0.000	0.000	-0.000	0.000	-0.000	0.000	-0.000	0.000	-0.000	0.000	-0.000	0.000	-0.000	0.000	-0.000	0.000	-0.000	0.000	-0.000	0.000	-0.000	0.000	-0.000	0.000	-0.000	0.000	-0.000	0.000	-0.000	0.000	-0.000	0.000	-0.000	0.000	-0.000	0.000	-0.000	0.000	-0.000	0.001	-0.003	0.010	0.024	0.075	0.157	0.318	0.552	0.774	0.910	0.865	0.671	0.411	0.205	0.089	0.038	-0.000
0.000	-0.059	-0.123	-0.288	-0.526	-0.790	-0.935	-0.872	-0.679	-0.433	-0.227	-0.097	-0.046	-0.020	0.005	-0.001	0.000	-0.000	0.000	-0.000	0.000	-0.000	0.000	-0.000	0.000	-0.000	0.000	-0.000	0.000	-0.000	0.000	-0.000	0.000	0.000	-0.000	0.000	-0.000	0.000	-0.000	0.000	-0.000	0.000	-0.000	0.000	-0.000	0.000	-0.000	0.000	-0.000	0.000	-0.000	0.000	-0.000	0.000	-0.000	0.000	-0.000	0.000	-0.000	0.000	-0.000	0.000	-0.000	0.000	-0.000	0.000	-0.000	0.000	-0.000	0.000	-0.000	0.000	-0.000	0.000	-0.000	0.000	-0.000	0.000	-0.000	0.000	-0.000	0.000	-0.000	0.000	-0.000	0.000	-0.000	0.000	-0.000	0.000	-0.000	0.000	-0.000	0.000	-0.000	0.000	-0.000	0.000	-0.000	0.000	-0.000	0.000	-0.000	0.000	-0.000	0.000	-0.000	0.000	-0.000	0.000	-0.000	0.000	-0.000	0.000	-0.000	0.000	-0.000	0.000	-0.000	0.000	-0.000	0.000	-0.000	0.000	-0.000	0.000	-0.000	-0.000	0.000	-0.000	0.000	-0.000	0.000	-0.000	0.000	-0.000	0.000	-0.000	0.000	-0.000	0.000	-0.000	0.000	-0.000	0.001	-0.005	0.020	0.046	0.097	0.227	0.433	0.679	0.872	0.935	0.790	0.526	0.288	0.123	0.059	0.000
0.000	-0.077	-0.171	-0.380	-0.649	-0.862	-0.941	-0.835	-0.580	-0.325	-0.159	-0.058	-0.028	-0.008	0.002	-0.001	0.000	-0.000	0.000	-0.000	0.000	-0.000	0.000	-0.000	0.000	-0.000	0.000	-0.000	0.000	-0.000	0.000	-0.000	0.000	-0.000	0.000	-0.000	0.000	-0.000	0.000	-0.000	0.000	-0.000	0.000	-0.000	0.000	-0.000	0.000	-0.000	0.000	-0.000	0.000	-0.000	0.000	-0.000	0.000	-0.000	0.000	-0.000	0.000	-0.000	0.000	-0.000	0.000	-0.000	0.000	-0.000	0.000	-0.000	0.000	-0.000	0.000	-0.000	0.000	-0.000	0.000	-0.000	0.000	-0.000	0.000	-0.000	0.000	-0.000	0.000	-0.000	0.000	-0.000	0.000	-0.000	0.000	-0.000	0.000	-0.000	0.000	-0.000	0.000	-0.000	0.000	-0.000	0.000	-0.000	0.000	-0.000	0.000	-0.000	0.000	-0.000	0.000	-0.000	0.000	-0.000	0.000	-0.000	0.000	-0.000	0.000	-0.000	0.000	-0.000	0.000	-0.000	0.000	-0.000	0.000	-0.000	0.000	-0.000	0.000	-0.000	0.000	-0.000	0.000	-0.000	0.000	-0.000	0.000	-0.000	0.000	-0.000	0.000	-0.000	0.000	-0.000	0.000	-0.000	0.001	-0.002	0.008	0.028	0.058	0.159	0.325	0.580	0.835	0.941	0.862	0.649	0.380	0.171	0.077	0.000
0.000	-0.108	-0.229	-0.477	-0.744	-0.928	-0.945	-0.752	-0.487	-0.241	-0.108	-0.047	-0.003	0.001	-0.000	0.000	-0.000	0.000	-0.000	0.000	-0.000	0.000	-0.000	0.000	-0.000	0.000	-0.000	0.000	-0.000	0.000	-0.000	0.000	-0.000	-0.000	0.000	-0.000	0.000	-0.000	0.000	-0.000	0.000	-0.000	0.000	-0.000	0.000	-0.000	0.000	-0.000	0.000	-0.000	0.000	-0.000	0.000	-0.000	0.000	-0.000	0.000	-0.000	0.000	-0.000	0.000	-0.000	0.000	-0.000	0.000	-0.000	0.000	-0.000	0.000	-0.000	0.000	-0.000	0.000	-0.000	0.000	-0.000	0.000	-0.000	0.000	-0.000	0.000	-0.000	0.000	-0.000	0.000	-0.000	0.000	-0.000	0.000	-0.000	0.000	-0.000	0.000	-0.000	0.000	-0.000	0.000	-0.000	0.000	-0.000	0.000	-0.000	0.000	-0.000	0.000	-0.000	0.000	-0.000	0.000	-0.000	0.000	-0.000	0.000	-0.000	0.000	-0.000	0.000	-0.000	0.000	-0.000	0.000	-0.000	0.000	-0.000	0.000	-0.000	0.000	0.000	-0.000	0.000	-0.000	0.000	-0.000	0.000	-0.000	0.000	-0.000	0.000	-0.000	0.000	-0.000	0.000	-0.000	0.000	-0.000	0.000	-0.001	0.003	0.047	0.108	0.241	0.487	0.752	0.945	0.928	0.744	0.477	0.229	0.108	0.000
0.000	-0.133	-0.307	-0.558	-0.820	-0.963	-0.910	-0.678	-0.400	-0.183	-0.068	-0.026	-0.009	0.002	-0.001	0.000	-0.000	0.000	-0.000	0.000	-0.000	0.000	-0.000	0.000	-0.000	0.000	-0.000	0.000	-0.000	0.000	-0.000	0.000	-0.000	0.000	-0.000	0.000	-0.000	0.000	-0.000	0.000	-0.000	0.000	-0.000	0.000	-0.000	0.000	-0.000	0.000	-0.000	0.000	-0.000	0.000	-0.000	0.000	-0.000	0.000	-0.000	0.000	-0.000	0.000	-0.000	0.000	-0.000	0.000	-0.000	0.000	-0.000	0.000	-0.000	0.000	-0.000	0.000	-0.000	0.000	-0.000	0.000	-0.000	0.000	-0.000	0.000	-0.000	0.000	-0.000	0.000	-0.000	0.000	-0.000	0.000	-0.000	0.000	-0.000	0.000	-0.000	0.000	-0.000	0.000	-0.000	0.000	-0.000	0.000	-0.000	0.000	-0.000	0.000	-0.000	0.000	-0.000	0.000	-0.000	0.000	-0.000	0.000	-0.000	0.000	-0.000	0.000	-0.000	0.000	-0.000	0.000	-0.000	0.000	-0.000	0.000	-0.000	0.000	-0.000	0.000	-0.000	0.000	-0.000	0.000	-0.000	0.000	-0.000	0.000	-0.000	0.000	-0.000	0.000	-0.000	0.000	-0.000	0.000	-0.000	0.001	-0.002	0.009	0.026	0.068	0.183	0.400	0.678	0.910	0.963	0.820	0.558	0.307	0.133	0.000
-0.000	-0.167	-0.351	-0.648	-0.896	-0.988	-0.851	-0.586	-0.343	-0.142	-0.050	-0.019	0.005	-0.001	0.000	-0.000	0.000	-0.000	0.000	-0.000	0.000	-0.000	0.000	-0.000	0.000	-0.000	0.000	-0.000	0.000	-0.000	0.000	-0.000	0.000	-0.000	0.000	0.000	-0.000	0.000	-0.000	0.000	-0.000	0.000	-0.000	0.000	-0.000	0.000	-0.000	0.000	-0.000	0.000	-0.000	0.000	-0.000	0.000	-0.000	0.000	-0.000	0.000	-0.000	0.000	-0.000	0.000	-0.000	0.000	-0.000	0.000	-0.000	0.000	-0.000	0.000	-0.000	0.000	-0.000	0.000	-0.000	0.000	-0.000	0.000	-0.000	0.000	-0.000	0.000	-0.000	0.000	-0.000	0.000	-0.000	0.000	-0.000	0.000	-0.000	0.000	-0.000	0.000	-0.000	0.000	-0.000	0.000	-0.000	0.000	-0.000	0.000	-0.000	0.000	-0.000	0.000	-0.000	0.000	-0.000	0.000	-0.000	0.000	-0.000	0.000	-0.000	0.000	-0.000	0.000	-0.000	0.000	-0.000	0.000	-0.000	0.000	-0.000	-0.000	0.000	-0.000	0.000	-0.000	0.000	-0.000	0.000	-0.000	0.000	-0.000	0.000	-0.000	0.000	-0.000	0.000	-0.000	0.000	-0.000	0.000	-0.000	0.001	-0.005	0.019	0.050	0.142	0.343	0.586	0.851	0.988	0.896	0.648	0.351	0.167	-0.000
0.000	-0.215	-0.402	-0.698	-0.944	-0.984	-0.820	-0.537	-0.272	-0.116	-0.045	-0.004	0.001	-0.000	0.000	-0.000	0.000	-0.000	0.000	-0.000	0.000	-0.000	0.000	-0.000	0.000	-0.000	0.000	-0.000	0.000	-0.000	0.000	-0.000	0.000	-0.000	0.000	-0.000	0.000	-0.000	0.000	-0.000	0.000	-0.000	0.000	-0.000	0.000	-0.000	0.000	-0.000	0.000	-0.000	0.000	-0.000	0.000	-0.000	0.000	-0.000	0.000	-0.000	0.000	-0.000	0.000	-0.000	0.000	-0.000	0.000	-0.000	0.000	-0.000	0.000	-0.000	0.000	-0.000	0.000	-0.000	0.000	-0.000	0.000	-0.000	0.000	-0.000	0.000	-0.000	0.000	-0.000	0.000	-0.000	0.000	-0.000	0.000	-0.000	0.000	-0.000	0.000	-0.000	0.000	-0.000	0.000	-0.000	0.000	-0.000	0.000	-0.000	0.000	-0.000	0.000	-0.000	0.000	-0.000	0.000	-0.000	0.000	-0.000	0.000	-0.000	0.000	-0.000	0.000	-0.000	0.000	-0.000	0.000	-0.000	0.000	-0.000	0.000	-0.000	0.000	-0.000	0.000	-0.000	0.000	-0.000	0.000	-0.000	0.000	-0.000	0.000	-0.000	0.000	-0.000	0.000	-0.000	0.000	-0.000	0.000	-0.000	0.000	-0.001	0.004	0.045	0.116	0.272	0.537	0.820	0.984	0.944	0.698	0.402	0.215	0.000
0.000	-0.220	-0.438	-0.726	-0.979	-1.000	-0.782	-0.494	-0.243	-0.096	-0.034	-0.007	0.002	-0.000	0.000	-0.000	0.000	-0.000	0.000	-0.000	0.000	-0.000	0.000	-0.000	0.000	-0.000	0.000	-0.000	0.000	-0.000	0.000	-0.000	0.000	-0.000	0.000	-0.000	-0.000	0.000	-0.000	0.000	-0.000	0.000	-0.000	0.000	-0.000	0.000	-0.000	0.000	-0.000	0.000	-0.000	0.000	-0.000	0.000	-0.000	0.000	-0.000	0.000	-0.000	0.000	-0.000	0.000	-0.000	0.000	-0.000	0.000	-0.000	0.000	-0.000	0.000	-0.000	0.000	-0.000	0.000	-0.000	0.000	-0.000	0.000	-0.000	0.000	-0.000	0.000	-0.000	0.000	-0.000	0.000	-0.000	0.000	-0.000	0.000	-0.000	0.000	-0.000	0.000	-0.000	0.000	-0.000	0.000	-0.000	0.000	-0.000	0.000	-0.000	0.000	-0.000	0.000	-0.000	0.000	-0.000	0.000	-0.000	0.000	-0.000	0.000	-0.000	0.000	-0.000	0.000	-0.000	0.000	-0.000	0.000	-0.000	0.000	0.000	-0.000	0.000	-0.000	0.000	-0.000	0.000	-0.000	0.000	-0.000	0.000	-0.000	0.000	-0.000	0.000	-0.000	0.000	-0.000	0.000	-0.000	0.000	-0.000	0.000	-0.002	0.007	0.034	0.096	0.243	0.494	0.782	1.000	0.979	0.726	0.438	0.220	0.000
-0.000	-0.234	-0.443	-0.753	-0.987	-1.001	-0.769	-0.484	-0.237	-0.069	-0.025	-0.009	0.002	-0.001	0.000	-0.000	0.000	-0.000	0.000	-0.000	0.000	-0.000	0.000	-0.000	0.000	-0.000	0.000	-0.000	0.000	-0.000	0.000	-0.000	0.000	-0.000	0.000	-0.000	0.000	-0.000	0.000	-0.000	0.000	-0.000	0.000	-0.000	0.000	-0.000	0.000	-0.000	0.000	-0.000	0.000	-0.000	0.000	-0.000	0.000	-0.000	0.000	-0.000	0.000	-0.000	0.000	-0.000	0.000	-0.000	0.000	-0.000	0.000	-0.000	0.000	-0.000	0.000	-0.000	0.000	-0.000	0.000	-0.000	0.000	-0.000	0.000	-0.000	0.000	-0.000	0.000	-0.000	0.000	-0.000	0.000	-0.000	0.000	-0.000	0.000	-0.000	0.000	-0.000	0.000	-0.000	0.000	-0.000	0.000	-0.000	0.000	-0.000	0.000	-0.000	0.000	-0.000	0.000	-0.000	0.000	-0.000	0.000	-0.000	0.000	-0.000	0.000	-0.000	0.000	-0.000	0.000	-0.000	0.000	-0.000	0.000	-0.000	0.000	-0.000	0.000	-0.000	0.000	-0.000	0.000	-0.000	0.000	-0.000	0.000	-0.000	0.000	-0.000	0.000	-0.000	0.000	-0.000	0.000	-0.000	0.000	-0.000	0.001	-0.002	0.009	0.025	0.069	0.237	0.484	0.769	1.001	0.987	0.753	0.443	0.234	-0.000
0.000	-0.232	-0.452	-0.781	-0.983	-0.985	-0.776	-0.470	-0.224	-0.073	-0.024	-0.010	0.003	-0.001	0.000	-0.000	0.000	-0.000	0.000	-0.000	0.000	-0.000	0.000	-0.000	0.000	-0.000	0.000	-0.000	0.000	-0.000	0.000	-0.000	0.000	-0.000	0.000	-0.000	0.000	-0.000	0.000	0.000	-0.000	0.000	-0.000	0.000	-0.000	0.000	-0.000	0.000	-0.000	0.000	-0.000	0.000	-0.000	0.000	-0.000	0.000	-0.000	0.000	-0.000	0.000	-0.000	0.000	-0.000	0.000	-0.000	0.000	-0.000	0.000	-0.000	0.000	-0.000	0.000	-0.000	0.000	-0.000	0.000	-0.000	0.000	-0.000	0.000	-0.000	0.000	-0.000	0.000	-0.000	0.000	-0.000	0.000	-0.000	0.000	-0.000	0.000	-0.000	0.000	-0.000	0.000	-0.000	0.000	-0.000	0.000	-0.000	0.000	-0.000	0.000	-0.000	0.000	-0.000	0.000	-0.000	0.000	-0.000	0.000	-0.000	0.000	-0.000	0.000	-0.000	0.000	-0.000	0.000	-0.000	-0.000	0.000	-0.000	0.000	-0.000	0.000	-0.000	0.000	-0.000	0.000	-0.000	0.000	-0.000	0.000	-0.000	0.000	-0.000	0.000	-0.000	0.000	-0.000	0.000	-0.000	0.000	-0.000	0.001	-0.003	0.010	0.024	0.073	0.224	0.470	0.776	0.985	0.983	0.781	0.452	0.232	0.000
-0.000	-0.232	-0.453	-0.778	-0.996	-0.997	-0.776	-0.458	-0.211	-0.076	-0.023	-0.010	0.003	-0.001	0.000	-0.000	0.000	-0.000	0.000	-0.000	0.000	-0.000	0.000	-0.000	0.000	-0.000	0.000	-0.000	0.000	-0.000	0.000	-0.000	0.000	-0.000	0.000	-0.000	0.000	-0.000	0.000	-0.000	0.000	-0.000	0.000	-0.000	0.000	-0.000	0.000	-0.000	0.000	-0.000	0.000	-0.000	0.000	-0.000	0.000	-0.000	0.000	-0.000	0.000	-0.000	0.000	-0.000	0.000	-0.000	0.000	-0.000	0.000	-0.000	0.000	-0.000	0.000	-0.000	0.000	-0.000	0.000	-0.000	0.000	-0.000	0.000	-0.000	0.000	-0.000	0.000	-0.000	0.000	-0.000	0.000	-0.000	0.000	-0.000	0.000	-0.000	0.000	-0.000	0.000	-0.000	0.000	-0.000	0.000	-0.000	0.000	-0.000	0.000	-0.000	0.000	-0.000	0.000	-0.000	0.000	-0.000	0.000	-0.000	0.000	-0.000	0.000	-0.000	0.000	-0.000	0.000	-0.000	0.000	-0.000	0.000	-0.000	0.000	-0.000	0.000	-0.000	0.000	-0.000	0.000	-0.000	0.000	-0.000	0.000	-0.000	0.000	-0.000	0.000	-0.000	0.000	-0.000	0.000	-0.000	0.000	-0.000	0.001	-0.003	0.010	0.023	0.076	0.211	0.458	0.776	0.997	0.996	0.778	0.453	0.232	-0.000
0.000	-0.232	-0.453	-0.778	-0.996	-0.997	-0.776	-0.458	-0.211	-0.076	-0.023	-0.010	0.003	-0.001	0.000	-0.000	0.000	-0.000	0.000	-0.000	0.000	-0.000	0.000	-0.000	0.000	-0.000	0.000	-0.000	0.000	-0.000	0.000	-0.000	0.000	-0.000	0.000	-0.000	0.000	-0.000	0.000	0.000	-0.000	0.000	-0.000	0.000	-0.000	0.000	-0.000	0.000	-0.000	0.000	-0.000	0.000	-0.000	0.000	-0.000	0.000	-0.000	0.000	-0.000	0.000	-0.000	0.000	-0.000	0.000	-0.000	0.000	-0.000	0.000	-0.000	0.000	-0.000	0.000	-0.000	0.000	-0.000	0.000	-0.000	0.000	-0.000	0.000	-0.000	0.000	-0.000	0.000	-0.000	0.000	-0.000	0.000	-0.000	0.000	-0.000	0.000	-0.000	0.000	-0.000	0.000	-0.000	0.000	-0.000	0.000	-0.000	0.000	-0.000	0.000	-0.000	0.000	-0.000	0.000	-0.000	0.000	-0.000	0.000	-0.000	0.000	-0.000	0.000	-0.000	0.000	-0.000	0.000	-0.000	-0.000	0.000	-0.000	0.000	-0.000	0.000	-0.000	0.000	-0.000	0.000	-0.000	0.000	-0.000	0.000	-0.000	0.000	-0.000	0.000	-0.000	0.000	-0.000	0.000	-0.000	0.000	-0.000	0.001	-0.003	0.010	0.023	0.076	0.211	0.458	0.776	0.997	0.996	0.778	0.453	0.232	0.000
-0.000	-0.232	-0.452	-0.781	-0.983	-0.985	-0.776	-0.470	-0.224	-0.073	-0.024	-0.010	0.003	-0.001	0.000	-0.000	0.000	-0.000	0.000	-0.000	0.000	-0.000	0.000	-0.000	0.000	-0.000	0.000	-0.000	0.000	-0.000	0.000	-0.000	0.000	-0.000	0.000	-0.000	0.000	-0.000	0.000	-0.000	0.000	-0.000	0.000	-0.000	0.000	-0.000	0.000	-0.000	0.000	-0.000	0.000	-0.000	0.000	-0.000	0.000	-0.000	0.000	-0.000	0.000	-0.000	0.000	-0.000	0.000	-0.000	0.000	-0.000	0.000	-0.000	0.000	-0.000	0.000	-0.000	0.000	-0.000	0.000	-0.000	0.000	-0.000	0.000	-0.000	0.000	-0.000	0.000	-0.000	0.000	-0.000	0.000	-0.000	0.000	-0.000	0.000	-0.000	0.000	-0.000	0.000	-0.000	0.000	-0.000	0.000	-0.000	0.000	-0.000	0.000	-0.000	0.000	-0.000	0.000	-0.000	0.000	-0.000	0.000	-0.000	0.000	-0.000	0.000	-0.000	0.000	-0.000	0.000	-0.000	0.000	-0.000	0.000	-0.000	0.000	-0.000	0.000	-0.000	0.000	-0.000	0.000	-0.000	0.000	-0.000	0.000	-0.000	0.000	-0.000	0.000	-0.000	0.000	-0.000	0.000	-0.000	0.000	-0.000	0.001	-0.003	0.010	0.024	0.073	0.224	0.470	0.776	0.985	0.983	0.781	0.452	0.232	-0.000
0.000	-0.234	-0.443	-0.753	-0.987	-1.001	-0.769	-0.484	-0.237	-0.069	-0.025	-0.009	0.002	-0.001	0.000	-0.000	0.000	-0.000	0.000	-0.000	0.000	-0.000	0.000	-0.000	0.000	-0.000	0.000	-0.000	0.000	-0.000	0.000	-0.000	0.000	-0.000	0.000	-0.000	0.000	-0.000	-0.000	0.000	-0.000	0.000	-0.000	0.000	-0.000	0.000	-0.000	0.000	-0.000	0.000	-0.000	0.000	-0.000	0.000	-0.000	0.000	-0.000	0.000	-0.000	0.000	-0.000	0.000	-0.000	0.000	-0.000	0.000	-0.000	0.000	-0.000	0.000	-0.000	0.000	-0.000	0.000	-0.000	0.000	-0.000	0.000	-0.000	0.000	-0.000	0.000	-0.000	0.000	-0.000	0.000	-0.000	0.000	-0.000	0.000	-0.000	0.000	-0.000	0.000	-0.000	0.000	-0.000	0.000	-0.000	0.000	-0.000	0.000	-0.000	0.000	-0.000	0.000	-0.000	0.000	-0.000	0.000	-0.000	0.000	-0.000	0.000	-0.000	0.000	-0.000	0.000	-0.000	0.000	-0.000	0.000	0.000	-0.000	0.000	-0.000	0.000	-0.000	0.000	-0.000	0.000	-0.000	0.000	-0.000	0.000	-0.000	0.000	-0.000	0.000	-0.000	0.000	-0.000	0.000	-0.000	0.000	-0.000	0.001	-0.002	0.009	0.025	0.069	0.237	0.484	0.769	1.001	0.987	0.753	0.443	0.234	0.000
-0.000	-0.220	-0.438	-0.726	-0.979	-1.000	-0.782	-0.494	-0.243	-0.096	-0.034	-0.007	0.002	-0.000	0.000	-0.000	0.000	-0.000	0.000	-0.000	0.000	-0.000	0.000	-0.000	0.000	-0.000	0.000	-0.000	0.000	-0.000	0.000	-0.000	0.000	-0.000	0.000	-0.000	0.000	-0.000	0.000	-0.000	0.000	-0.000	0.000	-0.000	0.000	-0.000	0.000	-0.000	0.000	-0.000	0.000	-0.000	0.000	-0.000	0.000	-0.000	0.000	-0.000	0.000	-0.000	0.000	-0.000	0.000	-0.000	0.000	-0.000	0.000	-0.000	0.000	-0.000	0.000	-0.000	0.000	-0.000	0.000	-0.000	0.000	-0.000	0.000	-0.000	0.000	-0.000	0.000	-0.000	0.000	-0.000	0.000	-0.000	0.000	-0.000	0.000	-0.000	0.000	-0.000	0.000	-0.000	0.000	-0.000	0.000	-0.000	0.000	-0.000	0.000	-0.000	0.000	-0.000	0.000	-0.000	0.000	-0.000	0.000	-0.000	0.000	-0.000	0.000	-0.000	0.000	-0.000	0.000	-0.000	0.000	-0.000	0.000	-0.000	0.000	-0.000	0.000	-0.000	0.000	-0.000	0.000	-0.000	0.000	-0.000	0.000	-0.000	0.000	-0.000	0.000	-0.000	0.000	-0.000	0.000	-0.000	0.000	-0.000	0.000	-0.002	0.007	0.034	0.096	0.243	0.494	0.782	1.000	0.979	0.726	0.438	0.220	-0.000
-0.000	-0.215	-0.402	-0.698	-0.944	-0.984	-0.820	-0.537	-0.272	-0.116	-0.045	-0.004	0.001	-0.000	0.000	-0.000	0.000	-0.000	0.000	-0.000	0.000	-0.000	0.000	-0.000	0.000	-0.000	0.000	-0.000	0.000	-0.000	0.000	-0.000	0.000	-0.000	0.000	0.000	-0.000	0.000	-0.000	0.000	-0.000	0.000	-0.000	0.000	-0.000	0.000	-0.000	0.000	-0.000	0.000	-0.000	0.000	-0.000	0.000	-0.000	0.000	-0.000	0.000	-0.000	0.000	-0.000	0.000	-0.000	0.000	-0.000	0.000	-0.000	0.000	-0.000	0.000	-0.000	0.000	-0.000	0.000	-0.000	0.000	-0.000	0.000	-0.000	0.000	-0.000	0.000	-0.000	0.000	-0.000	0.000	-0.000	0.000	-0.000	0.000	-0.000	0.000	-0.000	0.000	-0.000	0.000	-0.000	0.000	-0.000	0.000	-0.000	0.000	-0.000	0.000	-0.000	0.000	-0.000	0.000	-0.000	0.000	-0.000	0.000	-0.000	0.000	-0.000	0.000	-0.000	0.000	-0.000	0.000	-0.000	0.000	-0.000	0.000	-0.000	-0.000	0.000	-0.000	0.000	-0.000	0.000	-0.000	0.000	-0.000	0.000	-0.000	0.000	-0.000	0.000	-0.000	0.000	-0.000	0.000	-0.000	0.000	-0.000	0.000	-0.001	0.004	0.045	0.116	0.272	0.537	0.820	0.984	0.944	0.698	0.402	0.215	-0.000
0.000	-0.167	-0.351	-0.648	-0.896	-0.988	-0.851	-0.586	-0.343	-0.142	-0.050	-0.019	0.005	-0.001	0.000	-0.000	0.000	-0.000	0.000	-0.000	0.000	-0.000	0.000	-0.000	0.000	-0.000	0.000	-0.000	0.000	-0.000	0.000	-0.000	0.000	-0.000	0.000	-0.000	0.000	-0.000	0.000	-0.000	0.000	-0.000	0.000	-0.000	0.000	-0.000	0.000	-0.000	0.000	-0.000	0.000	-0.000	0.000	-0.000	0.000	-0.000	0.000	-0.000	0.000	-0.000	0.000	-0.000	0.000	-0.000	0.000	-0.000	0.000	-0.000	0.000	-0.000	0.000	-0.000	0.000	-0.000	0.000	-0.000	0.000	-0.000	0.000	-0.000	0.000	-0.000	0.000	-0.000	0.000	-0.000	0.000	-0.000	0.000	-0.000	0.000	-0.000	0.000	-0.000	0.000	-0.000	0.000	-0.000	0.000	-0.000	0.000	-0.000	0.000	-0.000	0.000	-0.000	0.000	-0.000	0.000	-0.000	0.000	-0.000	0.000	-0.000	0.000	-0.000	0.000	-0.000	0.000	-0.000	0.000	-0.000	0.000	-0.000	0.000	-0.000	0.000	-0.000	0.000	-0.000	0.000	-0.000	0.000	-0.000	0.000	-0.000	0.000	-0.000	0.000	-0.000	0.000	-0.000	0.000	-0.000	0.000	-0.000	0.001	-0.005	0.019	0.050	0.142	0.343	0.586	0.851	0.988	0.896	0.648	0.351	0.167	0.000
-0.000	-0.133	-0.307	-0.558	-0.820	-0.963	-0.910	-0.678	-0.400	-0.183	-0.068	-0.026	-0.009	0.002	-0.001	0.000	-0.000	0.000	-0.000	0.000	-0.000	0.000	-0.000	0.000	-0.000	0.000	-0.000	0.000	-0.000	0.000	-0.000	0.000	-0.000	0.000	-0.000	-0.000	0.000	-0.000	0.000	-0.000	0.000	-0.000	0.000	-0.000	0.000	-0.000	0.000	-0.000	0.000	-0.000	0.000	-0.000	0.000	-0.000	0.000	-0.000	0.000	-0.000	0.000	-0.000	0.000	-0.000	0.000	-0.000	0.000	-0.000	0.000	-0.000	0.000	-0.000	0.000	-0.000	0.000	-0.000	0.000	-0.000	0.000	-0.000	0.000	-0.000	0.000	-0.000	0.000	-0.000	0.000	-0.000	0.000	-0.000	0.000	-0.000	0.000	-0.000	0.000	-0.000	0.000	-0.000	0.000	-0.000	0.000	-0.000	0.000	-0.000	0.000	-0.000	0.000	-0.000	0.000	-0.000	0.000	-0.000	0.000	-0.000	0.000	-0.000	0.000	-0.000	0.000	-0.000	0.000	-0.000	0.000	-0.000	0.000	-0.000	0.000	0.000	-0.000	0.000	-0.000	0.000	-0.000	0.000	-0.000	0.000	-0.000	0.000	-0.000	0.000	-0.000	0.000	-0.000	0.000	-0.000	0.000	-0.000	0.001	-0.002	0.009	0.026	0.068	0.183	0.400	0.678	0.910	0.963	0.820	0.558	0.307	0.133	-0.000
-0.000	-0.108	-0.229	-0.477	-0.744	-0.928	-0.945	-0.752	-0.487	-0.241	-0.108	-0.047	-0.003	0.001	-0.000	0.000	-0.000	0.000	-0.000	0.000	-0.000	0.000	-0.000	0.000	-0.000	0.000	-0.000	0.000	-0.000	0.000	-0.000	0.000	-0.000	0.000	-0.000	0.000	-0.000	0.000	-0.000	0.000	-0.000	0.000	-0.000	0.000	-0.000	0.000	-0.000	0.000	-0.000	0.000	-0.000	0.000	-0.000	0.000	-0.000	0.000	-0.000	0.000	-0.000	0.000	-0.000	0.000	-0.000	0.000	-0.000	0.000	-0.000	0.000	-0.000	0.000	-0.000	0.000	-0.000	0.000	-0.000	0.000	-0.000	0.000	-0.000	0.000	-0.000	0.000	-0.000	0.000	-0.000	0.000	-0.000	0.000	-0.000	0.000	-0.000	0.000	-0.000	0.000	-0.000	0.000	-0.000	0.000	-0.000	0.000	-0.000	0.000	-0.000	0.000	-0.000	0.000	-0.000	0.000	-0.000	0.000	-0.000	0.000	-0.000	0.000	-0.000	0.000	-0.000	0.000	-0.000	0.000	-0.000	0.000	-0.000	0.000	-0.000	0.000	-0.000	0.000	-0.000	0.000	-0.000	0.000	-0.000	0.000	-0.000	0.000	-0.000	0.000	-0.000	0.000	-0.000	0.000	-0.000	0.000	-0.000	0.000	-0.001	0.003	0.047	0.108	0.241	0.487	0.752	0.945	0.928	0.744	0.477	0.229	0.108	-0.000
-0.000	-0.077	-0.171	-0.380	-0.649	-0.862	-0.941	-0.835	-0.580	-0.325	-0.159	-0.058	-0.028	-0.008	0.002	-0.001	0.000	-0.000	0.000	-0.000	0.000	-0.000	0.000	-0.000	0.000	-0.000	0.000	-0.000	0.000	-0.000	0.000	-0.000	0.000	-0.000	-0.000	0.000	-0.000	0.000	-0.000	0.000	-0.000	0.000	-0.000	0.000	-0.000	0.000	-0.000	0.000	-0.000	0.000	-0.000	0.000	-0.000	0.000	-0.000	0.000	-0.000	0.000	-0.000	0.000	-0.000	0.000	-0.000	0.000	-0.000	0.000	-0.000	0.000	-0.000	0.000	-0.000	0.000	-0.000	0.000	-0.000	0.000	-0.000	0.000	-0.000	0.000	-0.000	0.000	-0.000	0.000	-0.000	0.000	-0.000	0.000	-0.000	0.000	-0.000	0.000	-0.000	0.000	-0.000	0.000	-0.000	0.000	-0.000	0.000	-0.000	0.000	-0.000	0.000	-0.000	0.000	-0.000	0.000	-0.000	0.000	-0.000	0.000	-0.000	0.000	-0.000	0.000	-0.000	0.000	-0.000	0.000	-0.000	0.000	-0.000	0.000	-0.000	0.000	0.000	-0.000	0.000	-0.000	0.000	-0.000	0.000	-0.000	0.000	-0.000	0.000	-0.000	0.000	-0.000	0.000	-0.000	0.000	-0.000	0.001	-0.002	0.008	0.028	0.058	0.159	0.325	0.580	0.835	0.941	0.862	0.649	0.380	0.171	0.077	-0.000
-0.000	-0.059	-0.123	-0.288	-0.526	-0.790	-0.935	-0.872	-0.679	-0.433	-0.227	-0.097	-0.046	-0.020	0.005	-0.001	0.000	-0.000	0.000	-0.000	0.000	-0.000	0.000	-0.000	0.000	-0.000	0.000	-0.000	0.000	-0.000	0.000	-0.000	0.000	-0.000	0.000	-0.000	0.000	-0.000	0.000	-0.000	0.000	-0.000	0.000	-0.000	0.000	-0.000	0.000	-0.000	0.000	-0.000	0.000	-0.000	0.000	-0.000	0.000	-0.000	0.000	-0.000	0.000	-0.000	0.000	-0.000	0.000	-0.000	0.000	-0.000	0.000	-0.000	0.000	-0.000	0.000	-0.000	0.000	-0.000	0.000	-0.000	0.000	-0.000	0.000	-0.000	0.000	-0.000	0.000	-0.000	0.000	-0.000	0.000	-0.000	0.000	-0.000	0.000	-0.000	0.000	-0.000	0.000	-0.000	0.000	-0.000	0.000	-0.000	0.000	-0.000	0.000	-0.000	0.000	-0.000	0.000	-0.000	0.000	-0.000	0.000	-0.000	0.000	-0.000	0.000	-0.000	0.000	-0.000	0.000	-0.000	0.000	-0.000	0.000	-0.000	0.000	-0.000	0.000	-0.000	0.000	-0.000	0.000	-0.000	0.000	-0.000	0.000	-0.000	0.000	-0.000	0.000	-0.000	0.000	-0.000	0.000	-0.000	0.001	-0.005	0.020	0.046	0.097	0.227	0.433	0.679	0.872	0.935	0.790	0.526	0.288	0.123	0.059	-0.000
0.000	-0.038	-0.089	-0.205	-0.411	-0.671	-0.865	-0.910	-0.774	-0.552	-0.318	-0.157	-0.075	-0.024	-0.010	0.003	-0.001	0.000	-0.000	0.000	-0.000	0.000	-0.000	0.000	-0.000	0.000	-0.000	0.000	-0.000	0.000	-0.000	0.000	-0.000	-0.000	0.000	-0.000	0.000	-0.000	0.000	-0.000	0.000	-0.000	0.000	-0.000	0.000	-0.000	0.000	-0.000	0.000	-0.000	0.000	-0.000	0.000	-0.000	0.000	-0.000	0.000	-0.000	0.000	-0.000	0.000	-0.000	0.000	-0.000	0.000	-0.000	0.000	-0.000	0.000	-0.000	0.000	-0.000	0.000	-0.000	0.000	-0.000	0.000	-0.000	0.000	-0.000	0.000	-0.000	0.000	-0.000	0.000	-0.000	0.000	-0.000	0.000	-0.000	0.000	-0.000	0.000	-0.000	0.000	-0.000	0.000	-0.000	0.000	-0.000	0.000	-0.000	0.000	-0.000	0.000	-0.000	0.000	-0.000	0.000	-0.000	0.000	-0.000	0.000	-0.000	0.000	-0.000	0.000	-0.000	0.000	-0.000	0.000	-0.000	0.000	-0.000	0.000	-0.000	0.000	0.000	-0.000	0.000	-0.000	0.000	-0.000	0.000	-0.000	0.000	-0.000	0.000	-0.000	0.000	-0.000	0.000	-0.000	0.001	-0.003	0.010	0.024	0.075	0.157	0.318	0.552	0.774	0.910	0.865	0.671	0.411	0.205	0.089	0.038	0.000
-0.000	-0.018	-0.048	-0.152	-0.306	-0.545	-0.754	-0.879	-0.832	-0.655	-0.449	-0.248	-0.120	-0.053	-0.030	-0.008	0.002	-0.001	0.000	-0.000	0.000	-0.000	0.000	-0.000	0.000	-0.000	0.000	-0.000	0.000	-0.000	0.000	-0.000	0.000	-0.000	0.000	-0.000	0.000	-0.000	0.000	-0.000	0.000	-0.000	0.000	-0.000	0.000	-0.000	0.000	-0.000	0.000	-0.000	0.000	-0.000	0.000	-0.000	0.000	-0.000	0.000	-0.000	0.000	-0.000	0.000	-0.000	0.000	-0.000	0.000	-0.000	0.000	-0.000	0.000	-0.000	0.000	-0.000	0.000	-0.000	0.000	-0.000	0.000	-0.000	0.000	-0.000	0.000	-0.000	0.000	-0.000	0.000	-0.000	0.000	-0.000	0.000	-0.000	0.000	-0.000	0.000	-0.000	0.000	-0.000	0.000	-0.000	0.000	-0.000	0.000	-0.000	0.000	-0.000	0.000	-0.000	0.000	-0.000	0.000	-0.000	0.000	-0.000	0.000	-0.000	0.000	-0.000	0.000	-0.000	0.000	-0.000	0.000	-0.000	0.000	-0.000	0.000	-0.000	0.000	-0.000	0.000	-0.000	0.000	-0.000	0.000	-0.000	0.000	-0.000	0.000	-0.000	0.000	-0.000	0.000	-0.000	0.001	-0.002	0.008	0.030	0.053	0.120	0.248	0.449	0.655	0.832	0.879	0.754	0.545	0.306	0.152	0.048	0.018	-0.000
0.000	-0.006	-0.037	-0.085	-0.222	-0.407	-0.612	-0.806	-0.843	-0.743	-0.564	-0.361	-0.211	-0.114	-0.054	-0.029	-0.008	0.002	-0.001	0.000	-0.000	0.000	-0.000	0.000	-0.000	0.000	-0.000	0.000	-0.000	0.000	-0.000	0.000	0.000	-0.000	0.000	-0.000	0.000	-0.000	0.000	-0.000	0.000	-0.000	0.000	-0.000	0.000	-0.000	0.000	-0.000	0.000	-0.000	0.000	-0.000	0.000	-0.000	0.000	-0.000	0.000	-0.000	0.000	-0.000	0.000	-0.000	0.000	-0.000	0.000	-0.000	0.000	-0.000	0.000	-0.000	0.000	-0.000	0.000	-0.000	0.000	-0.000	0.000	-0.000	0.000	-0.000	0.000	-0.000	0.000	-0.000	0.000	-0.000	0.000	-0.000	0.000	-0.000	0.000	-0.000	0.000	-0.000	0.000	-0.000	0.000	-0.000	0.000	-0.000	0.000	-0.000	0.000	-0.000	0.000	-0.000	0.000	-0.000	0.000	-0.000	0.000	-0.000	0.000	-0.000	0.000	-0.000	0.000	-0.000	0.000	-0.000	0.000	-0.000	0.000	-0.000	0.000	-0.000	0.000	-0.000	-0.000	0.000	-0.000	0.000	-0.000	0.000	-0.000	0.000	-0.000	0.000	-0.000	0.000	-0.000	0.001	-0.002	0.008	0.029	0.054	0.114	0.211	0.361	0.564	0.743	0.843	0.806	0.612	0.407	0.222	0.085	0.037	0.006	0.000
-0.000	-0.011	-0.015	-0.050	-0.146	-0.266	-0.469	-0.679	-0.776	-0.778	-0.672	-0.494	-0.351	-0.202	-0.100	-0.058	-0.028	-0.008	0.002	-0.001	0.000	-0.000	0.000	-0.000	0.000	-0.000	0.000	-0.000	0.000	-0.000	0.000	-0.000	0.000	-0.000	0.000	-0.000	0.000	-0.000	0.000	-0.000	0.000	-0.000	0.000	-0.000	0.000	-0.000	0.000	-0.000	0.000	-0.000	0.000	-0.000	0.000	-0.000	0.000	-0.000	0.000	-0.000	0.000	-0.000	0.000	-0.000	0.000	-0.000	0.000	-0.000	0.000	-0.000	0.000	-0.000	0.000	-0.000	0.000	-0.000	0.000	-0.000	0.000	-0.000	0.000	-0.000	0.000	-0.000	0.000	-0.000	0.000	-0.000	0.000	-0.000	0.000	-0.000	0.000	-0.000	0.000	-0.000	0.000	-0.000	0.000	-0.000	0.000	-0.000	0.000	-0.000	0.000	-0.000	0.000	-0.000	0.000	-0.000	0.000	-0.000	0.000	-0.000	0.000	-0.000	0.000	-0.000	0.000	-0.000	0.000	-0.000	0.000	-0.000	0.000	-0.000	0.000	-0.000	0.000	-0.000	0.000	-0.000	0.000	-0.000	0.000	-0.000	0.000	-0.000	0.000	-0.000	0.000	-0.000	0.001	-0.002	0.008	0.028	0.058	0.100	0.202	0.351	0.494	0.672	0.778	0.776	0.679	0.469	0.266	0.146	0.050	0.015	0.011	-0.000
0.000	0.001	-0.006	-0.038	-0.083	-0.172	-0.311	-0.506	-0.666	-0.729	-0.737	-0.641	-0.479	-0.324	-0.204	-0.118	-0.042	-0.013	-0.024	-0.010	0.003	-0.001	0.000	-0.000	0.000	-0.000	0.000	-0.000	0.000	-0.000	0.000	-0.000	0.000	-0.000	-0.000	0.000	-0.000	0.000	-0.000	0.000	-0.000	0.000	-0.000	0.000	-0.000	0.000	-0.000	0.000	-0.000	0.000	-0.000	0.000	-0.000	0.000	-0.000	0.000	-0.000	0.000	-0.000	0.000	-0.000	0.000	-0.000	0.000	-0.000	0.000	-0.000	0.000	-0.000	0.000	-0.000	0.000	-0.000	0.000	-0.000	0.000	-0.000	0.000	-0.000	0.000	-0.000	0.000	-0.000	0.000	-0.000	0.000	-0.000	0.000	-0.000	0.000	-0.000	0.000	-0.000	0.000	-0.000	0.000	-0.000	0.000	-0.000	0.000	-0.000	0.000	-0.000	0.000	-0.000	0.000	-0.000	0.000	-0.000	0.000	-0.000	0.000	-0.000	0.000	-0.000	0.000	-0.000	0.000	-0.000	0.000	-0.000	0.000	-0.000	0.000	-0.000	0.000	0.000	-0.000	0.000	-0.000	0.000	-0.000	0.000	-0.000	0.000	-0.000	0.000	-0.000	0.001	-0.003	0.010	0.024	0.013	0.042	0.118	0.204	0.324	0.479	0.641	0.737	0.729	0.666	0.506	0.311	0.172	0.083	0.038	0.006	-0.001	0.000
-0.000	-0.001	0.005	-0.019	-0.048	-0.090	-0.194	-0.335	-0.506	-0.641	-0.710	-0.718	-0.619	-0.468	-0.330	-0.192	-0.104	-0.054	-0.042	-0.018	-0.007	-0.014	0.004	-0.001	0.000	-0.000	0.000	-0.000	0.000	-0.000	0.000	-0.000	0.000	-0.000	0.000	-0.000	0.000	-0.000	0.000	-0.000	0.000	-0.000	0.000	-0.000	0.000	-0.000	0.000	-0.000	0.000	-0.000	0.000	-0.000	0.000	-0.000	0.000	-0.000	0.000	-0.000	0.000	-0.000	0.000	-0.000	0.000	-0.000	0.000	-0.000	0.000	-0.000	0.000	-0.000	0.000	-0.000	0.000	-0.000	0.000	-0.000	0.000	-0.000	0.000	-0.000	0.000	-0.000	0.000	-0.000	0.000	-0.000	0.000	-0.000	0.000	-0.000	0.000	-0.000	0.000	-0.000	0.000	-0.000	0.000	-0.000	0.000	-0.000	0.000	-0.000	0.000	-0.000	0.000	-0.000	0.000	-0.000	0.000	-0.000	0.000	-0.000	0.000	-0.000	0.000	-0.000	0.000	-0.000	0.000	-0.000	0.000	-0.000	0.000	-0.000	0.000	-0.000	0.000	-0.000	0.000	-0.000	0.000	-0.000	0.000	-0.000	0.000	-0.000	0.001	-0.004	0.014	0.007	0.018	0.042	0.054	0.104	0.192	0.330	0.468	0.619	0.718	0.710	0.641	0.506	0.335	0.194	0.090	0.048	0.019	-0.005	0.001	-0.000
0.000	-0.001	0.003	-0.012	-0.016	-0.045	-0.103	-0.204	-0.340	-0.476	-0.635	-0.703	-0.694	-0.600	-0.445	-0.321	-0.192	-0.112	-0.080	-0.048	-0.028	-0.020	-0.011	0.003	-0.001	0.000	-0.000	0.000	-0.000	0.000	-0.000	0.000	-0.000	0.000	-0.000	0.000	-0.000	0.000	-0.000	0.000	-0.000	0.000	-0.000	0.000	-0.000	0.000	-0.000	0.000	-0.000	0.000	0.000	0.000	0.000	0.000	0.000	0.000	0.000	0.000	0.000	0.000	0.000	0.000	0.000	0.000	0.000	0.000	0.000	0.000	0.000	0.000	0.000	0.000	0.000	0.000	0.000	0.000	0.000	0.000	0.000	0.000	0.000	0.000	0.000	0.000	0.000	0.000	0.000	0.000	0.000	0.000	0.000	0.000	0.000	0.000	0.000	0.000	0.000	0.000	0.000	0.000	0.000	0.000	0.000	0.000	0.000	0.000	0.000	0.000	0.000	0.000	-0.000	0.000	-0.000	0.000	-0.000	0.000	-0.000	0.000	-0.000	0.000	-0.000	0.000	-0.000	0.000	-0.000	0.000	-0.000	0.000	-0.000	0.000	-0.000	0.000	-0.000	0.000	-0.000	0.001	-0.003	0.011	0.020	0.028	0.048	0.080	0.112	0.192	0.321	0.445	0.600	0.694	0.703	0.635	0.476	0.340	0.204	0.103	0.045	0.016	0.012	-0.003	0.001	0.000
-0.000	0.000	-0.001	0.002	-0.007	-0.033	-0.041	-0.102	-0.209	-0.321	-0.486	-0.613	-0.661	-0.644	-0.541	-0.430	-0.320	-0.210	-0.161	-0.108	-0.068	-0.039	-0.014	-0.024	-0.010	0.003	-0.001	0.000	-0.000	0.000	-0.000	0.000	-0.000	0.000	-0.000	0.000	-0.000	0.000	-0.000	0.000	-0.000	0.000	-0.000	0.000	-0.000	0.000	-0.000	0.000	-0.000	0.000	-0.000	0.000	0.000	0.000	0.000	0.000	0.000	0.000	0.000	0.000	0.000	0.000	0.000	0.000	0.000	0.000	0.000	0.000	0.000	0.000	0.000	0.000	0.000	0.000	0.000	0.000	0.000	0.000	0.000	0.000	0.000	0.000	0.000	0.000	0.000	0.000	0.000	0.000	0.000	0.000	0.000	0.000	0.000	0.000	0.000	0.000	0.000	0.000	0.000	0.000	0.000	0.000	0.000	0.000	0.000	0.000	0.000	0.000	0.000	0.000	-0.000	0.000	-0.000	0.000	-0.000	0.000	-0.000	0.000	-0.000	0.000	-0.000	0.000	-0.000	0.000	-0.000	0.000	-0.000	0.000	-0.000	0.000	-0.000	0.000	-0.000	0.001	-0.003	0.010	0.024	0.014	0.039	0.068	0.108	0.161	0.210	0.320	0.430	0.541	0.644	0.661	0.613	0.486	0.321	0.209	0.102	0.041	0.033	0.007	-0.002	0.001	-0.000	-0.000
0.000	-0.000	0.000	-0.001	0.002	-0.007	-0.033	-0.041	-0.102	-0.211	-0.313	-0.456	-0.564	-0.587	-0.566	-0.507	-0.406	-0.328	-0.261	-0.188	-0.126	-0.089	-0.058	-0.040	-0.021	0.006	-0.002	0.000	-0.000	0.000	-0.000	0.000	-0.000	0.000	-0.000	0.000	-0.000	0.000	-0.000	0.000	-0.000	0.000	-0.000	0.000	-0.000	0.000	-0.000	0.000	-0.000	0.000	-0.000	0.000	0.000	0.000	0.000	0.000	0.000	0.000	0.000	0.000	0.000	0.000	0.000	0.000	0.000	0.000	0.000	0.000	0.000	0.000	0.000	0.000	0.000	0.000	0.000	0.000	0.000	0.000	0.000	0.000	0.000	0.000	0.000	0.000	0.000	0.000	0.000	0.000	0.000	0.000	0.000	0.000	0.000	0.000	0.000	0.000	0.000	0.000	0.000	0.000	0.000	0.000	0.000	0.000	0.000	0.000	0.000	0.000	-0.000	0.000	-0.000	0.000	-0.000	0.000	-0.000	0.000	-0.000	0.000	-0.000	0.000	-0.000	0.000	-0.000	0.000	-0.000	0.000	-0.000	0.000	-0.000	0.000	-0.000	0.000	-0.000	0.002	-0.006	0.021	0.040	0.058	0.089	0.126	0.188	0.261	0.328	0.406	0.507	0.566	0.587	0.564	0.456	0.313	0.211	0.102	0.041	0.033	0.007	-0.002	0.001	-0.000	0.000	0.000
-0.000	0.000	-0.000	0.000	-0.001	0.002	-0.007	-0.032	-0.044	-0.091	-0.190	-0.288	-0.396	-0.467	-0.494	-0.495	-0.467	-0.398	-0.339	-0.284	-0.204	-0.161	-0.111	-0.056	-0.026	-0.021	-0.010	0.003	-0.001	0.000	-0.000	0.000	-0.000	0.000	-0.000	0.000	-0.000	0.000	-0.000	0.000	-0.000	0.000	-0.000	0.000	-0.000	0.000	-0.000	0.000	-0.000	0.000	-0.000	0.000	0.000	0.000	0.000	0.000	0.000	0.000	0.000	0.000	0.000	0.000	0.000	0.000	0.000	0.000	0.000	0.000	0.000	0.000	0.000	0.000	0.000	0.000	0.000	0.000	0.000	0.000	0.000	0.000	0.000	0.000	0.000	0.000	0.000	0.000	0.000	0.000	0.000	0.000	0.000	0.000	0.000	0.000	0.000	0.000	0.000	0.000	0.000	0.000	0.000	0.000	0.000	0.000	0.000	0.000	0.000	0.000	-0.000	0.000	-0.000	0.000	-0.000	0.000	-0.000	0.000	-0.000	0.000	-0.000	0.000	-0.000	0.000	-0.000	0.000	-0.000	0.000	-0.000	0.000	-0.000	0.000	-0.000	0.001	-0.003	0.010	0.021	0.026	0.056	0.111	0.161	0.204	0.284	0.339	0.398	0.467	0.495	0.494	0.467	0.396	0.288	0.190	0.091	0.044	0.032	0.007	-0.002	0.001	-0.000	0.000	-0.000	-0.000
0.000	-0.000	0.000	-0.000	0.000	-0.001	0.002	-0.008	-0.031	-0.046	-0.083	-0.162	-0.230	-0.297	-0.380	-0.402	-0.414	-0.404	-0.371	-0.332	-0.281	-0.223	-0.147	-0.090	-0.033	-0.019	-0.011	0.003	-0.001	0.000	-0.000	0.000	-0.000	0.000	-0.000	0.000	-0.000	0.000	-0.000	0.000	-0.000	0.000	-0.000	0.000	-0.000	0.000	-0.000	0.000	-0.000	0.000	-0.000	0.000	0.000	0.000	0.000	0.000	0.000	0.000	0.000	0.000	0.000	0.000	0.000	0.000	0.000	0.000	0.000	0.000	0.000	0.000	0.000	0.000	0.000	0.000	0.000	0.000	0.000	0.000	0.000	0.000	0.000	0.000	0.000	0.000	0.000	0.000	0.000	0.000	0.000	0.000	0.000	0.000	0.000	0.000	0.000	0.000	0.000	0.000	0.000	0.000	0.000	0.000	0.000	0.000	0.000	0.000	0.000	0.000	0.000	0.000	-0.000	0.000	-0.000	0.000	-0.000	0.000	-0.000	0.000	-0.000	0.000	-0.000	0.000	-0.000	0.000	-0.000	0.000	-0.000	0.000	-0.000	0.000	-0.000	0.001	-0.003	0.011	0.019	0.033	0.090	0.147	0.223	0.281	0.332	0.371	0.404	0.414	0.402	0.380	0.297	0.230	0.162	0.083	0.046	0.031	0.008	-0.002	0.001	-0.000	0.000	-0.000	0.000	0.000
-0.000	0.000	-0.000	0.000	-0.000	0.000	-0.001	0.003	-0.011	-0.019	-0.035	-0.082	-0.117	-0.170	-0.223	-0.259	-0.301	-0.336	-0.334	-0.307	-0.297	-0.243	-0.169	-0.100	-0.030	-0.020	-0.011	0.003	-0.001	0.000	-0.000	0.000	-0.000	0.000	-0.000	0.000	-0.000	0.000	-0.000	0.000	-0.000	0.000	-0.000	0.000	-0.000	0.000	-0.000	0.000	-0.000	0.000	-0.000	0.000	0.000	0.000	0.000	0.000	0.000	0.000	0.000	0.000	0.000	0.000	0.000	0.000	0.000	0.000	0.000	0.000	0.000	0.000	0.000	0.000	0.000	0.000	0.000	0.000	0.000	0.000	0.000	0.000	0.000	0.000	0.000	0.000	0.000	0.000	0.000	0.000	0.000	0.000	0.000	0.000	0.000	0.000	0.000	0.000	0.000	0.000	0.000	0.000	0.000	0.000	0.000	0.000	0.000	0.000	0.000	0.000	0.000	0.000	-0.000	0.000	-0.000	0.000	-0.000	0.000	-0.000	0.000	-0.000	0.000	-0.000	0.000	-0.000	0.000	-0.000	0.000	-0.000	0.000	-0.000	0.000	-0.000	0.001	-0.003	0.011	0.020	0.030	0.100	0.169	0.243	0.297	0.307	0.334	0.336	0.301	0.259	0.223	0.170	0.117	0.082	0.035	0.019	0.011	-0.003	0.001	-0.000	0.000	-0.000	0.000	-0.000	-0.000
0.000	-0.000	0.000	-0.000	0.000	-0.000	0.000	-0.001	0.003	-0.011	-0.021	-0.027	-0.052	-0.064	-0.111	-0.154	-0.175	-0.225	-0.243	-0.241	-0.233	-0.207	-0.140	-0.072	-0.053	-0.018	0.005	-0.001	0.000	-0.000	0.000	-0.000	0.000	-0.000	0.000	-0.000	0.000	-0.000	0.000	-0.000	0.000	-0.000	0.000	-0.000	0.000	-0.000	0.000	-0.000	0.000	-0.000	0.000	0.000	0.000	0.000	0.000	0.000	0.000	0.000	0.000	0.000	0.000	0.000	0.000	0.000	0.000	0.000	0.000	0.000	0.000	0.000	0.000	0.000	0.000	0.000	0.000	0.000	0.000	0.000	0.000	0.000	0.000	0.000	0.000	0.000	0.000	0.000	0.000	0.000	0.000	0.000	0.000	0.000	0.000	0.000	0.000	0.000	0.000	0.000	0.000	0.000	0.000	0.000	0.000	0.000	0.000	0.000	0.000	0.000	0.000	0.000	0.000	-0.000	0.000	-0.000	0.000	-0.000	0.000	-0.000	0.000	-0.000	0.000	-0.000	0.000	-0.000	0.000	-0.000	0.000	-0.000	0.000	-0.000	0.000	-0.000	0.001	-0.005	0.018	0.053	0.072	0.140	0.207	0.233	0.241	0.243	0.225	0.175	0.154	0.111	0.064	0.052	0.027	0.021	0.011	-0.003	0.001	-0.000	0.000	-0.000	0.000	-0.000	0.000	0.000
-0.000	-0.000	0.000	-0.000	0.000	-0.000	0.000	-0.000	0.000	-0.001	0.003	-0.011	-0.021	-0.027	-0.051	-0.070	-0.090	-0.110	-0.129	-0.154	-0.154	-0.131	-0.103	-0.057	-0.029	-0.008	0.002	-0.001	0.000	-0.000	0.000	-0.000	0.000	-0.000	0.000	-0.000	0.000	-0.000	0.000	-0.000	0.000	-0.000	0.000	-0.000	0.000	-0.000	0.000	-0.000	0.000	-0.000	0.000	0.000	0.000	0.000	0.000	0.000	0.000	0.000	0.000	0.000	0.000	0.000	0.000	0.000	0.000	0.000	0.000	0.000	0.000	0.000	0.000	0.000	0.000	0.000	0.000	0.000	0.000	0.000	0.000	0.000	0.000	0.000	0.000	0.000	0.000	0.000	0.000	0.000	0.000	0.000	0.000	0.000	0.000	0.000	0.000	0.000	0.000	0.000	0.000	0.000	0.000	0.000	0.000	0.000	0.000	0.000	0.000	0.000	0.000	0.000	0.000	-0.000	0.000	-0.000	0.000	-0.000	0.000	-0.000	0.000	-0.000	0.000	-0.000	0.000	-0.000	0.000	-0.000	0.000	-0.000	0.000	-0.000	0.000	-0.000	0.001	-0.002	0.008	0.029	0.057	0.103	0.131	0.154	0.154	0.129	0.110	0.090	0.070	0.051	0.027	0.021	0.011	-0.003	0.001	-0.000	0.000	-0.000	0.000	-0.000	0.000	-0.000	0.000	-0.000
-0.000	-0.000	0.000	0.000	-0.000	0.000	-0.000	0.000	-0.000	0.000	-0.001	0.004	-0.013	-0.011	-0.004	-0.034	-0.039	-0.051	-0.059	-0.073	-0.069	-0.071	-0.066	-0.026	-0.009	0.002	-0.001	0.000	-0.000	0.000	-0.000	0.000	-0.000	0.000	-0.000	0.000	-0.000	0.000	-0.000	0.000	-0.000	0.000	-0.000	0.000	-0.000	0.000	-0.000	0.000	-0.000	0.000	0.000	0.000	0.000	0.000	0.000	0.000	0.000	0.000	0.000	0.000	0.000	0.000	0.000	0.000	0.000	0.000	0.000	0.000	0.000	0.000	0.000	0.000	0.000	0.000	0.000	0.000	0.000	0.000	0.000	0.000	0.000	0.000	0.000	0.000	0.000	0.000	0.000	0.000	0.000	0.000	0.000	0.000	0.000	0.000	0.000	0.000	0.000	0.000	0.000	0.000	0.000	0.000	0.000	0.000	0.000	0.000	0.000	0.000	0.000	0.000	0.000	0.000	-0.000	0.000	-0.000	0.000	-0.000	0.000	-0.000	0.000	-0.000	0.000	-0.000	0.000	-0.000	0.000	-0.000	0.000	-0.000	0.000	-0.000	0.000	-0.000	0.001	-0.002	0.009	0.026	0.066	0.071	0.069	0.073	0.059	0.051	0.039	0.034	0.004	0.011	0.013	-0.004	0.001	-0.000	0.000	-0.000	0.000	-0.000	0.000	-0.000	0.000	-0.000	-0.000
