-0.000	0.000	0.000	0.000	0.000	0.000	0.000	0.000	0.000	0.000	0.000	0.000	0.000	0.000	0.000	0.000	0.000	0.000	0.000	0.000	0.000	0.000	0.000	0.000	0.000	0.000	0.000	0.000	0.000	0.000	0.000	0.000	0.000	0.000	0.000	0.000	0.000	0.000	0.000	0.000	0.000	0.000	0.000	0.000	0.000	0.000	0.000	0.000	0.000	-0.000	-0.000	-0.000	-0.000	-0.000	-0.000	-0.000	-0.000	-0.000	-0.000	-0.000	-0.000	-0.000	-0.000	-0.000	-0.000	-0.000	-0.000	-0.000	-0.000	-0.000	-0.000	-0.000	-0.000	-0.000	-0.000	-0.000	-0.000	-0.000	-0.000	-0.000	-0.000	-0.000	-0.000	-0.000	-0.000	-0.000	-0.000	-0.000	-0.000	-0.000	-0.000	-0.000	-0.000	-0.000	-0.000	-0.000	-0.000	-0.000	-0.000	-0.000	-0.000	-0.000	-0.000	-0.000	-0.000	-0.000	-0.000	-0.000	-0.000	-0.000	-0.000	0.000	0.000	0.000	0.000	0.000	0.000	0.000	0.000	0.000	0.000	0.000	0.000	0.000	0.000	0.000	0.000	0.000	0.000	0.000	0.000	0.000	0.000	0.000	0.000	0.000	0.000	0.000	0.000	0.000	0.000	0.000	0.000	0.000	0.000	0.000	0.000	0.000	0.000	0.000	0.000	0.000	0.000	0.000	0.000	0.000	0.000	0.000	0.000	-0.000
-0.000	-0.000	-0.000	-0.000	-0.000	0.000	-0.000	0.000	-0.000	0.002	-0.011	-0.018	-0.039	-0.054	-0.095	-0.164	-0.229	-0.321	-0.426	-0.538	-0.641	-0.742	-0.806	-0.843	-0.871	-0.902	-0.899	-0.899	-0.899	-0.899	-0.899	-0.899	-0.899	-0.899	-0.899	-0.899	-0.899	-0.899	-0.899	-0.899	-0.899	-0.899	-0.899	-0.899	-0.899	-0.899	-0.899	-0.899	-0.899	-0.899	-0.899	-0.899	-0.899	-0.899	-0.899	-0.899	-0.899	-0.899	-0.899	-0.899	-0.899	-0.899	-0.899	-0.899	-0.899	-0.899	-0.899	-0.899	-0.899	-0.899	-0.899	-0.899	-0.899	-0.899	-0.899	-0.899	-0.899	-0.899	-0.899	-0.899	-0.899	-0.899	-0.899	-0.899	-0.899	-0.899	-0.899	-0.899	-0.899	-0.899	-0.899	-0.899	-0.899	-0.899	-0.899	-0.899	-0.899	-0.899	-0.899	-0.899	-0.899	-0.899	-0.899	-0.899	-0.899	-0.899	-0.899	-0.899	-0.899	-0.899	-0.899	-0.899	-0.899	-0.899	-0.899	-0.899	-0.899	-0.899	-0.899	-0.899	-0.899	-0.899	-0.899	-0.899	-0.899	-0.899	-0.899	-0.899	-0.899	-0.899	-0.899	-0.899	-0.899	-0.899	-0.902	-0.871	-0.843	-0.806	-0.742	-0.641	-0.538	-0.426	-0.321	-0.229	-0.164	-0.095	-0.054	-0.039	-0.018	-0.011	0.002	-0.000	0.000	-0.000	0.000	-0.000	-0.000	-0.000	-0.000	-0.000
0.000	0.000	-0.000	0.000	0.000	-0.000	0.000	-0.001	0.002	-0.007	-0.016	-0.048	-0.082	-0.145	-0.219	-0.302	-0.405	-0.517	-0.637	-0.727	-0.798	-0.871	-0.916	-0.947	-0.955	-0.951	-0.964	-0.964	-0.964	-0.964	-0.964	-0.964	-0.964	-0.964	-0.964	-0.964	-0.964	-0.964	-0.964	-0.964	-0.964	-0.964	-0.964	-0.964	-0.964	-0.964	-0.964	-0.964	-0.964	-0.964	-0.964	-0.964	-0.964	-0.964	-0.964	-0.964	-0.964	-0.964	-0.964	-0.964	-0.964	-0.964	-0.964	-0.964	-0.964	-0.964	-0.964	-0.964	-0.964	-0.964	-0.964	-0.964	-0.964	-0.964	-0.964	-0.964	-0.964	-0.964	-0.964	-0.964	-0.964	-0.964	-0.964	-0.964	-0.964	-0.964	-0.964	-0.964	-0.964	-0.964	-0.964	-0.964	-0.964	-0.964	-0.964	-0.964	-0.964	-0.964	-0.964	-0.964	-0.964	-0.964	-0.964	-0.964	-0.964	-0.964	-0.964	-0.964	-0.964	-0.964	-0.964	-0.964	-0.964	-0.964	-0.964	-0.964	-0.964	-0.964	-0.964	-0.964	-0.964	-0.964	-0.964	-0.964	-0.964	-0.964	-0.964	-0.964	-0.964	-0.964	-0.964	-0.964	-0.964	-0.964	-0.951	-0.955	-0.947	-0.916	-0.871	-0.798	-0.727	-0.637	-0.517	-0.405	-0.302	-0.219	-0.145	-0.082	-0.048	-0.016	-0.007	0.002	-0.001	0.000	-0.000	0.000	0.000	-0.000	0.000	0.000
-0.000	0.000	0.000	-0.000	-0.000	0.000	-0.001	0.002	-0.007	-0.033	-0.045	-0.089	-0.172	-0.267	-0.407	-0.546	-0.673	-0.792	-0.866	-0.932	-0.968	-0.995	-0.992	-1.008	-1.010	-0.994	-1.006	-1.006	-1.006	-1.006	-1.006	-1.006	-1.006	-1.006	-1.006	-1.006	-1.006	-1.006	-1.006	-1.006	-1.006	-1.006	-1.006	-1.006	-1.006	-1.006	-1.006	-1.006	-1.006	-1.006	-1.006	-1.006	-1.006	-1.006	-1.006	-1.006	-1.006	-1.006	-1.006	-1.006	-1.006	-1.006	-1.006	-1.006	-1.006	-1.006	-1.006	-1.006	-1.006	-1.006	-1.006	-1.006	-1.006	-1.006	-1.006	-1.006	-1.006	-1.006	-1.006	-1.006	-1.006	-1.006	-1.006	-1.006	-1.006	-1.006	-1.006	-1.006	-1.006	-1.006	-1.006	-1.006	-1.006	-1.006	-1.006	-1.006	-1.006	-1.006	-1.006	-1.006	-1.006	-1.006	-1.006	-1.006	-1.006	-1.006	-1.006	-1.006	-1.006	-1.006	-1.006	-1.006	-1.006	-1.006	-1.006	-1.006	-1.006	-1.006	-1.006	-1.006	-1.006	-1.006	-1.006	-1.006	-1.006	-1.006	-1.006	-1.006	-1.006	-1.006	-1.006	-1.006	-1.006	-1.006	-0.994	-1.010	-1.008	-0.992	-0.995	-0.968	-0.932	-0.866	-0.792	-0.673	-0.546	-0.407	-0.267	-0.172	-0.089	-0.045	-0.033	-0.007	0.002	-0.001	0.000	-0.000	-0.000	0.000	0.000	-0.000
0.000	-0.000	-0.000	0.000	0.000	-0.001	0.002	-0.007	-0.033	-0.041	-0.103	-0.194	-0.311	-0.469	-0.612	-0.754	-0.864	-0.934	-0.940	-0.944	-0.908	-0.850	-0.818	-0.779	-0.767	-0.774	-0.774	-0.774	-0.774	-0.774	-0.774	-0.774	-0.774	-0.774	-0.774	-0.774	-0.774	-0.774	-0.774	-0.774	-0.774	-0.774	-0.774	-0.774	-0.774	-0.774	-0.774	-0.774	-0.774	-0.774	-0.774	-0.774	-0.774	-0.774	-0.774	-0.774	-0.774	-0.774	-0.774	-0.774	-0.774	-0.774	-0.774	-0.774	-0.774	-0.774	-0.774	-0.774	-0.774	-0.774	-0.774	-0.774	-0.774	-0.774	-0.774	-0.774	-0.774	-0.774	-0.774	-0.774	-0.774	-0.774	-0.774	-0.774	-0.774	-0.774	-0.774	-0.774	-0.774	-0.774	-0.774	-0.774	-0.774	-0.774	-0.774	-0.774	-0.774	-0.774	-0.774	-0.774	-0.774	-0.774	-0.774	-0.774	-0.774	-0.774	-0.774	-0.774	-0.774	-0.774	-0.774	-0.774	-0.774	-0.774	-0.774	-0.774	-0.774	-0.774	-0.774	-0.774	-0.774	-0.774	-0.774	-0.774	-0.774	-0.774	-0.774	-0.774	-0.774	-0.774	-0.774	-0.774	-0.774	-0.774	-0.774	-0.767	-0.779	-0.818	-0.850	-0.908	-0.944	-0.940	-0.934	-0.864	-0.754	-0.612	-0.469	-0.311	-0.194	-0.103	-0.041	-0.033	-0.007	0.002	-0.001	0.000	0.000	-0.000	-0.000	0.000
-0.000	0.000	0.000	-0.000	-0.001	0.003	-0.008	-0.032	-0.041	-0.102	-0.204	-0.335	-0.506	-0.679	-0.806	-0.879	-0.910	-0.872	-0.835	-0.752	-0.678	-0.587	-0.538	-0.495	-0.484	-0.470	-0.459	-0.459	-0.459	-0.459	-0.459	-0.459	-0.459	-0.459	-0.459	-0.459	-0.459	-0.459	-0.459	-0.459	-0.459	-0.459	-0.459	-0.459	-0.459	-0.459	-0.459	-0.459	-0.459	-0.459	-0.459	-0.459	-0.459	-0.459	-0.459	-0.459	-0.459	-0.459	-0.459	-0.459	-0.459	-0.459	-0.459	-0.459	-0.459	-0.459	-0.459	-0.459	-0.459	-0.459	-0.459	-0.459	-0.459	-0.459	-0.459	-0.459	-0.459	-0.459	-0.459	-0.459	-0.459	-0.459	-0.459	-0.459	-0.459	-0.459	-0.459	-0.459	-0.459	-0.459	-0.459	-0.459	-0.459	-0.459	-0.459	-0.459	-0.459	-0.459	-0.459	-0.459	-0.459	-0.459	-0.459	-0.459	-0.459	-0.459	-0.459	-0.459	-0.459	-0.459	-0.459	-0.459	-0.459	-0.459	-0.459	-0.459	-0.459	-0.459	-0.459	-0.459	-0.459	-0.459	-0.459	-0.459	-0.459	-0.459	-0.459	-0.459	-0.459	-0.459	-0.459	-0.459	-0.459	-0.459	-0.470	-0.484	-0.495	-0.538	-0.587	-0.678	-0.752	-0.835	-0.872	-0.910	-0.879	-0.806	-0.679	-0.506	-0.335	-0.204	-0.102	-0.041	-0.032	-0.008	0.003	-0.001	-0.000	0.000	0.000	-0.000
0.000	-0.000	-0.000	0.000	0.003	-0.011	-0.031	-0.044	-0.102	-0.209	-0.340	-0.506	-0.666	-0.776	-0.843	-0.832	-0.774	-0.679	-0.580	-0.487	-0.400	-0.343	-0.272	-0.242	-0.237	-0.224	-0.211	-0.211	-0.211	-0.211	-0.211	-0.211	-0.211	-0.211	-0.211	-0.211	-0.211	-0.211	-0.211	-0.211	-0.211	-0.211	-0.211	-0.211	-0.211	-0.211	-0.211	-0.211	-0.211	-0.211	-0.211	-0.211	-0.211	-0.211	-0.211	-0.211	-0.211	-0.211	-0.211	-0.211	-0.211	-0.211	-0.211	-0.211	-0.211	-0.211	-0.211	-0.211	-0.211	-0.211	-0.211	-0.211	-0.211	-0.211	-0.211	-0.211	-0.211	-0.211	-0.211	-0.211	-0.211	-0.211	-0.211	-0.211	-0.211	-0.211	-0.211	-0.211	-0.211	-0.211	-0.211	-0.211	-0.211	-0.211	-0.211	-0.211	-0.211	-0.211	-0.211	-0.211	-0.211	-0.211	-0.211	-0.211	-0.211	-0.211	-0.211	-0.211	-0.211	-0.211	-0.211	-0.211	-0.211	-0.211	-0.211	-0.211	-0.211	-0.211	-0.211	-0.211	-0.211	-0.211	-0.211	-0.211	-0.211	-0.211	-0.211	-0.211	-0.211	-0.211	-0.211	-0.211	-0.211	-0.211	-0.224	-0.237	-0.242	-0.272	-0.343	-0.400	-0.487	-0.580	-0.679	-0.774	-0.832	-0.843	-0.776	-0.666	-0.506	-0.340	-0.209	-0.102	-0.044	-0.031	-0.011	0.003	0.000	-0.000	-0.000	0.000
-0.000	0.000	0.000	-0.001	-0.011	-0.019	-0.046	-0.091	-0.211	-0.321	-0.476	-0.641	-0.729	-0.778	-0.743	-0.655	-0.552	-0.433	-0.325	-0.241	-0.183	-0.142	-0.116	-0.096	-0.070	-0.073	-0.076	-0.076	-0.076	-0.076	-0.076	-0.076	-0.076	-0.076	-0.076	-0.076	-0.076	-0.076	-0.076	-0.076	-0.076	-0.076	-0.076	-0.076	-0.076	-0.076	-0.076	-0.076	-0.076	-0.076	-0.076	-0.076	-0.076	-0.076	-0.076	-0.076	-0.076	-0.076	-0.076	-0.076	-0.076	-0.076	-0.076	-0.076	-0.076	-0.076	-0.076	-0.076	-0.076	-0.076	-0.076	-0.076	-0.076	-0.076	-0.076	-0.076	-0.076	-0.076	-0.076	-0.076	-0.076	-0.076	-0.076	-0.076	-0.076	-0.076	-0.076	-0.076	-0.076	-0.076	-0.076	-0.076	-0.076	-0.076	-0.076	-0.076	-0.076	-0.076	-0.076	-0.076	-0.076	-0.076	-0.076	-0.076	-0.076	-0.076	-0.076	-0.076	-0.076	-0.076	-0.076	-0.076	-0.076	-0.076	-0.076	-0.076	-0.076	-0.076	-0.076	-0.076	-0.076	-0.076	-0.076	-0.076	-0.076	-0.076	-0.076	-0.076	-0.076	-0.076	-0.076	-0.076	-0.076	-0.076	-0.073	-0.070	-0.096	-0.116	-0.142	-0.183	-0.241	-0.325	-0.433	-0.552	-0.655	-0.743	-0.778	-0.729	-0.641	-0.476	-0.321	-0.211	-0.091	-0.046	-0.019	-0.011	-0.001	0.000	0.000	-0.000
0.000	-0.000	-0.001	0.003	-0.021	-0.035	-0.083	-0.190	-0.313	-0.486	-0.635	-0.710	-0.737	-0.672	-0.564	-0.449	-0.318	-0.227	-0.159	-0.108	-0.068	-0.050	-0.045	-0.034	-0.025	-0.024	-0.023	-0.023	-0.023	-0.023	-0.023	-0.023	-0.023	-0.023	-0.023	-0.023	-0.023	-0.023	-0.023	-0.023	-0.023	-0.023	-0.023	-0.023	-0.023	-0.023	-0.023	-0.023	-0.023	-0.023	-0.023	-0.023	-0.023	-0.023	-0.023	-0.023	-0.023	-0.023	-0.023	-0.023	-0.023	-0.023	-0.023	-0.023	-0.023	-0.023	-0.023	-0.023	-0.023	-0.023	-0.023	-0.023	-0.023	-0.023	-0.023	-0.023	-0.023	-0.023	-0.023	-0.023	-0.023	-0.023	-0.023	-0.023	-0.023	-0.023	-0.023	-0.023	-0.023	-0.023	-0.023	-0.023	-0.023	-0.023	-0.023	-0.023	-0.023	-0.023	-0.023	-0.023	-0.023	-0.023	-0.023	-0.023	-0.023	-0.023	-0.023	-0.023	-0.023	-0.023	-0.023	-0.023	-0.023	-0.023	-0.023	-0.023	-0.023	-0.023	-0.023	-0.023	-0.023	-0.023	-0.023	-0.023	-0.023	-0.023	-0.023	-0.023	-0.023	-0.023	-0.023	-0.023	-0.023	-0.023	-0.024	-0.025	-0.034	-0.045	-0.050	-0.068	-0.108	-0.159	-0.227	-0.318	-0.449	-0.564	-0.672	-0.737	-0.710	-0.635	-0.486	-0.313	-0.190	-0.083	-0.035	-0.021	0.003	-0.001	-0.000	0.000
-0.000	0.000	0.004	-0.011	-0.027	-0.082	-0.162	-0.288	-0.456	-0.613	-0.703	-0.718	-0.641	-0.494	-0.361	-0.248	-0.157	-0.097	-0.058	-0.047	-0.026	-0.019	-0.004	-0.007	-0.009	-0.010	-0.010	-0.010	-0.010	-0.010	-0.010	-0.010	-0.010	-0.010	-0.010	-0.010	-0.010	-0.010	-0.010	-0.010	-0.010	-0.010	-0.010	-0.010	-0.010	-0.010	-0.010	-0.010	-0.010	-0.010	-0.010	-0.010	-0.010	-0.010	-0.010	-0.010	-0.010	-0.010	-0.010	-0.010	-0.010	-0.010	-0.010	-0.010	-0.010	-0.010	-0.010	-0.010	-0.010	-0.010	-0.010	-0.010	-0.010	-0.010	-0.010	-0.010	-0.010	-0.010	-0.010	-0.010	-0.010	-0.010	-0.010	-0.010	-0.010	-0.010	-0.010	-0.010	-0.010	-0.010	-0.010	-0.010	-0.010	-0.010	-0.010	-0.010	-0.010	-0.010	-0.010	-0.010	-0.010	-0.010	-0.010	-0.010	-0.010	-0.010	-0.010	-0.010	-0.010	-0.010	-0.010	-0.010	-0.010	-0.010	-0.010	-0.010	-0.010	-0.010	-0.010	-0.010	-0.010	-0.010	-0.010	-0.010	-0.010	-0.010	-0.010	-0.010	-0.010	-0.010	-0.010	-0.010	-0.010	-0.010	-0.010	-0.009	-0.007	-0.004	-0.019	-0.026	-0.047	-0.058	-0.097	-0.157	-0.248	-0.361	-0.494	-0.641	-0.718	-0.703	-0.613	-0.456	-0.288	-0.162	-0.082	-0.027	-0.011	0.004	0.000	-0.000
0.000	-0.001	-0.013	-0.021	-0.052	-0.117	-0.230	-0.396	-0.564	-0.661	-0.694	-0.619	-0.479	-0.351	-0.211	-0.120	-0.075	-0.046	-0.028	-0.003	-0.009	0.005	0.001	0.002	0.002	0.003	0.003	0.003	0.003	0.003	0.003	0.003	0.003	0.003	0.003	0.003	0.003	0.003	0.003	0.003	0.003	0.003	0.003	0.003	0.003	0.003	0.003	0.003	0.003	0.003	0.003	0.003	0.003	0.003	0.003	0.003	0.003	0.003	0.003	0.003	0.003	0.003	0.003	0.003	0.003	0.003	0.003	0.003	0.003	0.003	0.003	0.003	0.003	0.003	0.003	0.003	0.003	0.003	0.003	0.003	0.003	0.003	0.003	0.003	0.003	0.003	0.003	0.003	0.003	0.003	0.003	0.003	0.003	0.003	0.003	0.003	0.003	0.003	0.003	0.003	0.003	0.003	0.003	0.003	0.003	0.003	0.003	0.003	0.003	0.003	0.003	0.003	0.003	0.003	0.003	0.003	0.003	0.003	0.003	0.003	0.003	0.003	0.003	0.003	0.003	0.003	0.003	0.003	0.003	0.003	0.003	0.003	0.003	0.003	0.003	0.002	0.002	0.001	0.005	-0.009	-0.003	-0.028	-0.046	-0.075	-0.120	-0.211	-0.351	-0.479	-0.619	-0.694	-0.661	-0.564	-0.396	-0.230	-0.117	-0.052	-0.021	-0.013	-0.001	0.000
-0.000	0.004	-0.011	-0.027	-0.064	-0.170	-0.297	-0.467	-0.587	-0.644	-0.600	-0.468	-0.324	-0.202	-0.114	-0.053	-0.024	-0.020	-0.008	0.001	0.002	-0.001	-0.000	-0.000	-0.001	-0.001	-0.001	-0.001	-0.001	-0.001	-0.001	-0.001	-0.001	-0.001	-0.001	-0.001	-0.001	-0.001	-0.001	-0.001	-0.001	-0.001	-0.001	-0.001	-0.001	-0.001	-0.001	-0.001	-0.001	-0.001	-0.001	-0.001	-0.001	-0.001	-0.001	-0.001	-0.001	-0.001	-0.001	-0.001	-0.001	-0.001	-0.001	-0.001	-0.001	-0.001	-0.001	-0.001	-0.001	-0.001	-0.001	-0.001	-0.001	-0.001	-0.001	-0.001	-0.001	-0.001	-0.001	-0.001	-0.001	-0.001	-0.001	-0.001	-0.001	-0.001	-0.001	-0.001	-0.001	-0.001	-0.001	-0.001	-0.001	-0.001	-0.001	-0.001	-0.001	-0.001	-0.001	-0.001	-0.001	-0.001	-0.001	-0.001	-0.001	-0.001	-0.001	-0.001	-0.001	-0.001	-0.001	-0.001	-0.001	-0.001	-0.001	-0.001	-0.001	-0.001	-0.001	-0.001	-0.001	-0.001	-0.001	-0.001	-0.001	-0.001	-0.001	-0.001	-0.001	-0.001	-0.001	-0.001	-0.001	-0.001	-0.001	-0.001	-0.000	-0.000	-0.001	0.002	0.001	-0.008	-0.020	-0.024	-0.053	-0.114	-0.202	-0.324	-0.468	-0.600	-0.644	-0.587	-0.467	-0.297	-0.170	-0.064	-0.027	-0.011	0.004	-0.000
0.000	-0.013	-0.004	-0.051	-0.111	-0.223	-0.380	-0.494	-0.566	-0.541	-0.445	-0.330	-0.204	-0.100	-0.054	-0.030	-0.010	0.005	0.002	-0.000	-0.001	0.000	0.000	0.000	0.000	0.000	0.000	0.000	0.000	0.000	0.000	0.000	0.000	0.000	0.000	0.000	0.000	0.000	0.000	0.000	0.000	0.000	0.000	0.000	0.000	0.000	0.000	0.000	0.000	0.000	0.000	0.000	0.000	0.000	0.000	0.000	0.000	0.000	0.000	0.000	0.000	0.000	0.000	0.000	0.000	0.000	0.000	0.000	0.000	0.000	0.000	0.000	0.000	0.000	0.000	0.000	0.000	0.000	0.000	0.000	0.000	0.000	0.000	0.000	0.000	0.000	0.000	0.000	0.000	0.000	0.000	0.000	0.000	0.000	0.000	0.000	0.000	0.000	0.000	0.000	0.000	0.000	0.000	0.000	0.000	0.000	0.000	0.000	0.000	0.000	0.000	0.000	0.000	0.000	0.000	0.000	0.000	0.000	0.000	0.000	0.000	0.000	0.000	0.000	0.000	0.000	0.000	0.000	0.000	0.000	0.000	0.000	0.000	0.000	0.000	0.000	0.000	0.000	0.000	-0.001	-0.000	0.002	0.005	-0.010	-0.030	-0.054	-0.100	-0.204	-0.330	-0.445	-0.541	-0.566	-0.494	-0.380	-0.223	-0.111	-0.051	-0.004	-0.013	0.000
-0.001	-0.010	-0.034	-0.070	-0.154	-0.259	-0.402	-0.495	-0.507	-0.430	-0.321	-0.192	-0.118	-0.058	-0.029	-0.008	0.003	-0.001	-0.001	0.000	0.000	-0.000	-0.000	-0.000	-0.000	-0.000	-0.000	-0.000	-0.000	-0.000	-0.000	-0.000	-0.000	-0.000	-0.000	-0.000	-0.000	-0.000	-0.000	-0.000	-0.000	-0.000	-0.000	-0.000	-0.000	-0.000	-0.000	-0.000	-0.000	-0.000	-0.000	-0.000	-0.000	-0.000	-0.000	-0.000	-0.000	-0.000	-0.000	-0.000	-0.000	-0.000	-0.000	-0.000	-0.000	-0.000	-0.000	-0.000	-0.000	-0.000	-0.000	-0.000	-0.000	-0.000	-0.000	-0.000	-0.000	-0.000	-0.000	-0.000	-0.000	-0.000	-0.000	-0.000	-0.000	-0.000	-0.000	-0.000	-0.000	-0.000	-0.000	-0.000	-0.000	-0.000	-0.000	-0.000	-0.000	-0.000	-0.000	-0.000	-0.000	-0.000	-0.000	-0.000	-0.000	-0.000	-0.000	-0.000	-0.000	-0.000	-0.000	-0.000	-0.000	-0.000	-0.000	-0.000	-0.000	-0.000	-0.000	-0.000	-0.000	-0.000	-0.000	-0.000	-0.000	-0.000	-0.000	-0.000	-0.000	-0.000	-0.000	-0.000	-0.000	-0.000	-0.000	-0.000	-0.000	-0.000	-0.000	0.000	0.000	-0.001	-0.001	0.003	-0.008	-0.029	-0.058	-0.118	-0.192	-0.321	-0.430	-0.507	-0.495	-0.402	-0.259	-0.154	-0.070	-0.034	-0.010	-0.001
0.004	-0.007	-0.039	-0.090	-0.175	-0.301	-0.414	-0.467	-0.406	-0.320	-0.192	-0.104	-0.042	-0.028	-0.008	0.002	-0.001	0.000	0.000	-0.000	-0.000	0.000	0.000	0.000	0.000	0.000	0.000	0.000	0.000	0.000	0.000	0.000	0.000	0.000	0.000	0.000	0.000	0.000	0.000	0.000	0.000	0.000	0.000	0.000	0.000	0.000	0.000	0.000	0.000	0.000	0.000	0.000	0.000	0.000	0.000	0.000	0.000	0.000	0.000	0.000	0.000	0.000	0.000	0.000	0.000	0.000	0.000	0.000	0.000	0.000	0.000	0.000	0.000	0.000	0.000	0.000	0.000	0.000	0.000	0.000	0.000	0.000	0.000	0.000	0.000	0.000	0.000	0.000	0.000	0.000	0.000	0.000	0.000	0.000	0.000	0.000	0.000	0.000	0.000	0.000	0.000	0.000	0.000	0.000	0.000	0.000	0.000	0.000	0.000	0.000	0.000	0.000	0.000	0.000	0.000	0.000	0.000	0.000	0.000	0.000	0.000	0.000	0.000	0.000	0.000	0.000	0.000	0.000	0.000	0.000	0.000	0.000	0.000	0.000	0.000	0.000	0.000	0.000	0.000	-0.000	-0.000	0.000	0.000	-0.001	0.002	-0.008	-0.028	-0.042	-0.104	-0.192	-0.320	-0.406	-0.467	-0.414	-0.301	-0.175	-0.090	-0.039	-0.007	0.004
-0.014	-0.023	-0.051	-0.110	-0.225	-0.336	-0.404	-0.398	-0.328	-0.210	-0.112	-0.054	-0.013	-0.008	0.002	-0.001	0.000	-0.000	-0.000	0.000	0.000	-0.000	-0.000	-0.000	-0.000	-0.000	-0.000	-0.000	-0.000	-0.000	-0.000	-0.000	-0.000	-0.000	-0.000	-0.000	-0.000	-0.000	-0.000	-0.000	-0.000	-0.000	-0.000	-0.000	-0.000	-0.000	-0.000	-0.000	-0.000	-0.000	-0.000	-0.000	-0.000	-0.000	-0.000	-0.000	-0.000	-0.000	-0.000	-0.000	-0.000	-0.000	-0.000	-0.000	-0.000	-0.000	-0.000	-0.000	-0.000	-0.000	-0.000	-0.000	-0.000	-0.000	-0.000	-0.000	-0.000	-0.000	-0.000	-0.000	-0.000	-0.000	-0.000	-0.000	-0.000	-0.000	-0.000	-0.000	-0.000	-0.000	-0.000	-0.000	-0.000	-0.000	-0.000	-0.000	-0.000	-0.000	-0.000	-0.000	-0.000	-0.000	-0.000	-0.000	-0.000	-0.000	-0.000	-0.000	-0.000	-0.000	-0.000	-0.000	-0.000	-0.000	-0.000	-0.000	-0.000	-0.000	-0.000	-0.000	-0.000	-0.000	-0.000	-0.000	-0.000	-0.000	-0.000	-0.000	-0.000	-0.000	-0.000	-0.000	-0.000	-0.000	-0.000	-0.000	-0.000	-0.000	-0.000	0.000	0.000	-0.000	-0.000	0.000	-0.001	0.002	-0.008	-0.013	-0.054	-0.112	-0.210	-0.328	-0.398	-0.404	-0.336	-0.225	-0.110	-0.051	-0.023	-0.014
-0.009	-0.020	-0.059	-0.129	-0.243	-0.334	-0.371	-0.339	-0.261	-0.161	-0.080	-0.042	-0.024	0.002	-0.001	0.000	-0.000	0.000	0.000	-0.000	-0.000	0.000	0.000	0.000	0.000	0.000	0.000	0.000	0.000	0.000	0.000	0.000	0.000	0.000	0.000	0.000	0.000	0.000	0.000	0.000	0.000	0.000	0.000	0.000	0.000	0.000	0.000	0.000	0.000	0.000	0.000	0.000	0.000	0.000	0.000	0.000	0.000	0.000	0.000	0.000	0.000	0.000	0.000	0.000	0.000	0.000	0.000	0.000	0.000	0.000	0.000	0.000	0.000	0.000	0.000	0.000	0.000	0.000	0.000	0.000	0.000	0.000	0.000	0.000	0.000	0.000	0.000	0.000	0.000	0.000	0.000	0.000	0.000	0.000	0.000	0.000	0.000	0.000	0.000	0.000	0.000	0.000	0.000	0.000	0.000	0.000	0.000	0.000	0.000	0.000	0.000	0.000	0.000	0.000	0.000	0.000	0.000	0.000	0.000	0.000	0.000	0.000	0.000	0.000	0.000	0.000	0.000	0.000	0.000	0.000	0.000	0.000	0.000	0.000	0.000	0.000	0.000	0.000	0.000	-0.000	-0.000	0.000	0.000	-0.000	0.000	-0.001	0.002	-0.024	-0.042	-0.080	-0.161	-0.261	-0.339	-0.371	-0.334	-0.243	-0.129	-0.059	-0.020	-0.009
-0.009	-0.017	-0.073	-0.154	-0.241	-0.307	-0.332	-0.284	-0.188	-0.108	-0.048	-0.018	-0.010	-0.001	0.000	-0.000	0.000	-0.000	-0.000	0.000	0.000	-0.000	-0.000	-0.000	-0.000	-0.000	-0.000	-0.000	-0.000	-0.000	-0.000	-0.000	-0.000	-0.000	-0.000	-0.000	-0.000	-0.000	-0.000	-0.000	-0.000	-0.000	-0.000	-0.000	-0.000	-0.000	-0.000	-0.000	-0.000	-0.000	-0.000	-0.000	-0.000	-0.000	-0.000	-0.000	-0.000	-0.000	-0.000	-0.000	-0.000	-0.000	-0.000	-0.000	-0.000	-0.000	-0.000	-0.000	-0.000	-0.000	-0.000	-0.000	-0.000	-0.000	-0.000	-0.000	-0.000	-0.000	-0.000	-0.000	-0.000	-0.000	-0.000	-0.000	-0.000	-0.000	-0.000	-0.000	-0.000	-0.000	-0.000	-0.000	-0.000	-0.000	-0.000	-0.000	-0.000	-0.000	-0.000	-0.000	-0.000	-0.000	-0.000	-0.000	-0.000	-0.000	-0.000	-0.000	-0.000	-0.000	-0.000	-0.000	-0.000	-0.000	-0.000	-0.000	-0.000	-0.000	-0.000	-0.000	-0.000	-0.000	-0.000	-0.000	-0.000	-0.000	-0.000	-0.000	-0.000	-0.000	-0.000	-0.000	-0.000	-0.000	-0.000	-0.000	-0.000	-0.000	-0.000	0.000	0.000	-0.000	-0.000	0.000	-0.000	0.000	-0.001	-0.010	-0.018	-0.048	-0.108	-0.188	-0.284	-0.332	-0.307	-0.241	-0.154	-0.073	-0.017	-0.009
-0.015	-0.033	-0.069	-0.154	-0.233	-0.297	-0.281	-0.204	-0.126	-0.068	-0.028	-0.007	0.003	0.000	-0.000	0.000	-0.000	0.000	0.000	-0.000	-0.000	0.000	0.000	0.000	0.000	0.000	0.000	0.000	0.000	0.000	0.000	0.000	0.000	0.000	0.000	0.000	0.000	0.000	0.000	0.000	0.000	0.000	0.000	0.000	0.000	0.000	0.000	0.000	0.000	0.000	0.000	0.000	0.000	0.000	0.000	0.000	0.000	0.000	0.000	0.000	0.000	0.000	0.000	0.000	0.000	0.000	0.000	0.000	0.000	0.000	0.000	0.000	0.000	0.000	0.000	0.000	0.000	0.000	0.000	0.000	0.000	0.000	0.000	0.000	0.000	0.000	0.000	0.000	0.000	0.000	0.000	0.000	0.000	0.000	0.000	0.000	0.000	0.000	0.000	0.000	0.000	0.000	0.000	0.000	0.000	0.000	0.000	0.000	0.000	0.000	0.000	0.000	0.000	0.000	0.000	0.000	0.000	0.000	0.000	0.000	0.000	0.000	0.000	0.000	0.000	0.000	0.000	0.000	0.000	0.000	0.000	0.000	0.000	0.000	0.000	0.000	0.000	0.000	0.000	-0.000	-0.000	0.000	0.000	-0.000	0.000	-0.000	0.000	0.003	-0.007	-0.028	-0.068	-0.126	-0.204	-0.281	-0.297	-0.233	-0.154	-0.069	-0.033	-0.015
0.007	-0.033	-0.071	-0.131	-0.207	-0.243	-0.223	-0.161	-0.089	-0.039	-0.020	-0.014	-0.001	-0.000	0.000	-0.000	0.000	-0.000	-0.000	0.000	0.000	-0.000	-0.000	-0.000	-0.000	-0.000	-0.000	-0.000	-0.000	-0.000	-0.000	-0.000	-0.000	-0.000	-0.000	-0.000	-0.000	-0.000	-0.000	-0.000	-0.000	-0.000	-0.000	-0.000	-0.000	-0.000	-0.000	-0.000	-0.000	-0.000	-0.000	-0.000	-0.000	-0.000	-0.000	-0.000	-0.000	-0.000	-0.000	-0.000	-0.000	-0.000	-0.000	-0.000	-0.000	-0.000	-0.000	-0.000	-0.000	-0.000	-0.000	-0.000	-0.000	-0.000	-0.000	-0.000	-0.000	-0.000	-0.000	-0.000	-0.000	-0.000	-0.000	-0.000	-0.000	-0.000	-0.000	-0.000	-0.000	-0.000	-0.000	-0.000	-0.000	-0.000	-0.000	-0.000	-0.000	-0.000	-0.000	-0.000	-0.000	-0.000	-0.000	-0.000	-0.000	-0.000	-0.000	-0.000	-0.000	-0.000	-0.000	-0.000	-0.000	-0.000	-0.000	-0.000	-0.000	-0.000	-0.000	-0.000	-0.000	-0.000	-0.000	-0.000	-0.000	-0.000	-0.000	-0.000	-0.000	-0.000	-0.000	-0.000	-0.000	-0.000	-0.000	-0.000	-0.000	-0.000	-0.000	0.000	0.000	-0.000	-0.000	0.000	-0.000	0.000	-0.000	-0.001	-0.014	-0.020	-0.039	-0.089	-0.161	-0.223	-0.243	-0.207	-0.131	-0.071	-0.033	0.007
-0.014	-0.016	-0.066	-0.103	-0.140	-0.169	-0.147	-0.111	-0.058	-0.014	-0.011	0.004	0.000	0.000	-0.000	0.000	-0.000	0.000	0.000	-0.000	-0.000	0.000	0.000	0.000	0.000	0.000	0.000	0.000	0.000	0.000	0.000	0.000	0.000	0.000	0.000	0.000	0.000	0.000	0.000	0.000	0.000	0.000	0.000	0.000	0.000	0.000	0.000	0.000	0.000	0.000	0.000	0.000	0.000	0.000	0.000	0.000	0.000	0.000	0.000	0.000	0.000	0.000	0.000	0.000	0.000	0.000	0.000	0.000	0.000	0.000	0.000	0.000	0.000	0.000	0.000	0.000	0.000	0.000	0.000	0.000	0.000	0.000	0.000	0.000	0.000	0.000	0.000	0.000	0.000	0.000	0.000	0.000	0.000	0.000	0.000	0.000	0.000	0.000	0.000	0.000	0.000	0.000	0.000	0.000	0.000	0.000	0.000	0.000	0.000	0.000	0.000	0.000	0.000	0.000	0.000	0.000	0.000	0.000	0.000	0.000	0.000	0.000	0.000	0.000	0.000	0.000	0.000	0.000	0.000	0.000	0.000	0.000	0.000	0.000	0.000	0.000	0.000	0.000	0.000	-0.000	-0.000	0.000	0.000	-0.000	0.000	-0.000	0.000	0.000	0.004	-0.011	-0.014	-0.058	-0.111	-0.147	-0.169	-0.140	-0.103	-0.066	-0.016	-0.014
-0.012	-0.024	-0.026	-0.057	-0.072	-0.100	-0.090	-0.056	-0.040	-0.024	0.003	-0.001	-0.000	-0.000	0.000	-0.000	0.000	-0.000	-0.000	0.000	0.000	-0.000	-0.000	-0.000	-0.000	-0.000	-0.000	-0.000	-0.000	-0.000	-0.000	-0.000	-0.000	-0.000	-0.000	-0.000	-0.000	-0.000	-0.000	-0.000	-0.000	-0.000	-0.000	-0.000	-0.000	-0.000	-0.000	-0.000	-0.000	-0.000	-0.000	-0.000	-0.000	-0.000	-0.000	-0.000	-0.000	-0.000	-0.000	-0.000	-0.000	-0.000	-0.000	-0.000	-0.000	-0.000	-0.000	-0.000	-0.000	-0.000	-0.000	-0.000	-0.000	-0.000	-0.000	-0.000	-0.000	-0.000	-0.000	-0.000	-0.000	-0.000	-0.000	-0.000	-0.000	-0.000	-0.000	-0.000	-0.000	-0.000	-0.000	-0.000	-0.000	-0.000	-0.000	-0.000	-0.000	-0.000	-0.000	-0.000	-0.000	-0.000	-0.000	-0.000	-0.000	-0.000	-0.000	-0.000	-0.000	-0.000	-0.000	-0.000	-0.000	-0.000	-0.000	-0.000	-0.000	-0.000	-0.000	-0.000	-0.000	-0.000	-0.000	-0.000	-0.000	-0.000	-0.000	-0.000	-0.000	-0.000	-0.000	-0.000	-0.000	-0.000	-0.000	-0.000	-0.000	-0.000	-0.000	0.000	0.000	-0.000	-0.000	0.000	-0.000	0.000	-0.000	-0.000	-0.001	0.003	-0.024	-0.040	-0.056	-0.090	-0.100	-0.072	-0.057	-0.026	-0.024	-0.012
0.003	-0.010	-0.009	-0.029	-0.052	-0.030	-0.033	-0.026	-0.021	-0.010	-0.001	0.000	0.000	0.000	-0.000	0.000	-0.000	0.000	0.000	-0.000	-0.000	0.000	0.000	0.000	0.000	0.000	0.000	0.000	0.000	0.000	0.000	0.000	0.000	0.000	0.000	0.000	0.000	0.000	0.000	0.000	0.000	0.000	0.000	0.000	0.000	0.000	0.000	0.000	0.000	0.000	0.000	0.000	0.000	0.000	0.000	0.000	0.000	0.000	0.000	0.000	0.000	0.000	0.000	0.000	0.000	0.000	0.000	0.000	0.000	0.000	0.000	0.000	0.000	0.000	0.000	0.000	0.000	0.000	0.000	0.000	0.000	0.000	0.000	0.000	0.000	0.000	0.000	0.000	0.000	0.000	0.000	0.000	0.000	0.000	0.000	0.000	0.000	0.000	0.000	0.000	0.000	0.000	0.000	0.000	0.000	0.000	0.000	0.000	0.000	0.000	0.000	0.000	0.000	0.000	0.000	0.000	0.000	0.000	0.000	0.000	0.000	0.000	0.000	0.000	0.000	0.000	0.000	0.000	0.000	0.000	0.000	0.000	0.000	0.000	0.000	0.000	0.000	0.000	0.000	-0.000	-0.000	0.000	0.000	-0.000	0.000	-0.000	0.000	0.000	0.000	-0.001	-0.010	-0.021	-0.026	-0.033	-0.030	-0.052	-0.029	-0.009	-0.010	0.003
-0.001	0.003	0.002	-0.009	-0.018	-0.019	-0.018	-0.020	0.006	0.003	0.000	-0.000	-0.000	-0.000	0.000	-0.000	0.000	-0.000	-0.000	0.000	0.000	-0.000	-0.000	-0.000	-0.000	-0.000	-0.000	-0.000	-0.000	-0.000	-0.000	-0.000	-0.000	-0.000	-0.000	-0.000	-0.000	-0.000	-0.000	-0.000	-0.000	-0.000	-0.000	-0.000	-0.000	-0.000	-0.000	-0.000	-0.000	-0.000	-0.000	-0.000	-0.000	-0.000	-0.000	-0.000	-0.000	-0.000	-0.000	-0.000	-0.000	-0.000	-0.000	-0.000	-0.000	-0.000	-0.000	-0.000	-0.000	-0.000	-0.000	-0.000	-0.000	-0.000	-0.000	-0.000	-0.000	-0.000	-0.000	-0.000	-0.000	-0.000	-0.000	-0.000	-0.000	-0.000	-0.000	-0.000	-0.000	-0.000	-0.000	-0.000	-0.000	-0.000	-0.000	-0.000	-0.000	-0.000	-0.000	-0.000	-0.000	-0.000	-0.000	-0.000	-0.000	-0.000	-0.000	-0.000	-0.000	-0.000	-0.000	-0.000	-0.000	-0.000	-0.000	-0.000	-0.000	-0.000	-0.000	-0.000	-0.000	-0.000	-0.000	-0.000	-0.000	-0.000	-0.000	-0.000	-0.000	-0.000	-0.000	-0.000	-0.000	-0.000	-0.000	-0.000	-0.000	-0.000	-0.000	0.000	0.000	-0.000	-0.000	0.000	-0.000	0.000	-0.000	-0.000	-0.000	0.000	0.003	0.006	-0.020	-0.018	-0.019	-0.018	-0.009	0.002	0.003	-0.001
0.000	-0.001	-0.001	0.003	0.006	-0.014	-0.014	-0.013	-0.002	-0.001	-0.000	0.000	0.000	0.000	-0.000	0.000	-0.000	0.000	0.000	-0.000	-0.000	0.000	0.000	0.000	0.000	0.000	0.000	0.000	0.000	0.000	0.000	0.000	0.000	0.000	0.000	0.000	0.000	0.000	0.000	0.000	0.000	0.000	0.000	0.000	0.000	0.000	0.000	0.000	0.000	0.000	0.000	0.000	0.000	0.000	0.000	0.000	0.000	0.000	0.000	0.000	0.000	0.000	0.000	0.000	0.000	0.000	0.000	0.000	0.000	0.000	0.000	0.000	0.000	0.000	0.000	0.000	0.000	0.000	0.000	0.000	0.000	0.000	0.000	0.000	0.000	0.000	0.000	0.000	0.000	0.000	0.000	0.000	0.000	0.000	0.000	0.000	0.000	0.000	0.000	0.000	0.000	0.000	0.000	0.000	0.000	0.000	0.000	0.000	0.000	0.000	0.000	0.000	0.000	0.000	0.000	0.000	0.000	0.000	0.000	0.000	0.000	0.000	0.000	0.000	0.000	0.000	0.000	0.000	0.000	0.000	0.000	0.000	0.000	0.000	0.000	0.000	0.000	0.000	0.000	-0.000	-0.000	0.000	0.000	-0.000	0.000	-0.000	0.000	0.000	0.000	-0.000	-0.001	-0.002	-0.013	-0.014	-0.014	0.006	0.003	-0.001	-0.001	0.000
-0.000	0.001	0.001	-0.003	-0.006	0.014	0.014	0.013	0.002	0.001	0.000	-0.000	-0.000	-0.000	0.000	-0.000	0.000	-0.000	-0.000	0.000	0.000	-0.000	-0.000	-0.000	-0.000	-0.000	-0.000	-0.000	-0.000	-0.000	-0.000	-0.000	-0.000	-0.000	-0.000	-0.000	-0.000	-0.000	-0.000	-0.000	-0.000	-0.000	-0.000	-0.000	-0.000	-0.000	-0.000	-0.000	-0.000	-0.000	-0.000	-0.000	-0.000	-0.000	-0.000	-0.000	-0.000	-0.000	-0.000	-0.000	-0.000	-0.000	-0.000	-0.000	-0.000	-0.000	-0.000	-0.000	-0.000	-0.000	-0.000	-0.000	-0.000	-0.000	-0.000	-0.000	-0.000	-0.000	-0.000	-0.000	-0.000	-0.000	-0.000	-0.000	-0.000	-0.000	-0.000	-0.000	-0.000	-0.000	-0.000	-0.000	-0.000	-0.000	-0.000	-0.000	-0.000	-0.000	-0.000	-0.000	-0.000	-0.000	-0.000	-0.000	-0.000	-0.000	-0.000	-0.000	-0.000	-0.000	-0.000	-0.000	-0.000	-0.000	-0.000	-0.000	-0.000	-0.000	-0.000	-0.000	-0.000	-0.000	-0.000	-0.000	-0.000	-0.000	-0.000	-0.000	-0.000	-0.000	-0.000	-0.000	-0.000	-0.000	-0.000	-0.000	-0.000	-0.000	-0.000	0.000	0.000	-0.000	-0.000	0.000	-0.000	0.000	-0.000	-0.000	-0.000	0.000	0.001	0.002	0.013	0.014	0.014	-0.006	-0.003	0.001	0.001	-0.000
0.001	-0.003	-0.002	0.009	0.018	0.019	0.018	0.020	-0.006	-0.003	-0.000	0.000	0.000	0.000	-0.000	0.000	-0.000	0.000	0.000	-0.000	-0.000	0.000	0.000	0.000	0.000	0.000	0.000	0.000	0.000	0.000	0.000	0.000	0.000	0.000	0.000	0.000	0.000	0.000	0.000	0.000	0.000	0.000	0.000	0.000	0.000	0.000	0.000	0.000	0.000	0.000	0.000	0.000	0.000	0.000	0.000	0.000	0.000	0.000	0.000	0.000	0.000	0.000	0.000	0.000	0.000	0.000	0.000	0.000	0.000	0.000	0.000	0.000	0.000	0.000	0.000	0.000	0.000	0.000	0.000	0.000	0.000	0.000	0.000	0.000	0.000	0.000	0.000	0.000	0.000	0.000	0.000	0.000	0.000	0.000	0.000	0.000	0.000	0.000	0.000	0.000	0.000	0.000	0.000	0.000	0.000	0.000	0.000	0.000	0.000	0.000	0.000	0.000	0.000	0.000	0.000	0.000	0.000	0.000	0.000	0.000	0.000	0.000	0.000	0.000	0.000	0.000	0.000	0.000	0.000	0.000	0.000	0.000	0.000	0.000	0.000	0.000	0.000	0.000	0.000	-0.000	-0.000	0.000	0.000	-0.000	0.000	-0.000	0.000	0.000	0.000	-0.000	-0.003	-0.006	0.020	0.018	0.019	0.018	0.009	-0.002	-0.003	0.001
-0.003	0.010	0.009	0.029	0.052	0.030	0.033	0.026	0.021	0.010	0.001	-0.000	-0.000	-0.000	0.000	-0.000	0.000	-0.000	-0.000	0.000	0.000	-0.000	-0.000	-0.000	-0.000	-0.000	-0.000	-0.000	-0.000	-0.000	-0.000	-0.000	-0.000	-0.000	-0.000	-0.000	-0.000	-0.000	-0.000	-0.000	-0.000	-0.000	-0.000	-0.000	-0.000	-0.000	-0.000	-0.000	-0.000	-0.000	-0.000	-0.000	-0.000	-0.000	-0.000	-0.000	-0.000	-0.000	-0.000	-0.000	-0.000	-0.000	-0.000	-0.000	-0.000	-0.000	-0.000	-0.000	-0.000	-0.000	-0.000	-0.000	-0.000	-0.000	-0.000	-0.000	-0.000	-0.000	-0.000	-0.000	-0.000	-0.000	-0.000	-0.000	-0.000	-0.000	-0.000	-0.000	-0.000	-0.000	-0.000	-0.000	-0.000	-0.000	-0.000	-0.000	-0.000	-0.000	-0.000	-0.000	-0.000	-0.000	-0.000	-0.000	-0.000	-0.000	-0.000	-0.000	-0.000	-0.000	-0.000	-0.000	-0.000	-0.000	-0.000	-0.000	-0.000	-0.000	-0.000	-0.000	-0.000	-0.000	-0.000	-0.000	-0.000	-0.000	-0.000	-0.000	-0.000	-0.000	-0.000	-0.000	-0.000	-0.000	-0.000	-0.000	-0.000	-0.000	-0.000	0.000	0.000	-0.000	-0.000	0.000	-0.000	0.000	-0.000	-0.000	-0.000	0.001	0.010	0.021	0.026	0.033	0.030	0.052	0.029	0.009	0.010	-0.003
0.012	0.024	0.026	0.057	0.072	0.100	0.090	0.056	0.040	0.024	-0.003	0.001	0.000	0.000	-0.000	0.000	-0.000	0.000	0.000	-0.000	-0.000	0.000	0.000	0.000	0.000	0.000	0.000	0.000	0.000	0.000	0.000	0.000	0.000	0.000	0.000	0.000	0.000	0.000	0.000	0.000	0.000	0.000	0.000	0.000	0.000	0.000	0.000	0.000	0.000	0.000	0.000	0.000	0.000	0.000	0.000	0.000	0.000	0.000	0.000	0.000	0.000	0.000	0.000	0.000	0.000	0.000	0.000	0.000	0.000	0.000	0.000	0.000	0.000	0.000	0.000	0.000	0.000	0.000	0.000	0.000	0.000	0.000	0.000	0.000	0.000	0.000	0.000	0.000	0.000	0.000	0.000	0.000	0.000	0.000	0.000	0.000	0.000	0.000	0.000	0.000	0.000	0.000	0.000	0.000	0.000	0.000	0.000	0.000	0.000	0.000	0.000	0.000	0.000	0.000	0.000	0.000	0.000	0.000	0.000	0.000	0.000	0.000	0.000	0.000	0.000	0.000	0.000	0.000	0.000	0.000	0.000	0.000	0.000	0.000	0.000	0.000	0.000	0.000	0.000	-0.000	-0.000	0.000	0.000	-0.000	0.000	-0.000	0.000	0.000	0.001	-0.003	0.024	0.040	0.056	0.090	0.100	0.072	0.057	0.026	0.024	0.012
0.014	0.016	0.066	0.103	0.140	0.169	0.147	0.111	0.058	0.014	0.011	-0.004	-0.000	-0.000	0.000	-0.000	0.000	-0.000	-0.000	0.000	0.000	-0.000	-0.000	-0.000	-0.000	-0.000	-0.000	-0.000	-0.000	-0.000	-0.000	-0.000	-0.000	-0.000	-0.000	-0.000	-0.000	-0.000	-0.000	-0.000	-0.000	-0.000	-0.000	-0.000	-0.000	-0.000	-0.000	-0.000	-0.000	-0.000	-0.000	-0.000	-0.000	-0.000	-0.000	-0.000	-0.000	-0.000	-0.000	-0.000	-0.000	-0.000	-0.000	-0.000	-0.000	-0.000	-0.000	-0.000	-0.000	-0.000	-0.000	-0.000	-0.000	-0.000	-0.000	-0.000	-0.000	-0.000	-0.000	-0.000	-0.000	-0.000	-0.000	-0.000	-0.000	-0.000	-0.000	-0.000	-0.000	-0.000	-0.000	-0.000	-0.000	-0.000	-0.000	-0.000	-0.000	-0.000	-0.000	-0.000	-0.000	-0.000	-0.000	-0.000	-0.000	-0.000	-0.000	-0.000	-0.000	-0.000	-0.000	-0.000	-0.000	-0.000	-0.000	-0.000	-0.000	-0.000	-0.000	-0.000	-0.000	-0.000	-0.000	-0.000	-0.000	-0.000	-0.000	-0.000	-0.000	-0.000	-0.000	-0.000	-0.000	-0.000	-0.000	-0.000	-0.000	-0.000	-0.000	0.000	0.000	-0.000	-0.000	0.000	-0.000	0.000	-0.000	-0.000	-0.004	0.011	0.014	0.058	0.111	0.147	0.169	0.140	0.103	0.066	0.016	0.014
-0.007	0.033	0.071	0.131	0.207	0.243	0.223	0.161	0.089	0.039	0.020	0.014	0.001	0.000	-0.000	0.000	-0.000	0.000	0.000	-0.000	-0.000	0.000	0.000	0.000	0.000	0.000	0.000	0.000	0.000	0.000	0.000	0.000	0.000	0.000	0.000	0.000	0.000	0.000	0.000	0.000	0.000	0.000	0.000	0.000	0.000	0.000	0.000	0.000	0.000	0.000	0.000	0.000	0.000	0.000	0.000	0.000	0.000	0.000	0.000	0.000	0.000	0.000	0.000	0.000	0.000	0.000	0.000	0.000	0.000	0.000	0.000	0.000	0.000	0.000	0.000	0.000	0.000	0.000	0.000	0.000	0.000	0.000	0.000	0.000	0.000	0.000	0.000	0.000	0.000	0.000	0.000	0.000	0.000	0.000	0.000	0.000	0.000	0.000	0.000	0.000	0.000	0.000	0.000	0.000	0.000	0.000	0.000	0.000	0.000	0.000	0.000	0.000	0.000	0.000	0.000	0.000	0.000	0.000	0.000	0.000	0.000	0.000	0.000	0.000	0.000	0.000	0.000	0.000	0.000	0.000	0.000	0.000	0.000	0.000	0.000	0.000	0.000	0.000	0.000	-0.000	-0.000	0.000	0.000	-0.000	0.000	-0.000	0.000	0.001	0.014	0.020	0.039	0.089	0.161	0.223	0.243	0.207	0.131	0.071	0.033	-0.007
0.015	0.033	0.069	0.154	0.233	0.297	0.281	0.204	0.126	0.068	0.028	0.007	-0.003	-0.000	0.000	-0.000	0.000	-0.000	-0.000	0.000	0.000	-0.000	-0.000	-0.000	-0.000	-0.000	-0.000	-0.000	-0.000	-0.000	-0.000	-0.000	-0.000	-0.000	-0.000	-0.000	-0.000	-0.000	-0.000	-0.000	-0.000	-0.000	-0.000	-0.000	-0.000	-0.000	-0.000	-0.000	-0.000	-0.000	-0.000	-0.000	-0.000	-0.000	-0.000	-0.000	-0.000	-0.000	-0.000	-0.000	-0.000	-0.000	-0.000	-0.000	-0.000	-0.000	-0.000	-0.000	-0.000	-0.000	-0.000	-0.000	-0.000	-0.000	-0.000	-0.000	-0.000	-0.000	-0.000	-0.000	-0.000	-0.000	-0.000	-0.000	-0.000	-0.000	-0.000	-0.000	-0.000	-0.000	-0.000	-0.000	-0.000	-0.000	-0.000	-0.000	-0.000	-0.000	-0.000	-0.000	-0.000	-0.000	-0.000	-0.000	-0.000	-0.000	-0.000	-0.000	-0.000	-0.000	-0.000	-0.000	-0.000	-0.000	-0.000	-0.000	-0.000	-0.000	-0.000	-0.000	-0.000	-0.000	-0.000	-0.000	-0.000	-0.000	-0.000	-0.000	-0.000	-0.000	-0.000	-0.000	-0.000	-0.000	-0.000	-0.000	-0.000	-0.000	-0.000	0.000	0.000	-0.000	-0.000	0.000	-0.000	0.000	-0.000	-0.003	0.007	0.028	0.068	0.126	0.204	0.281	0.297	0.233	0.154	0.069	0.033	0.015
0.009	0.017	0.073	0.154	0.241	0.307	0.332	0.284	0.188	0.108	0.048	0.018	0.010	0.001	-0.000	0.000	-0.000	0.000	0.000	-0.000	-0.000	0.000	0.000	0.000	0.000	0.000	0.000	0.000	0.000	0.000	0.000	0.000	0.000	0.000	0.000	0.000	0.000	0.000	0.000	0.000	0.000	0.000	0.000	0.000	0.000	0.000	0.000	0.000	0.000	0.000	0.000	0.000	0.000	0.000	0.000	0.000	0.000	0.000	0.000	0.000	0.000	0.000	0.000	0.000	0.000	0.000	0.000	0.000	0.000	0.000	0.000	0.000	0.000	0.000	0.000	0.000	0.000	0.000	0.000	0.000	0.000	0.000	0.000	0.000	0.000	0.000	0.000	0.000	0.000	0.000	0.000	0.000	0.000	0.000	0.000	0.000	0.000	0.000	0.000	0.000	0.000	0.000	0.000	0.000	0.000	0.000	0.000	0.000	0.000	0.000	0.000	0.000	0.000	0.000	0.000	0.000	0.000	0.000	0.000	0.000	0.000	0.000	0.000	0.000	0.000	0.000	0.000	0.000	0.000	0.000	0.000	0.000	0.000	0.000	0.000	0.000	0.000	0.000	0.000	-0.000	-0.000	0.000	0.000	-0.000	0.000	-0.000	0.001	0.010	0.018	0.048	0.108	0.188	0.284	0.332	0.307	0.241	0.154	0.073	0.017	0.009
0.009	0.020	0.059	0.129	0.243	0.334	0.371	0.339	0.261	0.161	0.080	0.042	0.024	-0.002	0.001	-0.000	0.000	-0.000	-0.000	0.000	0.000	-0.000	-0.000	-0.000	-0.000	-0.000	-0.000	-0.000	-0.000	-0.000	-0.000	-0.000	-0.000	-0.000	-0.000	-0.000	-0.000	-0.000	-0.000	-0.000	-0.000	-0.000	-0.000	-0.000	-0.000	-0.000	-0.000	-0.000	-0.000	-0.000	-0.000	-0.000	-0.000	-0.000	-0.000	-0.000	-0.000	-0.000	-0.000	-0.000	-0.000	-0.000	-0.000	-0.000	-0.000	-0.000	-0.000	-0.000	-0.000	-0.000	-0.000	-0.000	-0.000	-0.000	-0.000	-0.000	-0.000	-0.000	-0.000	-0.000	-0.000	-0.000	-0.000	-0.000	-0.000	-0.000	-0.000	-0.000	-0.000	-0.000	-0.000	-0.000	-0.000	-0.000	-0.000	-0.000	-0.000	-0.000	-0.000	-0.000	-0.000	-0.000	-0.000	-0.000	-0.000	-0.000	-0.000	-0.000	-0.000	-0.000	-0.000	-0.000	-0.000	-0.000	-0.000	-0.000	-0.000	-0.000	-0.000	-0.000	-0.000	-0.000	-0.000	-0.000	-0.000	-0.000	-0.000	-0.000	-0.000	-0.000	-0.000	-0.000	-0.000	-0.000	-0.000	-0.000	-0.000	-0.000	-0.000	0.000	0.000	-0.000	-0.000	0.000	-0.000	0.001	-0.002	0.024	0.042	0.080	0.161	0.261	0.339	0.371	0.334	0.243	0.129	0.059	0.020	0.009
0.014	0.023	0.051	0.110	0.225	0.336	0.404	0.398	0.328	0.210	0.112	0.054	0.013	0.008	-0.002	0.001	-0.000	0.000	0.000	-0.000	-0.000	0.000	0.000	0.000	0.000	0.000	0.000	0.000	0.000	0.000	0.000	0.000	0.000	0.000	0.000	0.000	0.000	0.000	0.000	0.000	0.000	0.000	0.000	0.000	0.000	0.000	0.000	0.000	0.000	0.000	0.000	0.000	0.000	0.000	0.000	0.000	0.000	0.000	0.000	0.000	0.000	0.000	0.000	0.000	0.000	0.000	0.000	0.000	0.000	0.000	0.000	0.000	0.000	0.000	0.000	0.000	0.000	0.000	0.000	0.000	0.000	0.000	0.000	0.000	0.000	0.000	0.000	0.000	0.000	0.000	0.000	0.000	0.000	0.000	0.000	0.000	0.000	0.000	0.000	0.000	0.000	0.000	0.000	0.000	0.000	0.000	0.000	0.000	0.000	0.000	0.000	0.000	0.000	0.000	0.000	0.000	0.000	0.000	0.000	0.000	0.000	0.000	0.000	0.000	0.000	0.000	0.000	0.000	0.000	0.000	0.000	0.000	0.000	0.000	0.000	0.000	0.000	0.000	0.000	-0.000	-0.000	0.000	0.000	-0.000	0.001	-0.002	0.008	0.013	0.054	0.112	0.210	0.328	0.398	0.404	0.336	0.225	0.110	0.051	0.023	0.014
-0.004	0.007	0.039	0.090	0.175	0.301	0.414	0.467	0.406	0.320	0.192	0.104	0.042	0.028	0.008	-0.002	0.001	-0.000	-0.000	0.000	0.000	-0.000	-0.000	-0.000	-0.000	-0.000	-0.000	-0.000	-0.000	-0.000	-0.000	-0.000	-0.000	-0.000	-0.000	-0.000	-0.000	-0.000	-0.000	-0.000	-0.000	-0.000	-0.000	-0.000	-0.000	-0.000	-0.000	-0.000	-0.000	-0.000	-0.000	-0.000	-0.000	-0.000	-0.000	-0.000	-0.000	-0.000	-0.000	-0.000	-0.000	-0.000	-0.000	-0.000	-0.000	-0.000	-0.000	-0.000	-0.000	-0.000	-0.000	-0.000	-0.000	-0.000	-0.000	-0.000	-0.000	-0.000	-0.000	-0.000	-0.000	-0.000	-0.000	-0.000	-0.000	-0.000	-0.000	-0.000	-0.000	-0.000	-0.000	-0.000	-0.000	-0.000	-0.000	-0.000	-0.000	-0.000	-0.000	-0.000	-0.000	-0.000	-0.000	-0.000	-0.000	-0.000	-0.000	-0.000	-0.000	-0.000	-0.000	-0.000	-0.000	-0.000	-0.000	-0.000	-0.000	-0.000	-0.000	-0.000	-0.000	-0.000	-0.000	-0.000	-0.000	-0.000	-0.000	-0.000	-0.000	-0.000	-0.000	-0.000	-0.000	-0.000	-0.000	-0.000	-0.000	-0.000	-0.000	0.000	0.000	-0.000	-0.000	0.001	-0.002	0.008	0.028	0.042	0.104	0.192	0.320	0.406	0.467	0.414	0.301	0.175	0.090	0.039	0.007	-0.004
0.001	0.010	0.034	0.070	0.154	0.259	0.402	0.495	0.507	0.430	0.321	0.192	0.118	0.058	0.029	0.008	-0.003	0.001	0.001	-0.000	-0.000	0.000	0.000	0.000	0.000	0.000	0.000	0.000	0.000	0.000	0.000	0.000	0.000	0.000	0.000	0.000	0.000	0.000	0.000	0.000	0.000	0.000	0.000	0.000	0.000	0.000	0.000	0.000	0.000	0.000	0.000	0.000	0.000	0.000	0.000	0.000	0.000	0.000	0.000	0.000	0.000	0.000	0.000	0.000	0.000	0.000	0.000	0.000	0.000	0.000	0.000	0.000	0.000	0.000	0.000	0.000	0.000	0.000	0.000	0.000	0.000	0.000	0.000	0.000	0.000	0.000	0.000	0.000	0.000	0.000	0.000	0.000	0.000	0.000	0.000	0.000	0.000	0.000	0.000	0.000	0.000	0.000	0.000	0.000	0.000	0.000	0.000	0.000	0.000	0.000	0.000	0.000	0.000	0.000	0.000	0.000	0.000	0.000	0.000	0.000	0.000	0.000	0.000	0.000	0.000	0.000	0.000	0.000	0.000	0.000	0.000	0.000	0.000	0.000	0.000	0.000	0.000	0.000	0.000	-0.000	-0.000	0.001	0.001	-0.003	0.008	0.029	0.058	0.118	0.192	0.321	0.430	0.507	0.495	0.402	0.259	0.154	0.070	0.034	0.010	0.001
-0.000	0.013	0.004	0.051	0.111	0.223	0.380	0.494	0.566	0.541	0.445	0.330	0.204	0.100	0.054	0.030	0.010	-0.005	-0.002	0.000	0.001	-0.000	-0.000	-0.000	-0.000	-0.000	-0.000	-0.000	-0.000	-0.000	-0.000	-0.000	-0.000	-0.000	-0.000	-0.000	-0.000	-0.000	-0.000	-0.000	-0.000	-0.000	-0.000	-0.000	-0.000	-0.000	-0.000	-0.000	-0.000	-0.000	-0.000	-0.000	-0.000	-0.000	-0.000	-0.000	-0.000	-0.000	-0.000	-0.000	-0.000	-0.000	-0.000	-0.000	-0.000	-0.000	-0.000	-0.000	-0.000	-0.000	-0.000	-0.000	-0.000	-0.000	-0.000	-0.000	-0.000	-0.000	-0.000	-0.000	-0.000	-0.000	-0.000	-0.000	-0.000	-0.000	-0.000	-0.000	-0.000	-0.000	-0.000	-0.000	-0.000	-0.000	-0.000	-0.000	-0.000	-0.000	-0.000	-0.000	-0.000	-0.000	-0.000	-0.000	-0.000	-0.000	-0.000	-0.000	-0.000	-0.000	-0.000	-0.000	-0.000	-0.000	-0.000	-0.000	-0.000	-0.000	-0.000	-0.000	-0.000	-0.000	-0.000	-0.000	-0.000	-0.000	-0.000	-0.000	-0.000	-0.000	-0.000	-0.000	-0.000	-0.000	-0.000	-0.000	-0.000	-0.000	-0.000	0.001	0.000	-0.002	-0.005	0.010	0.030	0.054	0.100	0.204	0.330	0.445	0.541	0.566	0.494	0.380	0.223	0.111	0.051	0.004	0.013	-0.000
0.000	-0.004	0.011	0.027	0.064	0.170	0.297	0.467	0.587	0.644	0.600	0.468	0.324	0.202	0.114	0.053	0.024	0.020	0.008	-0.001	-0.002	0.001	0.000	0.000	0.001	0.001	0.001	0.001	0.001	0.001	0.001	0.001	0.001	0.001	0.001	0.001	0.001	0.001	0.001	0.001	0.001	0.001	0.001	0.001	0.001	0.001	0.001	0.001	0.001	0.001	0.001	0.001	0.001	0.001	0.001	0.001	0.001	0.001	0.001	0.001	0.001	0.001	0.001	0.001	0.001	0.001	0.001	0.001	0.001	0.001	0.001	0.001	0.001	0.001	0.001	0.001	0.001	0.001	0.001	0.001	0.001	0.001	0.001	0.001	0.001	0.001	0.001	0.001	0.001	0.001	0.001	0.001	0.001	0.001	0.001	0.001	0.001	0.001	0.001	0.001	0.001	0.001	0.001	0.001	0.001	0.001	0.001	0.001	0.001	0.001	0.001	0.001	0.001	0.001	0.001	0.001	0.001	0.001	0.001	0.001	0.001	0.001	0.001	0.001	0.001	0.001	0.001	0.001	0.001	0.001	0.001	0.001	0.001	0.001	0.001	0.001	0.000	0.000	0.001	-0.002	-0.001	0.008	0.020	0.024	0.053	0.114	0.202	0.324	0.468	0.600	0.644	0.587	0.467	0.297	0.170	0.064	0.027	0.011	-0.004	0.000
-0.000	0.001	0.013	0.021	0.052	0.117	0.230	0.396	0.564	0.661	0.694	0.619	0.479	0.351	0.211	0.120	0.075	0.046	0.028	0.003	0.009	-0.005	-0.001	-0.002	-0.002	-0.003	-0.003	-0.003	-0.003	-0.003	-0.003	-0.003	-0.003	-0.003	-0.003	-0.003	-0.003	-0.003	-0.003	-0.003	-0.003	-0.003	-0.003	-0.003	-0.003	-0.003	-0.003	-0.003	-0.003	-0.003	-0.003	-0.003	-0.003	-0.003	-0.003	-0.003	-0.003	-0.003	-0.003	-0.003	-0.003	-0.003	-0.003	-0.003	-0.003	-0.003	-0.003	-0.003	-0.003	-0.003	-0.003	-0.003	-0.003	-0.003	-0.003	-0.003	-0.003	-0.003	-0.003	-0.003	-0.003	-0.003	-0.003	-0.003	-0.003	-0.003	-0.003	-0.003	-0.003	-0.003	-0.003	-0.003	-0.003	-0.003	-0.003	-0.003	-0.003	-0.003	-0.003	-0.003	-0.003	-0.003	-0.003	-0.003	-0.003	-0.003	-0.003	-0.003	-0.003	-0.003	-0.003	-0.003	-0.003	-0.003	-0.003	-0.003	-0.003	-0.003	-0.003	-0.003	-0.003	-0.003	-0.003	-0.003	-0.003	-0.003	-0.003	-0.003	-0.003	-0.003	-0.003	-0.003	-0.003	-0.003	-0.003	-0.002	-0.002	-0.001	-0.005	0.009	0.003	0.028	0.046	0.075	0.120	0.211	0.351	0.479	0.619	0.694	0.661	0.564	0.396	0.230	0.117	0.052	0.021	0.013	0.001	-0.000
0.000	-0.000	-0.004	0.011	0.027	0.082	0.162	0.288	0.456	0.613	0.703	0.718	0.641	0.494	0.361	0.248	0.157	0.097	0.058	0.047	0.026	0.019	0.004	0.007	0.009	0.010	0.010	0.010	0.010	0.010	0.010	0.010	0.010	0.010	0.010	0.010	0.010	0.010	0.010	0.010	0.010	0.010	0.010	0.010	0.010	0.010	0.010	0.010	0.010	0.010	0.010	0.010	0.010	0.010	0.010	0.010	0.010	0.010	0.010	0.010	0.010	0.010	0.010	0.010	0.010	0.010	0.010	0.010	0.010	0.010	0.010	0.010	0.010	0.010	0.010	0.010	0.010	0.010	0.010	0.010	0.010	0.010	0.010	0.010	0.010	0.010	0.010	0.010	0.010	0.010	0.010	0.010	0.010	0.010	0.010	0.010	0.010	0.010	0.010	0.010	0.010	0.010	0.010	0.010	0.010	0.010	0.010	0.010	0.010	0.010	0.010	0.010	0.010	0.010	0.010	0.010	0.010	0.010	0.010	0.010	0.010	0.010	0.010	0.010	0.010	0.010	0.010	0.010	0.010	0.010	0.010	0.010	0.010	0.010	0.010	0.009	0.007	0.004	0.019	0.026	0.047	0.058	0.097	0.157	0.248	0.361	0.494	0.641	0.718	0.703	0.613	0.456	0.288	0.162	0.082	0.027	0.011	-0.004	-0.000	0.000
-0.000	0.000	0.001	-0.003	0.021	0.035	0.083	0.190	0.313	0.486	0.635	0.710	0.737	0.672	0.564	0.449	0.318	0.227	0.159	0.108	0.068	0.050	0.045	0.034	0.025	0.024	0.023	0.023	0.023	0.023	0.023	0.023	0.023	0.023	0.023	0.023	0.023	0.023	0.023	0.023	0.023	0.023	0.023	0.023	0.023	0.023	0.023	0.023	0.023	0.023	0.023	0.023	0.023	0.023	0.023	0.023	0.023	0.023	0.023	0.023	0.023	0.023	0.023	0.023	0.023	0.023	0.023	0.023	0.023	0.023	0.023	0.023	0.023	0.023	0.023	0.023	0.023	0.023	0.023	0.023	0.023	0.023	0.023	0.023	0.023	0.023	0.023	0.023	0.023	0.023	0.023	0.023	0.023	0.023	0.023	0.023	0.023	0.023	0.023	0.023	0.023	0.023	0.023	0.023	0.023	0.023	0.023	0.023	0.023	0.023	0.023	0.023	0.023	0.023	0.023	0.023	0.023	0.023	0.023	0.023	0.023	0.023	0.023	0.023	0.023	0.023	0.023	0.023	0.023	0.023	0.023	0.023	0.023	0.023	0.024	0.025	0.034	0.045	0.050	0.068	0.108	0.159	0.227	0.318	0.449	0.564	0.672	0.737	0.710	0.635	0.486	0.313	0.190	0.083	0.035	0.021	-0.003	0.001	0.000	-0.000
0.000	-0.000	-0.000	0.001	0.011	0.019	0.046	0.091	0.211	0.321	0.476	0.641	0.729	0.778	0.743	0.655	0.552	0.433	0.325	0.241	0.183	0.142	0.116	0.096	0.070	0.073	0.076	0.076	0.076	0.076	0.076	0.076	0.076	0.076	0.076	0.076	0.076	0.076	0.076	0.076	0.076	0.076	0.076	0.076	0.076	0.076	0.076	0.076	0.076	0.076	0.076	0.076	0.076	0.076	0.076	0.076	0.076	0.076	0.076	0.076	0.076	0.076	0.076	0.076	0.076	0.076	0.076	0.076	0.076	0.076	0.076	0.076	0.076	0.076	0.076	0.076	0.076	0.076	0.076	0.076	0.076	0.076	0.076	0.076	0.076	0.076	0.076	0.076	0.076	0.076	0.076	0.076	0.076	0.076	0.076	0.076	0.076	0.076	0.076	0.076	0.076	0.076	0.076	0.076	0.076	0.076	0.076	0.076	0.076	0.076	0.076	0.076	0.076	0.076	0.076	0.076	0.076	0.076	0.076	0.076	0.076	0.076	0.076	0.076	0.076	0.076	0.076	0.076	0.076	0.076	0.076	0.076	0.076	0.076	0.073	0.070	0.096	0.116	0.142	0.183	0.241	0.325	0.433	0.552	0.655	0.743	0.778	0.729	0.641	0.476	0.321	0.211	0.091	0.046	0.019	0.011	0.001	-0.000	-0.000	0.000
-0.000	0.000	0.000	-0.000	-0.003	0.011	0.031	0.044	0.102	0.209	0.340	0.506	0.666	0.776	0.843	0.832	0.774	0.679	0.580	0.487	0.400	0.343	0.272	0.242	0.237	0.224	0.211	0.211	0.211	0.211	0.211	0.211	0.211	0.211	0.211	0.211	0.211	0.211	0.211	0.211	0.211	0.211	0.211	0.211	0.211	0.211	0.211	0.211	0.211	0.211	0.211	0.211	0.211	0.211	0.211	0.211	0.211	0.211	0.211	0.211	0.211	0.211	0.211	0.211	0.211	0.211	0.211	0.211	0.211	0.211	0.211	0.211	0.211	0.211	0.211	0.211	0.211	0.211	0.211	0.211	0.211	0.211	0.211	0.211	0.211	0.211	0.211	0.211	0.211	0.211	0.211	0.211	0.211	0.211	0.211	0.211	0.211	0.211	0.211	0.211	0.211	0.211	0.211	0.211	0.211	0.211	0.211	0.211	0.211	0.211	0.211	0.211	0.211	0.211	0.211	0.211	0.211	0.211	0.211	0.211	0.211	0.211	0.211	0.211	0.211	0.211	0.211	0.211	0.211	0.211	0.211	0.211	0.211	0.211	0.224	0.237	0.242	0.272	0.343	0.400	0.487	0.580	0.679	0.774	0.832	0.843	0.776	0.666	0.506	0.340	0.209	0.102	0.044	0.031	0.011	-0.003	-0.000	0.000	0.000	-0.000
0.000	-0.000	-0.000	0.000	0.001	-0.003	0.008	0.032	0.041	0.102	0.204	0.335	0.506	0.679	0.806	0.879	0.910	0.872	0.835	0.752	0.678	0.587	0.538	0.495	0.484	0.470	0.459	0.459	0.459	0.459	0.459	0.459	0.459	0.459	0.459	0.459	0.459	0.459	0.459	0.459	0.459	0.459	0.459	0.459	0.459	0.459	0.459	0.459	0.459	0.459	0.459	0.459	0.459	0.459	0.459	0.459	0.459	0.459	0.459	0.459	0.459	0.459	0.459	0.459	0.459	0.459	0.459	0.459	0.459	0.459	0.459	0.459	0.459	0.459	0.459	0.459	0.459	0.459	0.459	0.459	0.459	0.459	0.459	0.459	0.459	0.459	0.459	0.459	0.459	0.459	0.459	0.459	0.459	0.459	0.459	0.459	0.459	0.459	0.459	0.459	0.459	0.459	0.459	0.459	0.459	0.459	0.459	0.459	0.459	0.459	0.459	0.459	0.459	0.459	0.459	0.459	0.459	0.459	0.459	0.459	0.459	0.459	0.459	0.459	0.459	0.459	0.459	0.459	0.459	0.459	0.459	0.459	0.459	0.459	0.470	0.484	0.495	0.538	0.587	0.678	0.752	0.835	0.872	0.910	0.879	0.806	0.679	0.506	0.335	0.204	0.102	0.041	0.032	0.008	-0.003	0.001	0.000	-0.000	-0.000	0.000
-0.000	0.000	0.000	-0.000	-0.000	0.001	-0.002	0.007	0.033	0.041	0.103	0.194	0.311	0.469	0.612	0.754	0.864	0.934	0.940	0.944	0.908	0.850	0.818	0.779	0.767	0.774	0.774	0.774	0.774	0.774	0.774	0.774	0.774	0.774	0.774	0.774	0.774	0.774	0.774	0.774	0.774	0.774	0.774	0.774	0.774	0.774	0.774	0.774	0.774	0.774	0.774	0.774	0.774	0.774	0.774	0.774	0.774	0.774	0.774	0.774	0.774	0.774	0.774	0.774	0.774	0.774	0.774	0.774	0.774	0.774	0.774	0.774	0.774	0.774	0.774	0.774	0.774	0.774	0.774	0.774	0.774	0.774	0.774	0.774	0.774	0.774	0.774	0.774	0.774	0.774	0.774	0.774	0.774	0.774	0.774	0.774	0.774	0.774	0.774	0.774	0.774	0.774	0.774	0.774	0.774	0.774	0.774	0.774	0.774	0.774	0.774	0.774	0.774	0.774	0.774	0.774	0.774	0.774	0.774	0.774	0.774	0.774	0.774	0.774	0.774	0.774	0.774	0.774	0.774	0.774	0.774	0.774	0.774	0.774	0.774	0.767	0.779	0.818	0.850	0.908	0.944	0.940	0.934	0.864	0.754	0.612	0.469	0.311	0.194	0.103	0.041	0.033	0.007	-0.002	0.001	-0.000	-0.000	0.000	0.000	-0.000
0.000	-0.000	-0.000	0.000	0.000	-0.000	0.001	-0.002	0.007	0.033	0.045	0.089	0.172	0.267	0.407	0.546	0.673	0.792	0.866	0.932	0.968	0.995	0.992	1.008	1.010	0.994	1.006	1.006	1.006	1.006	1.006	1.006	1.006	1.006	1.006	1.006	1.006	1.006	1.006	1.006	1.006	1.006	1.006	1.006	1.006	1.006	1.006	1.006	1.006	1.006	1.006	1.006	1.006	1.006	1.006	1.006	1.006	1.006	1.006	1.006	1.006	1.006	1.006	1.006	1.006	1.006	1.006	1.006	1.006	1.006	1.006	1.006	1.006	1.006	1.006	1.006	1.006	1.006	1.006	1.006	1.006	1.006	1.006	1.006	1.006	1.006	1.006	1.006	1.006	1.006	1.006	1.006	1.006	1.006	1.006	1.006	1.006	1.006	1.006	1.006	1.006	1.006	1.006	1.006	1.006	1.006	1.006	1.006	1.006	1.006	1.006	1.006	1.006	1.006	1.006	1.006	1.006	1.006	1.006	1.006	1.006	1.006	1.006	1.006	1.006	1.006	1.006	1.006	1.006	1.006	1.006	1.006	1.006	1.006	0.994	1.010	1.008	0.992	0.995	0.968	0.932	0.866	0.792	0.673	0.546	0.407	0.267	0.172	0.089	0.045	0.033	0.007	-0.002	0.001	-0.000	0.000	0.000	-0.000	-0.000	0.000
-0.000	0.000	0.000	-0.000	-0.000	0.000	-0.000	0.001	-0.002	0.007	0.016	0.048	0.082	0.145	0.219	0.302	0.405	0.517	0.637	0.727	0.798	0.871	0.916	0.947	0.955	0.951	0.964	0.964	0.964	0.964	0.964	0.964	0.964	0.964	0.964	0.964	0.964	0.964	0.964	0.964	0.964	0.964	0.964	0.964	0.964	0.964	0.964	0.964	0.964	0.964	0.964	0.964	0.964	0.964	0.964	0.964	0.964	0.964	0.964	0.964	0.964	0.964	0.964	0.964	0.964	0.964	0.964	0.964	0.964	0.964	0.964	0.964	0.964	0.964	0.964	0.964	0.964	0.964	0.964	0.964	0.964	0.964	0.964	0.964	0.964	0.964	0.964	0.964	0.964	0.964	0.964	0.964	0.964	0.964	0.964	0.964	0.964	0.964	0.964	0.964	0.964	0.964	0.964	0.964	0.964	0.964	0.964	0.964	0.964	0.964	0.964	0.964	0.964	0.964	0.964	0.964	0.964	0.964	0.964	0.964	0.964	0.964	0.964	0.964	0.964	0.964	0.964	0.964	0.964	0.964	0.964	0.964	0.964	0.964	0.951	0.955	0.947	0.916	0.871	0.798	0.727	0.637	0.517	0.405	0.302	0.219	0.145	0.082	0.048	0.016	0.007	-0.002	0.001	-0.000	0.000	-0.000	-0.000	0.000	0.000	-0.000
0.000	-0.000	-0.000	0.000	0.000	-0.000	0.000	-0.000	0.000	-0.002	0.011	0.018	0.039	0.054	0.095	0.164	0.229	0.321	0.426	0.538	0.641	0.742	0.806	0.843	0.871	0.902	0.899	0.899	0.899	0.899	0.899	0.899	0.899	0.899	0.899	0.899	0.899	0.899	0.899	0.899	0.899	0.899	0.899	0.899	0.899	0.899	0.899	0.899	0.899	0.899	0.899	0.899	0.899	0.899	0.899	0.899	0.899	0.899	0.899	0.899	0.899	0.899	0.899	0.899	0.899	0.899	0.899	0.899	0.899	0.899	0.899	0.899	0.899	0.899	0.899	0.899	0.899	0.899	0.899	0.899	0.899	0.899	0.899	0.899	0.899	0.899	0.899	0.899	0.899	0.899	0.899	0.899	0.899	0.899	0.899	0.899	0.899	0.899	0.899	0.899	0.899	0.899	0.899	0.899	0.899	0.899	0.899	0.899	0.899	0.899	0.899	0.899	0.899	0.899	0.899	0.899	0.899	0.899	0.899	0.899	0.899	0.899	0.899	0.899	0.899	0.899	0.899	0.899	0.899	0.899	0.899	0.899	0.899	0.899	0.902	0.871	0.843	0.806	0.742	0.641	0.538	0.426	0.321	0.229	0.164	0.095	0.054	0.039	0.018	0.011	-0.002	0.000	-0.000	0.000	-0.000	0.000	0.000	-0.000	-0.000	0.000
-0.000	0.000	0.000	0.000	0.000	0.000	0.000	0.000	0.000	0.000	0.000	0.000	0.000	0.000	0.000	0.000	0.000	0.000	0.000	0.000	0.000	0.000	0.000	0.000	0.000	0.000	0.000	0.000	0.000	0.000	0.000	0.000	0.000	0.000	0.000	0.000	0.000	0.000	0.000	0.000	0.000	0.000	0.000	0.000	0.000	0.000	0.000	0.000	0.000	-0.000	-0.000	-0.000	-0.000	-0.000	-0.000	-0.000	-0.000	-0.000	-0.000	-0.000	-0.000	-0.000	-0.000	-0.000	-0.000	-0.000	-0.000	-0.000	-0.000	-0.000	-0.000	-0.000	-0.000	-0.000	-0.000	-0.000	-0.000	-0.000	-0.000	-0.000	-0.000	-0.000	-0.000	-0.000	-0.000	-0.000	-0.000	-0.000	-0.000	-0.000	-0.000	-0.000	-0.000	-0.000	-0.000	-0.000	-0.000	-0.000	-0.000	-0.000	-0.000	-0.000	-0.000	-0.000	-0.000	-0.000	-0.000	-0.000	-0.000	-0.000	-0.000	0.000	0.000	0.000	0.000	0.000	0.000	0.000	0.000	0.000	0.000	0.000	0.000	0.000	0.000	0.000	0.000	0.000	0.000	0.000	0.000	0.000	0.000	0.000	0.000	0.000	0.000	0.000	0.000	0.000	0.000	0.000	0.000	0.000	0.000	0.000	0.000	0.000	0.000	0.000	0.000	0.000	0.000	0.000	0.000	0.000	0.000	0.000	0.000	-0.000
