<?xml version="1.0" encoding="UTF-8" standalone="no"?> <svg xmlns="http://www.w3.org/2000/svg" xmlns:xlink="http://www.w3.org/1999/xlink" width="443pt" height="377pt" viewBox="0.00 0.00 443.00 376.80">
<g id="graph0" class="graph" transform="scale(1 1) rotate(0) translate(4 372.8)">
<title style="">%0</title>
<polygon fill="#ffffff" stroke="transparent" points="-4,4 -4,-372.8 439,-372.8 439,4 -4,4" style=""></polygon>
<g id="clust1" class="cluster">
<title style="">cluster</title>
<polygon fill="#234178" fill-opacity="0.184314" stroke="#000000" points="8,-8 8,-360.8 427,-360.8 427,-8 8,-8" style=""></polygon>
<text text-anchor="middle" x="217.5" y="-344.2" font-family="Times,serif" font-size="14.00" fill="#000000">Global</text>
</g>
<g id="clust2" class="cluster">
<title style="">cluster_1</title>
<polygon fill="#234178" fill-opacity="0.184314" stroke="#000000" points="16,-166 16,-328 419,-328 419,-166 16,-166" style=""></polygon>
</g>
<!-- Gnuplotter_0_200 -->
<g id="node1" class="node">
<title style="">Gnuplotter_0_200</title>
<g id="a_node1">">
<polygon fill="#fffea3" stroke="transparent" points="211,-66 139,-66 139,-16 211,-16 211,-66" style=""></polygon>
<text text-anchor="start" x="142.507" y="-48.5" font-family="times" font-size="15.00" fill="#000000">Gnuplotter</text>
<text text-anchor="start" x="163.75" y="-24.5" font-family="times" font-size="15.00" fill="#000000">200</text>
<polygon fill="#000000" stroke="#000000" points="139,-41 139,-41 211,-41 211,-41 139,-41" style=""></polygon>
<polygon fill="none" stroke="#000000" points="139,-16 139,-66 211,-66 211,-16 139,-16" style=""></polygon>
</g>
</g>
<!-- a_0 -->
<g id="node2" class="node">
<title style="">a_0</title>
<g id="a_node2">
<ellipse fill="#d3d247" stroke="#000000" cx="175" cy="-120" rx="27" ry="18" style=""></ellipse>
<text text-anchor="middle" x="175" y="-115.8" font-family="Times,serif" font-size="14.00" fill="#000000">a</text>
</g>
</g>
<!-- a_0&#45;&gt;Gnuplotter_0_200 -->
<g id="edge3" class="edge">
<title style="">a_0-&gt;Gnuplotter_0_200</title>
<path fill="none" stroke="#112c5f" stroke-width="2" d="M175,-101.6772C175,-94.0766 175,-84.9908 175,-76.1933" style=""></path>
<polygon fill="#112c5f" stroke="#112c5f" stroke-width="2" points="178.5001,-76.1046 175,-66.1046 171.5001,-76.1047 178.5001,-76.1046" style=""></polygon>
</g>
<!-- i_0 -->
<g id="node3" class="node">
<title style="">i_0</title>
<g id="a_node3">
<ellipse fill="#d3d247" stroke="#000000" cx="247" cy="-120" rx="27" ry="18" style=""></ellipse>
<text text-anchor="middle" x="247" y="-115.8" font-family="Times,serif" font-size="14.00" fill="#000000">i</text>
</g>
</g>
<!-- System_1_8541875522763607134_5 -->
<g id="node4" class="node">
<title style="">System_1_8541875522763607134_5</title>
<g id="a_node4">">
<polygon fill="#fffea3" stroke="transparent" points="251,-248 171,-248 171,-174 251,-174 251,-248" style=""></polygon>
<text text-anchor="start" x="188.9163" y="-230.5" font-family="times" font-size="15.00" fill="#000000">System</text>
<text text-anchor="start" x="174.766" y="-207.5" font-family="times" font-style="italic" font-size="15.00" fill="#000000">'Meinhardt'</text>
<text text-anchor="start" x="207.25" y="-182.5" font-family="times" font-size="15.00" fill="#000000">5</text>
<polygon fill="#000000" stroke="#000000" points="171,-199 171,-199 251,-199 251,-199 171,-199" style=""></polygon>
<polygon fill="none" stroke="#000000" points="171,-174 171,-248 251,-248 251,-174 171,-174" style=""></polygon>
</g>
</g>
<!-- System_1_8541875522763607134_5&#45;&gt;a_0 -->
<g id="edge1" class="edge">
<title style="">System_1_8541875522763607134_5-&gt;a_0</title>
<path fill="none" stroke="#8f100d" stroke-width="3" d="M196.3574,-173.9868C192.7756,-164.9328 189.0099,-155.4139 185.6551,-146.9336" style=""></path>
<polygon fill="#8f100d" stroke="#8f100d" stroke-width="3" points="188.8744,-145.557 181.9412,-137.5457 182.3653,-148.1321 188.8744,-145.557" style=""></polygon>
</g>
<!-- System_1_8541875522763607134_5&#45;&gt;i_0 -->
<g id="edge2" class="edge">
<title style="">System_1_8541875522763607134_5-&gt;i_0</title>
<path fill="none" stroke="#8f100d" stroke-width="3" d="M225.6426,-173.9868C229.2244,-164.9328 232.9901,-155.4139 236.3449,-146.9336" style=""></path>
<polygon fill="#8f100d" stroke="#8f100d" stroke-width="3" points="239.6347,-148.1321 240.0588,-137.5457 233.1256,-145.557 239.6347,-148.1321" style=""></polygon>
</g>
<!-- kappa_1 -->
<g id="node5" class="node">
<title style="">kappa_1</title>
<g id="a_node5">
<ellipse fill="#d3d247" stroke="#000000" cx="377" cy="-302" rx="34.191" ry="18" style=""></ellipse>
<text text-anchor="middle" x="377" y="-297.8" font-family="Times,serif" font-size="14.00" fill="#000000">kappa</text>
</g>
</g>
<!-- kappa_1&#45;&gt;System_1_8541875522763607134_5 -->
<g id="edge4" class="edge">
<title style="">kappa_1-&gt;System_1_8541875522763607134_5</title>
<path fill="none" stroke="#112c5f" stroke-width="2" d="M353.2162,-288.9619C328.9825,-275.6772 290.6959,-254.6887 259.9502,-237.8341" style=""></path>
<polygon fill="#112c5f" stroke="#112c5f" stroke-width="2" points="261.5377,-234.713 251.0864,-232.9751 258.1728,-240.8512 261.5377,-234.713" style=""></polygon>
</g>
<!-- mu_a_1 -->
<g id="node6" class="node">
<title style="">mu_a_1</title>
<g id="a_node6">
<ellipse fill="#d3d247" stroke="#000000" cx="292" cy="-302" rx="32.4846" ry="18" style=""></ellipse>
<text text-anchor="middle" x="292" y="-297.8" font-family="Times,serif" font-size="14.00" fill="#000000">mu_a</text>
</g>
</g>
<!-- mu_a_1&#45;&gt;System_1_8541875522763607134_5 -->
<g id="edge5" class="edge">
<title style="">mu_a_1-&gt;System_1_8541875522763607134_5</title>
<path fill="none" stroke="#112c5f" stroke-width="2" d="M277.5188,-285.731C270.0489,-277.3389 260.5311,-266.6461 251.0465,-255.9905" style=""></path>
<polygon fill="#112c5f" stroke="#112c5f" stroke-width="2" points="253.439,-253.4142 244.1759,-248.2716 248.2103,-258.0683 253.439,-253.4142" style=""></polygon>
</g>
<!-- mu_i_1 -->
<g id="node7" class="node">
<title style="">mu_i_1</title>
<g id="a_node7">
<ellipse fill="#d3d247" stroke="#000000" cx="211" cy="-302" rx="30.7789" ry="18" style=""></ellipse>
<text text-anchor="middle" x="211" y="-297.8" font-family="Times,serif" font-size="14.00" fill="#000000">mu_i</text>
</g>
</g>
<!-- mu_i_1&#45;&gt;System_1_8541875522763607134_5 -->
<g id="edge6" class="edge">
<title style="">mu_i_1-&gt;System_1_8541875522763607134_5</title>
<path fill="none" stroke="#112c5f" stroke-width="2" d="M211,-283.5848C211,-276.189 211,-267.2921 211,-258.3013" style=""></path>
<polygon fill="#112c5f" stroke="#112c5f" stroke-width="2" points="214.5001,-258.1854 211,-248.1855 207.5001,-258.1855 214.5001,-258.1854" style=""></polygon>
</g>
<!-- rho_1 -->
<g id="node8" class="node">
<title style="">rho_1</title>
<g id="a_node8">
<ellipse fill="#d3d247" stroke="#000000" cx="135" cy="-302" rx="27" ry="18" style=""></ellipse>
<text text-anchor="middle" x="135" y="-297.8" font-family="Times,serif" font-size="14.00" fill="#000000">rho</text>
</g>
</g>
<!-- rho_1&#45;&gt;System_1_8541875522763607134_5 -->
<g id="edge7" class="edge">
<title style="">rho_1-&gt;System_1_8541875522763607134_5</title>
<path fill="none" stroke="#112c5f" stroke-width="2" d="M148.2382,-286.149C155.2879,-277.7079 164.3516,-266.8554 173.3861,-256.0377" style=""></path>
<polygon fill="#112c5f" stroke="#112c5f" stroke-width="2" points="176.2065,-258.1208 179.9303,-248.2019 170.8338,-253.6336 176.2065,-258.1208" style=""></polygon>
</g>
<!-- rho_a_1 -->
<g id="node9" class="node">
<title style="">rho_a_1</title>
<g id="a_node9">
<ellipse fill="#d3d247" stroke="#000000" cx="57" cy="-302" rx="33.0469" ry="18" style=""></ellipse>
<text text-anchor="middle" x="57" y="-297.8" font-family="Times,serif" font-size="14.00" fill="#000000">rho_a</text>
</g>
</g>
<!-- rho_a_1&#45;&gt;System_1_8541875522763607134_5 -->
<g id="edge8" class="edge">
<title style="">rho_a_1-&gt;System_1_8541875522763607134_5</title>
<path fill="none" stroke="#112c5f" stroke-width="2" d="M79.3929,-288.7678C100.9967,-276.002 134.4161,-256.2541 162.1713,-239.8533" style=""></path>
<polygon fill="#112c5f" stroke="#112c5f" stroke-width="2" points="164.1328,-242.7597 170.9615,-234.6591 160.5716,-236.7332 164.1328,-242.7597" style=""></polygon>
</g>
</g>
</svg>