<?xml version="1.0" encoding="UTF-8" standalone="no"?>
<!DOCTYPE svg PUBLIC "-//W3C//DTD SVG 1.1//EN"
 "http://www.w3.org/Graphics/SVG/1.1/DTD/svg11.dtd">
<!-- Generated by graphviz version 2.50.0 (20211204.2007)
 -->
<!-- Pages: 1 -->
<svg width="1182pt" height="365pt"
 viewBox="0.00 0.00 1182.00 365.00" xmlns="http://www.w3.org/2000/svg" xmlns:xlink="http://www.w3.org/1999/xlink">
<g id="graph0" class="graph" transform="scale(1 1) rotate(0) translate(4 361)">
<polygon fill="white" stroke="transparent" points="-4,4 -4,-361 1178,-361 1178,4 -4,4"/>
<g id="clust1" class="cluster">
<title>cluster</title>
<polygon fill="#234178" fill-opacity="0.184314" stroke="black" points="8,-8 8,-349 1166,-349 1166,-8 8,-8"/>
<text text-anchor="middle" x="587" y="-333.8" font-family="Times,serif" font-size="14.00">Global</text>
</g>
<g id="clust3" class="cluster">
<title>cluster_2</title>
<polygon fill="#234178" fill-opacity="0.184314" stroke="black" points="531,-187 531,-274 627,-274 627,-187 531,-187"/>
<text text-anchor="middle" x="579" y="-258.8" font-family="Times,serif" font-size="14.00">System</text>
</g>
<!-- Logger_0_6097416426442070905_1 -->
<g id="node1" class="node">
<title>Logger_0_6097416426442070905_1</title>
<g id="a_node1"><a xlink:href="morph://MorpheusModel/Analysis/Logger" xlink:title="&lt;TABLE&gt;">
<polygon fill="#fffea3" stroke="transparent" points="572,-87 442,-87 442,-16 572,-16 572,-87"/>
<text text-anchor="start" x="483.5" y="-70.5" font-family="times" font-size="15.00">Logger</text>
<text text-anchor="start" x="446" y="-48.5" font-family="times" font-style="italic" font-size="15.00">&quot;chemical profiles&quot;</text>
<text text-anchor="start" x="502.5" y="-24.5" font-family="times" font-size="15.00">1</text>
<polygon fill="black" stroke="black" points="442,-39.5 442,-39.5 572,-39.5 572,-39.5 442,-39.5"/>
<polygon fill="none" stroke="black" points="442,-16 442,-87 572,-87 572,-16 442,-16"/>
</a>
</g>
</g>
<!-- E_0 -->
<g id="node2" class="node">
<title>E_0</title>
<g id="a_node2"><a xlink:href="morph://MorpheusModel/Global/Field[2]" xlink:title="E">
<ellipse fill="#d3d247" stroke="black" cx="319" cy="-141" rx="27" ry="18"/>
<text text-anchor="middle" x="319" y="-137.3" font-family="Times,serif" font-size="14.00">E</text>
</a>
</g>
</g>
<!-- E_0&#45;&gt;Logger_0_6097416426442070905_1 -->
<g id="edge3" class="edge">
<title>E_0&#45;&gt;Logger_0_6097416426442070905_1</title>
<path fill="none" stroke="#112c5f" stroke-width="2" d="M340.31,-129.91C345.14,-127.63 350.24,-125.23 355,-123 380.23,-111.19 407.86,-98.35 432.55,-86.91"/>
<polygon fill="#112c5f" stroke="#112c5f" stroke-width="2" points="434.26,-89.97 441.86,-82.59 431.32,-83.62 434.26,-89.97"/>
</g>
<!-- E0_0 -->
<g id="node3" class="node">
<title>E0_0</title>
<g id="a_node3"><a xlink:href="morph://MorpheusModel/Global/Constant[8]" xlink:title="E0">
<ellipse fill="#d3d247" stroke="black" cx="1131" cy="-300" rx="27" ry="18"/>
<text text-anchor="middle" x="1131" y="-296.3" font-family="Times,serif" font-size="14.00">E0</text>
</a>
</g>
</g>
<!-- System_2_0_0009375 -->
<g id="node27" class="node">
<title>System_2_0_0009375</title>
<g id="a_node27"><a xlink:href="morph://MorpheusModel/Global/System" xlink:title="&lt;TABLE&gt;">
<polygon fill="#fffea3" stroke="transparent" points="618.5,-243 539.5,-243 539.5,-195 618.5,-195 618.5,-243"/>
<text text-anchor="start" x="554" y="-227" font-family="times" font-size="15.00">System</text>
<text text-anchor="start" x="544" y="-204" font-family="times" font-size="15.00">0.0009375</text>
<polygon fill="black" stroke="black" points="540,-219 540,-219 619,-219 619,-219 540,-219"/>
<polygon fill="none" stroke="black" points="539.5,-195 539.5,-243 618.5,-243 618.5,-195 539.5,-195"/>
</a>
</g>
</g>
<!-- E0_0&#45;&gt;System_2_0_0009375 -->
<g id="edge1" class="edge">
<title>E0_0&#45;&gt;System_2_0_0009375</title>
<path fill="none" stroke="#112c5f" stroke-width="2" d="M1110.5,-287.94C1105.55,-285.65 1100.18,-283.49 1095,-282 928.69,-234.11 721.92,-223.18 628.69,-220.71"/>
<polygon fill="#112c5f" stroke="#112c5f" stroke-width="2" points="628.77,-217.21 618.69,-220.46 628.6,-224.21 628.77,-217.21"/>
</g>
<!-- ECM_0 -->
<g id="node4" class="node">
<title>ECM_0</title>
<g id="a_node4"><a xlink:href="morph://MorpheusModel/Global/Field[5]" xlink:title="ECM">
<ellipse fill="#d3d247" stroke="black" cx="395" cy="-141" rx="30.59" ry="18"/>
<text text-anchor="middle" x="395" y="-137.3" font-family="Times,serif" font-size="14.00">ECM</text>
</a>
</g>
</g>
<!-- ECM_0&#45;&gt;Logger_0_6097416426442070905_1 -->
<g id="edge2" class="edge">
<title>ECM_0&#45;&gt;Logger_0_6097416426442070905_1</title>
<path fill="none" stroke="#112c5f" stroke-width="2" d="M412.99,-125.94C424.26,-117.14 439.42,-105.3 454.27,-93.69"/>
<polygon fill="#112c5f" stroke="#112c5f" stroke-width="2" points="456.74,-96.21 462.46,-87.29 452.43,-90.69 456.74,-96.21"/>
</g>
<!-- En_0 -->
<g id="node5" class="node">
<title>En_0</title>
<g id="a_node5"><a xlink:href="morph://MorpheusModel/Global/Constant[11]" xlink:title="En">
<ellipse fill="#d3d247" stroke="black" cx="1059" cy="-300" rx="27" ry="18"/>
<text text-anchor="middle" x="1059" y="-296.3" font-family="Times,serif" font-size="14.00">En</text>
</a>
</g>
</g>
<!-- En_0&#45;&gt;System_2_0_0009375 -->
<g id="edge4" class="edge">
<title>En_0&#45;&gt;System_2_0_0009375</title>
<path fill="none" stroke="#112c5f" stroke-width="2" d="M1038.48,-288.01C1033.53,-285.72 1028.17,-283.54 1023,-282 884.07,-240.55 712.23,-226.59 628.94,-222.07"/>
<polygon fill="#112c5f" stroke="#112c5f" stroke-width="2" points="628.92,-218.56 618.75,-221.54 628.55,-225.55 628.92,-218.56"/>
</g>
<!-- Et0_0 -->
<g id="node6" class="node">
<title>Et0_0</title>
<g id="a_node6"><a xlink:href="morph://MorpheusModel/Global/Constant[13]" xlink:title="Et0">
<ellipse fill="#d3d247" stroke="black" cx="987" cy="-300" rx="27" ry="18"/>
<text text-anchor="middle" x="987" y="-296.3" font-family="Times,serif" font-size="14.00">Et0</text>
</a>
</g>
</g>
<!-- Et0_0&#45;&gt;System_2_0_0009375 -->
<g id="edge5" class="edge">
<title>Et0_0&#45;&gt;System_2_0_0009375</title>
<path fill="none" stroke="#112c5f" stroke-width="2" d="M966.45,-288.11C961.5,-285.82 956.15,-283.61 951,-282 838.88,-246.93 701.19,-230.56 628.84,-223.91"/>
<polygon fill="#112c5f" stroke="#112c5f" stroke-width="2" points="628.93,-220.4 618.66,-223 628.3,-227.38 628.93,-220.4"/>
</g>
<!-- GammaE_0 -->
<g id="node7" class="node">
<title>GammaE_0</title>
<g id="a_node7"><a xlink:href="morph://MorpheusModel/Global/Constant[4]" xlink:title="GammaE">
<ellipse fill="#d3d247" stroke="black" cx="897" cy="-300" rx="44.69" ry="18"/>
<text text-anchor="middle" x="897" y="-296.3" font-family="Times,serif" font-size="14.00">GammaE</text>
</a>
</g>
</g>
<!-- GammaE_0&#45;&gt;System_2_0_0009375 -->
<g id="edge6" class="edge">
<title>GammaE_0&#45;&gt;System_2_0_0009375</title>
<path fill="none" stroke="#112c5f" stroke-width="2" d="M863.41,-288C856.68,-285.92 849.63,-283.82 843,-282 768.78,-261.63 681.71,-242 628.45,-230.46"/>
<polygon fill="#112c5f" stroke="#112c5f" stroke-width="2" points="629.1,-227.02 618.59,-228.34 627.63,-233.87 629.1,-227.02"/>
</g>
<!-- K_0 -->
<g id="node8" class="node">
<title>K_0</title>
<g id="a_node8"><a xlink:href="morph://MorpheusModel/Global/Constant[7]" xlink:title="K">
<ellipse fill="#d3d247" stroke="black" cx="807" cy="-300" rx="27" ry="18"/>
<text text-anchor="middle" x="807" y="-296.3" font-family="Times,serif" font-size="14.00">K</text>
</a>
</g>
</g>
<!-- K_0&#45;&gt;System_2_0_0009375 -->
<g id="edge7" class="edge">
<title>K_0&#45;&gt;System_2_0_0009375</title>
<path fill="none" stroke="#112c5f" stroke-width="2" d="M785.88,-288.47C781.04,-286.22 775.88,-283.93 771,-282 723.36,-263.15 667.48,-245.6 628.33,-234.02"/>
<polygon fill="#112c5f" stroke="#112c5f" stroke-width="2" points="629.08,-230.59 618.5,-231.13 627.11,-237.31 629.08,-230.59"/>
</g>
<!-- P_0 -->
<g id="node9" class="node">
<title>P_0</title>
<g id="a_node9"><a xlink:href="morph://MorpheusModel/Global/Field[0]" xlink:title="P">
<ellipse fill="#d3d247" stroke="black" cx="471" cy="-141" rx="27" ry="18"/>
<text text-anchor="middle" x="471" y="-137.3" font-family="Times,serif" font-size="14.00">P</text>
</a>
</g>
</g>
<!-- P_0&#45;&gt;Logger_0_6097416426442070905_1 -->
<g id="edge9" class="edge">
<title>P_0&#45;&gt;Logger_0_6097416426442070905_1</title>
<path fill="none" stroke="#112c5f" stroke-width="2" d="M477.77,-123.54C480.98,-115.74 484.99,-106.01 488.99,-96.27"/>
<polygon fill="#112c5f" stroke="#112c5f" stroke-width="2" points="492.24,-97.58 492.8,-87 485.76,-94.92 492.24,-97.58"/>
</g>
<!-- PI_0 -->
<g id="node10" class="node">
<title>PI_0</title>
<g id="a_node10"><a xlink:href="morph://MorpheusModel/Global/Field[4]" xlink:title="PI">
<ellipse fill="#d3d247" stroke="black" cx="543" cy="-141" rx="27" ry="18"/>
<text text-anchor="middle" x="543" y="-137.3" font-family="Times,serif" font-size="14.00">PI</text>
</a>
</g>
</g>
<!-- PI_0&#45;&gt;Logger_0_6097416426442070905_1 -->
<g id="edge8" class="edge">
<title>PI_0&#45;&gt;Logger_0_6097416426442070905_1</title>
<path fill="none" stroke="#112c5f" stroke-width="2" d="M536.23,-123.54C533.02,-115.74 529.01,-106.01 525.01,-96.27"/>
<polygon fill="#112c5f" stroke="#112c5f" stroke-width="2" points="528.24,-94.92 521.2,-87 521.76,-97.58 528.24,-94.92"/>
</g>
<!-- R_0 -->
<g id="node11" class="node">
<title>R_0</title>
<g id="a_node11"><a xlink:href="morph://MorpheusModel/Global/Field[1]" xlink:title="R">
<ellipse fill="#d3d247" stroke="black" cx="615" cy="-141" rx="27" ry="18"/>
<text text-anchor="middle" x="615" y="-137.3" font-family="Times,serif" font-size="14.00">R</text>
</a>
</g>
</g>
<!-- R_0&#45;&gt;Logger_0_6097416426442070905_1 -->
<g id="edge11" class="edge">
<title>R_0&#45;&gt;Logger_0_6097416426442070905_1</title>
<path fill="none" stroke="#112c5f" stroke-width="2" d="M598.12,-126.33C587.21,-117.49 572.38,-105.47 557.85,-93.7"/>
<polygon fill="#112c5f" stroke="#112c5f" stroke-width="2" points="559.81,-90.78 549.84,-87.21 555.41,-96.22 559.81,-90.78"/>
</g>
<!-- RI_0 -->
<g id="node12" class="node">
<title>RI_0</title>
<g id="a_node12"><a xlink:href="morph://MorpheusModel/Global/Field[3]" xlink:title="RI">
<ellipse fill="#d3d247" stroke="black" cx="687" cy="-141" rx="27" ry="18"/>
<text text-anchor="middle" x="687" y="-137.3" font-family="Times,serif" font-size="14.00">RI</text>
</a>
</g>
</g>
<!-- RI_0&#45;&gt;Logger_0_6097416426442070905_1 -->
<g id="edge10" class="edge">
<title>RI_0&#45;&gt;Logger_0_6097416426442070905_1</title>
<path fill="none" stroke="#112c5f" stroke-width="2" d="M665.64,-129.62C644.8,-119.49 611.86,-103.47 581.38,-88.66"/>
<polygon fill="#112c5f" stroke="#112c5f" stroke-width="2" points="582.54,-85.33 572.02,-84.11 579.48,-91.63 582.54,-85.33"/>
</g>
<!-- bR_0 -->
<g id="node13" class="node">
<title>bR_0</title>
<g id="a_node13"><a xlink:href="morph://MorpheusModel/Global/Constant[0]" xlink:title="bR">
<ellipse fill="#d3d247" stroke="black" cx="735" cy="-300" rx="27" ry="18"/>
<text text-anchor="middle" x="735" y="-296.3" font-family="Times,serif" font-size="14.00">bR</text>
</a>
</g>
</g>
<!-- bR_0&#45;&gt;System_2_0_0009375 -->
<g id="edge19" class="edge">
<title>bR_0&#45;&gt;System_2_0_0009375</title>
<path fill="none" stroke="#112c5f" stroke-width="2" d="M713.96,-288.35C691.97,-277.21 656.71,-259.35 627.74,-244.68"/>
<polygon fill="#112c5f" stroke="#112c5f" stroke-width="2" points="629.08,-241.44 618.58,-240.04 625.92,-247.68 629.08,-241.44"/>
</g>
<!-- betaP_0 -->
<g id="node14" class="node">
<title>betaP_0</title>
<g id="a_node14"><a xlink:href="morph://MorpheusModel/Global/Constant[15]" xlink:title="betaP">
<ellipse fill="#d3d247" stroke="black" cx="659" cy="-300" rx="30.59" ry="18"/>
<text text-anchor="middle" x="659" y="-296.3" font-family="Times,serif" font-size="14.00">betaP</text>
</a>
</g>
</g>
<!-- betaP_0&#45;&gt;System_2_0_0009375 -->
<g id="edge20" class="edge">
<title>betaP_0&#45;&gt;System_2_0_0009375</title>
<path fill="none" stroke="#112c5f" stroke-width="2" d="M643.95,-284.14C634.28,-274.59 621.37,-261.84 609.61,-250.23"/>
<polygon fill="#112c5f" stroke="#112c5f" stroke-width="2" points="612.05,-247.72 602.47,-243.18 607.13,-252.7 612.05,-247.72"/>
</g>
<!-- betaR_0 -->
<g id="node15" class="node">
<title>betaR_0</title>
<g id="a_node15"><a xlink:href="morph://MorpheusModel/Global/Constant[14]" xlink:title="betaR">
<ellipse fill="#d3d247" stroke="black" cx="579" cy="-300" rx="31.4" ry="18"/>
<text text-anchor="middle" x="579" y="-296.3" font-family="Times,serif" font-size="14.00">betaR</text>
</a>
</g>
</g>
<!-- betaR_0&#45;&gt;System_2_0_0009375 -->
<g id="edge21" class="edge">
<title>betaR_0&#45;&gt;System_2_0_0009375</title>
<path fill="none" stroke="#112c5f" stroke-width="2" d="M579,-281.86C579,-273.44 579,-263 579,-253.11"/>
<polygon fill="#112c5f" stroke="#112c5f" stroke-width="2" points="582.5,-253.1 579,-243.1 575.5,-253.1 582.5,-253.1"/>
</g>
<!-- delta_0 -->
<g id="node16" class="node">
<title>delta_0</title>
<g id="a_node16"><a xlink:href="morph://MorpheusModel/Global/Constant[2]" xlink:title="delta">
<ellipse fill="#d3d247" stroke="black" cx="502" cy="-300" rx="27.9" ry="18"/>
<text text-anchor="middle" x="502" y="-296.3" font-family="Times,serif" font-size="14.00">delta</text>
</a>
</g>
</g>
<!-- delta_0&#45;&gt;System_2_0_0009375 -->
<g id="edge22" class="edge">
<title>delta_0&#45;&gt;System_2_0_0009375</title>
<path fill="none" stroke="#112c5f" stroke-width="2" d="M520.71,-286.61C525.88,-282.82 531.35,-278.47 536,-274 543.1,-267.17 550.08,-259.15 556.28,-251.41"/>
<polygon fill="#112c5f" stroke="#112c5f" stroke-width="2" points="559.29,-253.24 562.67,-243.2 553.77,-248.94 559.29,-253.24"/>
</g>
<!-- dx_0 -->
<g id="node17" class="node">
<title>dx_0</title>
<ellipse fill="#d3d247" stroke="black" cx="228" cy="-219" rx="27" ry="18"/>
<text text-anchor="middle" x="228" y="-215.3" font-family="Times,serif" font-size="14.00">dx</text>
</g>
<!-- x_0 -->
<g id="node26" class="node">
<title>x_0</title>
<g id="a_node26"><a xlink:href="morph://MorpheusModel/Global/Function" xlink:title="x">
<ellipse fill="#d3d247" stroke="black" cx="228" cy="-141" rx="27" ry="18"/>
<text text-anchor="middle" x="228" y="-137.3" font-family="Times,serif" font-size="14.00">x</text>
</a>
</g>
</g>
<!-- dx_0&#45;&gt;x_0 -->
<g id="edge23" class="edge">
<title>dx_0&#45;&gt;x_0</title>
<path fill="none" stroke="#112c5f" stroke-width="2" d="M228,-200.75C228,-191.52 228,-179.93 228,-169.49"/>
<polygon fill="#112c5f" stroke="#112c5f" stroke-width="2" points="231.5,-169.18 228,-159.18 224.5,-169.18 231.5,-169.18"/>
</g>
<!-- epsilon_0 -->
<g id="node18" class="node">
<title>epsilon_0</title>
<g id="a_node18"><a xlink:href="morph://MorpheusModel/Global/Constant[6]" xlink:title="epsilon">
<ellipse fill="#d3d247" stroke="black" cx="420" cy="-300" rx="36.29" ry="18"/>
<text text-anchor="middle" x="420" y="-296.3" font-family="Times,serif" font-size="14.00">epsilon</text>
</a>
</g>
</g>
<!-- epsilon_0&#45;&gt;System_2_0_0009375 -->
<g id="edge24" class="edge">
<title>epsilon_0&#45;&gt;System_2_0_0009375</title>
<path fill="none" stroke="#112c5f" stroke-width="2" d="M446.78,-287.64C452.7,-285.48 458.99,-283.45 465,-282 495.87,-274.55 508.21,-289.37 536,-274 545.7,-268.64 554,-260.1 560.65,-251.39"/>
<polygon fill="#112c5f" stroke="#112c5f" stroke-width="2" points="563.6,-253.27 566.51,-243.08 557.88,-249.24 563.6,-253.27"/>
</g>
<!-- forcefield_0 -->
<g id="node19" class="node">
<title>forcefield_0</title>
<g id="a_node19"><a xlink:href="morph://MorpheusModel/Global/Field[6]" xlink:title="forcefield">
<ellipse fill="#d3d247" stroke="black" cx="777" cy="-141" rx="44.69" ry="18"/>
<text text-anchor="middle" x="777" y="-137.3" font-family="Times,serif" font-size="14.00">forcefield</text>
</a>
</g>
</g>
<!-- forcefield_0&#45;&gt;Logger_0_6097416426442070905_1 -->
<g id="edge25" class="edge">
<title>forcefield_0&#45;&gt;Logger_0_6097416426442070905_1</title>
<path fill="none" stroke="#112c5f" stroke-width="2" d="M743.35,-129.09C703.16,-116.07 634.73,-93.89 581.81,-76.74"/>
<polygon fill="#112c5f" stroke="#112c5f" stroke-width="2" points="582.71,-73.36 572.12,-73.6 580.55,-80.02 582.71,-73.36"/>
</g>
<!-- k0_0 -->
<g id="node20" class="node">
<title>k0_0</title>
<g id="a_node20"><a xlink:href="morph://MorpheusModel/Global/Constant[10]" xlink:title="k0">
<ellipse fill="#d3d247" stroke="black" cx="339" cy="-300" rx="27" ry="18"/>
<text text-anchor="middle" x="339" y="-296.3" font-family="Times,serif" font-size="14.00">k0</text>
</a>
</g>
</g>
<!-- k0_0&#45;&gt;System_2_0_0009375 -->
<g id="edge26" class="edge">
<title>k0_0&#45;&gt;System_2_0_0009375</title>
<path fill="none" stroke="#112c5f" stroke-width="2" d="M359.04,-287.85C364.11,-285.51 369.64,-283.34 375,-282 409.75,-273.3 504.13,-290.35 536,-274 545.94,-268.9 554.34,-260.36 561.01,-251.55"/>
<polygon fill="#112c5f" stroke="#112c5f" stroke-width="2" points="564.03,-253.34 566.86,-243.13 558.28,-249.35 564.03,-253.34"/>
</g>
<!-- kE_0 -->
<g id="node21" class="node">
<title>kE_0</title>
<g id="a_node21"><a xlink:href="morph://MorpheusModel/Global/Constant[3]" xlink:title="kE">
<ellipse fill="#d3d247" stroke="black" cx="267" cy="-300" rx="27" ry="18"/>
<text text-anchor="middle" x="267" y="-296.3" font-family="Times,serif" font-size="14.00">kE</text>
</a>
</g>
</g>
<!-- kE_0&#45;&gt;System_2_0_0009375 -->
<g id="edge27" class="edge">
<title>kE_0&#45;&gt;System_2_0_0009375</title>
<path fill="none" stroke="#112c5f" stroke-width="2" d="M287.03,-287.79C292.1,-285.45 297.63,-283.3 303,-282 328.18,-275.9 512.86,-285.65 536,-274 545.98,-268.98 554.39,-260.45 561.05,-251.64"/>
<polygon fill="#112c5f" stroke="#112c5f" stroke-width="2" points="564.08,-253.43 566.9,-243.21 558.33,-249.44 564.08,-253.43"/>
</g>
<!-- n_0 -->
<g id="node22" class="node">
<title>n_0</title>
<g id="a_node22"><a xlink:href="morph://MorpheusModel/Global/Constant[9]" xlink:title="n">
<ellipse fill="#d3d247" stroke="black" cx="195" cy="-300" rx="27" ry="18"/>
<text text-anchor="middle" x="195" y="-296.3" font-family="Times,serif" font-size="14.00">n</text>
</a>
</g>
</g>
<!-- n_0&#45;&gt;System_2_0_0009375 -->
<g id="edge28" class="edge">
<title>n_0&#45;&gt;System_2_0_0009375</title>
<path fill="none" stroke="#112c5f" stroke-width="2" d="M215.02,-287.76C220.09,-285.42 225.62,-283.28 231,-282 263.98,-274.15 505.66,-289.12 536,-274 546,-269.02 554.42,-260.51 561.08,-251.69"/>
<polygon fill="#112c5f" stroke="#112c5f" stroke-width="2" points="564.11,-253.47 566.92,-243.26 558.35,-249.48 564.11,-253.47"/>
</g>
<!-- p_0 -->
<g id="node23" class="node">
<title>p_0</title>
<g id="a_node23"><a xlink:href="morph://MorpheusModel/Global/Constant[12]" xlink:title="p">
<ellipse fill="#d3d247" stroke="black" cx="123" cy="-300" rx="27" ry="18"/>
<text text-anchor="middle" x="123" y="-296.3" font-family="Times,serif" font-size="14.00">p</text>
</a>
</g>
</g>
<!-- p_0&#45;&gt;System_2_0_0009375 -->
<g id="edge29" class="edge">
<title>p_0&#45;&gt;System_2_0_0009375</title>
<path fill="none" stroke="#112c5f" stroke-width="2" d="M143.02,-287.74C148.08,-285.4 153.62,-283.27 159,-282 179.39,-277.2 517.23,-283.3 536,-274 546.09,-269 554.57,-260.4 561.26,-251.51"/>
<polygon fill="#112c5f" stroke="#112c5f" stroke-width="2" points="564.32,-253.23 567.11,-243.01 558.56,-249.25 564.32,-253.23"/>
</g>
<!-- space_0 -->
<g id="node24" class="node">
<title>space_0</title>
<g id="a_node24"><a xlink:href="morph://MorpheusModel/Space/SpaceSymbol" xlink:title="space">
<ellipse fill="#b5b426" stroke="black" cx="47" cy="-300" rx="30.59" ry="18"/>
<text text-anchor="middle" x="47" y="-296.3" font-family="Times,serif" font-size="14.00">space</text>
</a>
</g>
</g>
<!-- space_x_0 -->
<g id="node25" class="node">
<title>space_x_0</title>
<ellipse fill="#d3d247" stroke="black" cx="108" cy="-219" rx="37.09" ry="18"/>
<text text-anchor="middle" x="108" y="-215.3" font-family="Times,serif" font-size="14.00">space.x</text>
</g>
<!-- space_0&#45;&gt;space_x_0 -->
<g id="edge30" class="edge">
<title>space_0&#45;&gt;space_x_0</title>
<path fill="none" stroke="#38568c" stroke-dasharray="5,2" d="M59.05,-283.39C69.61,-269.72 84.88,-249.94 95.55,-236.12"/>
</g>
<!-- space_x_0&#45;&gt;x_0 -->
<g id="edge31" class="edge">
<title>space_x_0&#45;&gt;x_0</title>
<path fill="none" stroke="#112c5f" stroke-width="2" d="M129.73,-204.24C149.47,-191.74 178.69,-173.23 200.14,-159.64"/>
<polygon fill="#112c5f" stroke="#112c5f" stroke-width="2" points="202.23,-162.46 208.81,-154.16 198.49,-156.55 202.23,-162.46"/>
</g>
<!-- x_0&#45;&gt;Logger_0_6097416426442070905_1 -->
<g id="edge32" class="edge">
<title>x_0&#45;&gt;Logger_0_6097416426442070905_1</title>
<path fill="none" stroke="#112c5f" stroke-width="2" d="M252.27,-132.39C291.89,-119.96 372.05,-94.82 431.92,-76.05"/>
<polygon fill="#112c5f" stroke="#112c5f" stroke-width="2" points="433.23,-79.3 441.72,-72.97 431.13,-72.63 433.23,-79.3"/>
</g>
<!-- System_2_0_0009375&#45;&gt;E_0 -->
<g id="edge13" class="edge">
<title>System_2_0_0009375&#45;&gt;E_0</title>
<path fill="none" stroke="#8f100d" stroke-width="3" d="M550.96,-194.99C546.19,-191.91 541.11,-189.09 536,-187 460.68,-156.12 432.83,-182.85 355,-159 353.07,-158.41 351.11,-157.73 349.15,-156.99"/>
<polygon fill="#8f100d" stroke="#8f100d" stroke-width="3" points="350.11,-153.6 339.53,-152.94 347.39,-160.05 350.11,-153.6"/>
</g>
<!-- System_2_0_0009375&#45;&gt;ECM_0 -->
<g id="edge12" class="edge">
<title>System_2_0_0009375&#45;&gt;ECM_0</title>
<path fill="none" stroke="#8f100d" stroke-width="3" d="M549.78,-194.88C545.32,-191.97 540.65,-189.23 536,-187 494.01,-166.84 478.97,-174.37 435,-159 432.63,-158.17 430.2,-157.27 427.77,-156.33"/>
<polygon fill="#8f100d" stroke="#8f100d" stroke-width="3" points="429.07,-153.08 418.49,-152.59 426.45,-159.58 429.07,-153.08"/>
</g>
<!-- System_2_0_0009375&#45;&gt;P_0 -->
<g id="edge15" class="edge">
<title>System_2_0_0009375&#45;&gt;P_0</title>
<path fill="none" stroke="#8f100d" stroke-width="3" d="M547.11,-194.91C543.37,-192.23 539.61,-189.55 536,-187 523.49,-178.16 509.54,-168.48 497.78,-160.37"/>
<polygon fill="#8f100d" stroke="#8f100d" stroke-width="3" points="499.5,-157.3 489.28,-154.52 495.53,-163.07 499.5,-157.3"/>
</g>
<!-- System_2_0_0009375&#45;&gt;PI_0 -->
<g id="edge14" class="edge">
<title>System_2_0_0009375&#45;&gt;PI_0</title>
<path fill="none" stroke="#8f100d" stroke-width="3" d="M568,-194.78C563.93,-186.19 559.3,-176.41 555.13,-167.61"/>
<polygon fill="#8f100d" stroke="#8f100d" stroke-width="3" points="558.29,-166.11 550.85,-158.57 551.97,-169.1 558.29,-166.11"/>
</g>
<!-- System_2_0_0009375&#45;&gt;R_0 -->
<g id="edge17" class="edge">
<title>System_2_0_0009375&#45;&gt;R_0</title>
<path fill="none" stroke="#8f100d" stroke-width="3" d="M590,-194.78C594.07,-186.19 598.7,-176.41 602.87,-167.61"/>
<polygon fill="#8f100d" stroke="#8f100d" stroke-width="3" points="606.03,-169.1 607.15,-158.57 599.71,-166.11 606.03,-169.1"/>
</g>
<!-- System_2_0_0009375&#45;&gt;RI_0 -->
<g id="edge16" class="edge">
<title>System_2_0_0009375&#45;&gt;RI_0</title>
<path fill="none" stroke="#8f100d" stroke-width="3" d="M611.7,-194.99C627.47,-183.89 646.14,-170.75 660.94,-160.34"/>
<polygon fill="#8f100d" stroke="#8f100d" stroke-width="3" points="662.99,-163.17 669.16,-154.56 658.97,-157.45 662.99,-163.17"/>
</g>
<!-- System_2_0_0009375&#45;&gt;forcefield_0 -->
<g id="edge18" class="edge">
<title>System_2_0_0009375&#45;&gt;forcefield_0</title>
<path fill="none" stroke="#8f100d" stroke-width="3" d="M618.59,-202.8C652.59,-189.75 701.42,-171.01 735.86,-157.79"/>
<polygon fill="#8f100d" stroke="#8f100d" stroke-width="3" points="737.53,-160.9 745.61,-154.05 735.02,-154.36 737.53,-160.9"/>
</g>
</g>
</svg>
