<?xml version="1.0" encoding="UTF-8" standalone="no"?> <svg xmlns="http://www.w3.org/2000/svg" xmlns:xlink="http://www.w3.org/1999/xlink" width="995pt" height="999pt" viewBox="0.00 0.00 995 999.5">
<g id="graph0" class="graph" transform="translate(4, 995.5)">
<title>%0</title>
<polygon fill="#ffffff" stroke="transparent" points="-4,4 -4,-995.5 991,-995.5 991,4 -4,4"></polygon>
<g id="clust1" class="cluster">
<title>cluster</title>
<polygon fill="#234178" fill-opacity="0.184314" stroke="#000000" points="8,-8 8,-983.5 979,-983.5 979,-8 8,-8"></polygon>
<text text-anchor="middle" x="493.5" y="-966.9" font-family="Times,serif" font-size="14.00" fill="#000000">Global</text>
</g>
<g id="clust2" class="cluster">
<title>cluster_1</title>
<polygon fill="#234178" fill-opacity="0.184314" stroke="#000000" points="128,-820.7 128,-886.7 186,-886.7 186,-820.7 128,-820.7"></polygon>
</g>
<g id="clust3" class="cluster">
<title>cluster_2</title>
<polygon fill="#234178" fill-opacity="0.184314" stroke="#000000" points="194,-820.7 194,-886.7 252,-886.7 252,-820.7 194,-820.7"></polygon>
</g>
<g id="clust5" class="cluster">
<title>cluster_4</title>
<polygon fill="#234178" fill-opacity="0.184314" stroke="#000000" points="265,-89.5 265,-812.7 853,-812.7 853,-89.5 265,-89.5"></polygon>
<text text-anchor="middle" x="559" y="-796.1" font-family="Times,serif" font-size="14.00" fill="#000000">CellType[cells]</text>
</g>
<g id="clust6" class="cluster">
<title>cluster_cpm4</title>
<polygon fill="#234178" fill-opacity="0.184314" stroke="#000000" points="647,-97.5 647,-175.3 769,-175.3 769,-97.5 647,-97.5"></polygon>
<text text-anchor="middle" x="708" y="-158.7" font-family="Times,serif" font-size="14.00" fill="#000000">CPM components</text>
</g>
<g id="clust7" class="cluster">
<title>cluster_5</title>
<polygon fill="#234178" fill-opacity="0.184314" stroke="#000000" points="273,-443.9 273,-605.9 661,-605.9 661,-443.9 273,-443.9"></polygon>
</g>
<!-- CPM_0_1 -->
<g id="node1" class="node">
<title>CPM_0_1</title>
<g id="a_node1">
<polygon fill="#fffea3" stroke="#000000" points="861,-183.8 861,-233.4 915,-233.4 915,-183.8 861,-183.8"></polygon>
<text text-anchor="middle" x="887.7819" y="-216.8" font-family="Times,serif" font-size="14.00" fill="#000000">CPM</text>
<polyline fill="none" stroke="#000000" points="861,-208.6 914.5638,-208.6 "></polyline>
<text text-anchor="middle" x="887.7819" y="-192" font-family="Times,serif" font-size="14.00" fill="#000000">1</text>
</g>
</g>
<!-- cell_center_0 -->
<g id="node7" class="node">
<title>cell_center_0</title>
<ellipse fill="#b5b426" stroke="#000000" cx="916" cy="-124" rx="50.9588" ry="18"></ellipse>
<ellipse fill="none" stroke="#000000" cx="916" cy="-124" rx="54.9572" ry="22"></ellipse>
<text text-anchor="middle" x="916" y="-119.8" font-family="Times,serif" font-size="14.00" fill="#000000">cell.center</text>
</g>
<!-- CPM_0_1&#45;&gt;cell_center_0 -->
<g id="edge6" class="edge">
<title>CPM_0_1-&gt;cell_center_0</title>
<path fill="none" stroke="#8f100d" stroke-width="3" d="M896.2495,-183.6748C899.1637,-174.8696 902.4803,-164.8487 905.5526,-155.5662"></path>
<polygon fill="#8f100d" stroke="#8f100d" stroke-width="3" points="908.9403,-156.4693 908.7597,-145.876 902.2948,-154.2698 908.9403,-156.4693"></polygon>
</g>
<!-- cell_type_0 -->

<!-- CPM_0_1&#45;&gt;cell_type_0 -->

<!-- DirectedMotion_4 -->
<g id="node15" class="node">
<title>DirectedMotion_4</title>
<g id="a_node15">
<path fill="#fffea3" stroke="#000000" d="M667.291,-106C667.291,-106 748.709,-106 748.709,-106 754.709,-106 760.709,-112 760.709,-118 760.709,-118 760.709,-130 760.709,-130 760.709,-136 754.709,-142 748.709,-142 748.709,-142 667.291,-142 667.291,-142 661.291,-142 655.291,-136 655.291,-130 655.291,-130 655.291,-118 655.291,-118 655.291,-112 661.291,-106 667.291,-106"></path>
<text text-anchor="middle" x="708" y="-119.8" font-family="Times,serif" font-size="14.00" fill="#000000">DirectedMotion</text>
</g>
</g><g id="node2" class="node">
<title>Gnuplotter_0_50</title>
<g id="a_node2">">
<polygon fill="#fffea3" stroke="transparent" points="212,-66 140,-66 140,-16 212,-16 212,-66"></polygon>
<text text-anchor="start" x="143.507" y="-48.5" font-family="times" font-size="15.00" fill="#000000">Gnuplotter</text>
<text text-anchor="start" x="168.5" y="-24.5" font-family="times" font-size="15.00" fill="#000000">50</text>
<polygon fill="#000000" stroke="#000000" points="140,-41 140,-41 212,-41 212,-41 140,-41"></polygon>
<polygon fill="none" stroke="#000000" points="140,-16 140,-66 212,-66 212,-16 140,-16"></polygon>
</g>
</g>
<!-- CPM_0_1&#45;&gt;DirectedMotion_4 -->
<g id="edge5" class="edge">
<title>CPM_0_1-&gt;DirectedMotion_4</title>
<path fill="none" stroke="#38568c" stroke-dasharray="5,2" d="M860.8202,-185.0715C859.5627,-184.4179 858.2873,-183.8226 857,-183.3 818.9708,-167.8623 802.6452,-191.6518 765,-175.3"></path>
</g><g id="node3" class="node">
<title>TiffPlotter_0_100</title>
<g id="a_node3">">
<polygon fill="#fffea3" stroke="transparent" points="107.5,-331.9 36.5,-331.9 36.5,-281.9 107.5,-281.9 107.5,-331.9"></polygon>
<text text-anchor="start" x="40.8425" y="-314.4" font-family="times" font-size="15.00" fill="#000000">TiffPlotter</text>
<text text-anchor="start" x="61.25" y="-290.4" font-family="times" font-size="15.00" fill="#000000">100</text>
<polygon fill="#000000" stroke="#000000" points="37,-306.9 37,-306.9 108,-306.9 108,-306.9 37,-306.9"></polygon>
<polygon fill="none" stroke="#000000" points="36.5,-281.9 36.5,-331.9 107.5,-331.9 107.5,-281.9 36.5,-281.9"></polygon>
</g>
</g>
<!-- Gnuplotter_0_50 -->
<g id="node4" class="node">
<title>Logger_0_50</title>
<g id="a_node4">">
<polygon fill="#fffea3" stroke="transparent" points="176.5,-331.9 125.5,-331.9 125.5,-281.9 176.5,-281.9 176.5,-331.9"></polygon>
<text text-anchor="start" x="129.84230000000002" y="-314.4" font-family="times" font-size="15.00" fill="#000000">Logger</text>
<text text-anchor="start" x="144" y="-290.4" font-family="times" font-size="15.00" fill="#000000">50</text>
<polygon fill="#000000" stroke="#000000" points="126,-306.9 126,-306.9 177,-306.9 177,-306.9 126,-306.9"></polygon>
<polygon fill="none" stroke="#000000" points="125.5,-281.9 125.5,-331.9 176.5,-331.9 176.5,-281.9 125.5,-281.9"></polygon>
</g>
</g>
<!-- TiffPlotter_0_100 -->
<g id="node5" class="node">
<title>A_0</title>
<ellipse fill="#d3d247" stroke="#000000" cx="226" cy="-306.9" rx="27" ry="18"></ellipse>
<ellipse fill="none" stroke="#000000" cx="226" cy="-306.9" rx="31" ry="22"></ellipse>
<text text-anchor="middle" x="226" y="-302.7" font-family="Times,serif" font-size="14.00" fill="#000000">A</text>
</g>
<!-- Logger_0_50 -->
<g id="edge1" class="edge">
<title>A_0-&gt;Gnuplotter_0_50</title>
<path fill="none" stroke="#112c5f" stroke-width="2" d="M217.8487,-285.3784C208.4697,-259.615 193.4115,-214.9696 186,-175.3 179.8022,-142.1266 177.4144,-103.6672 176.5105,-76.4284"></path>
<polygon fill="#112c5f" stroke="#112c5f" stroke-width="2" points="180.003,-76.1106 176.2235,-66.2129 173.0058,-76.3073 180.003,-76.1106"></polygon>
</g>
<!-- A_0 -->

<!-- A_0&#45;&gt;Gnuplotter_0_50 -->
<g id="edge16" class="edge">
<title>U_0-&gt;Gnuplotter_0_50</title>
<path fill="none" stroke="#112c5f" stroke-width="2" d="M167.7374,-751.5762C121.0129,-728.197 17,-666.4348 17,-579.9 17,-579.9 17,-579.9 17,-208.6 17,-141.9074 84.0832,-91.1427 131.1027,-63.7522"></path>
<polygon fill="#112c5f" stroke="#112c5f" stroke-width="2" points="132.9498,-66.7284 139.9204,-58.7496 129.4956,-60.64 132.9498,-66.7284"></polygon>
</g>
<!-- U_0 -->
<g id="node6" class="node">
<title>U_0</title>
<g id="a_node6">
<ellipse fill="#d3d247" stroke="#000000" cx="190" cy="-761.9" rx="27" ry="18"></ellipse>
<text text-anchor="middle" x="190" y="-757.7" font-family="Times,serif" font-size="14.00" fill="#000000">U</text>
</g>
</g><g id="edge19" class="edge">
<title>U_0-&gt;TiffPlotter_0_100</title>
<path fill="none" stroke="#112c5f" stroke-width="2" d="M177.6563,-745.8629C155.4375,-715.3427 111,-646.0354 111,-579.9 111,-579.9 111,-579.9 111,-488.9 111,-436.7663 95.5109,-378.0599 84.0553,-341.7702"></path>
<polygon fill="#112c5f" stroke="#112c5f" stroke-width="2" points="87.3529,-340.5923 80.9474,-332.1532 80.6921,-342.7449 87.3529,-340.5923"></polygon>
</g>
<!-- U_0&#45;&gt;Gnuplotter_0_50 -->
<g id="node12" class="node">
<title>Mapper_4_10911208160457661814_1</title>
<g id="a_node12">">
<polygon fill="#fffea3" stroke="transparent" points="825,-707.9 707,-707.9 707,-633.9 825,-633.9 825,-707.9"></polygon>
<text text-anchor="start" x="742.678" y="-690.4" font-family="times" font-size="15.00" fill="#000000">Mapper</text>
<text text-anchor="start" x="710.599" y="-667.4" font-family="times" font-style="italic" font-size="15.00" fill="#000000">'Sensing the field'</text>
<text text-anchor="start" x="762.25" y="-642.4" font-family="times" font-size="15.00" fill="#000000">1</text>
<polygon fill="#000000" stroke="#000000" points="707,-658.9 707,-658.9 825,-658.9 825,-658.9 707,-658.9"></polygon>
<polygon fill="none" stroke="#000000" points="707,-633.9 707,-707.9 825,-707.9 825,-633.9 707,-633.9"></polygon>
</g>
</g>
<!-- U_0&#45;&gt;TiffPlotter_0_100 -->
<g id="edge17" class="edge">
<title>U_0-&gt;Mapper_4_10911208160457661814_1</title>
<path fill="none" stroke="#112c5f" stroke-width="2" d="M214.7579,-754.547C228.3025,-750.7979 245.4465,-746.4937 261,-743.9 450.0344,-712.3761 509.3072,-761.9762 697.2777,-707.6978"></path>
<polygon fill="#112c5f" stroke="#112c5f" stroke-width="2" points="698.3063,-711.0435 706.9088,-704.8591 696.3272,-704.3291 698.3063,-711.0435"></polygon>
</g>
<!-- Mapper_4_10911208160457661814_1 -->
<g id="node14" class="node">
<title>Mapper_4_6689202470932471455_1</title>
<g id="a_node14">">
<polygon fill="#fffea3" stroke="transparent" points="688.5,-707.9 449.5,-707.9 449.5,-633.9 688.5,-633.9 688.5,-707.9"></polygon>
<text text-anchor="start" x="546.178" y="-690.4" font-family="times" font-size="15.00" fill="#000000">Mapper</text>
<text text-anchor="start" x="453.937" y="-667.4" font-family="times" font-style="italic" font-size="15.00" fill="#000000">'scalar signal average over whole cell'</text>
<text text-anchor="start" x="565.75" y="-642.4" font-family="times" font-size="15.00" fill="#000000">1</text>
<polygon fill="#000000" stroke="#000000" points="450,-658.9 450,-658.9 689,-658.9 689,-658.9 450,-658.9"></polygon>
<polygon fill="none" stroke="#000000" points="449.5,-633.9 449.5,-707.9 688.5,-707.9 688.5,-633.9 449.5,-633.9"></polygon>
</g>
</g>
<!-- U_0&#45;&gt;Mapper_4_10911208160457661814_1 -->
<g id="edge18" class="edge">
<title>U_0-&gt;Mapper_4_6689202470932471455_1</title>
<path fill="none" stroke="#112c5f" stroke-width="2" d="M215.2197,-755.1398C228.7501,-751.6058 245.7367,-747.317 261,-743.9 339.3885,-726.3509 362.78,-727.8286 439.161,-709.5445"></path>
<polygon fill="#112c5f" stroke="#112c5f" stroke-width="2" points="440.3716,-712.8521 449.2606,-707.087 438.7166,-706.0506 440.3716,-712.8521"></polygon>
</g>
<!-- Mapper_4_6689202470932471455_1 -->

<!-- U_0&#45;&gt;Mapper_4_6689202470932471455_1 -->

<!-- l_0 -->

<!-- l_x_0 -->

<!-- l_0&#45;&gt;l_x_0 -->

<!-- Event_2_100 -->
<g id="node11" class="node">
<title>Event_2_100</title>
<g id="a_node11">">
<polygon fill="#fffea3" stroke="transparent" points="244,-878.7 202,-878.7 202,-828.7 244,-828.7 244,-878.7"></polygon>
<text text-anchor="start" x="205.5048" y="-861.2" font-family="times" font-size="15.00" fill="#000000">Event</text>
<text text-anchor="start" x="211.75" y="-837.2" font-family="times" font-size="15.00" fill="#000000">100</text>
<polygon fill="#000000" stroke="#000000" points="202,-853.7 202,-853.7 244,-853.7 244,-853.7 202,-853.7"></polygon>
<polygon fill="none" stroke="#000000" points="202,-828.7 202,-878.7 244,-878.7 244,-828.7 202,-828.7"></polygon>
</g>
</g>
<!-- l_x_0&#45;&gt;Event_2_100 -->

<!-- lattice_0 -->

<!-- lattice_x_0 -->

<!-- lattice_0&#45;&gt;lattice_x_0 -->
<g id="node8" class="node">
<title>p_0</title>
<ellipse fill="#b5b426" stroke="#000000" cx="226" cy="-124" rx="27" ry="18"></ellipse>
<ellipse fill="none" stroke="#000000" cx="226" cy="-124" rx="31" ry="22"></ellipse>
<text text-anchor="middle" x="226" y="-119.8" font-family="Times,serif" font-size="14.00" fill="#000000">p</text>
</g>
<!-- lattice_x_0&#45;&gt;Event_2_100 -->
<g id="edge30" class="edge">
<title>p_0-&gt;Gnuplotter_0_50</title>
<path fill="none" stroke="#112c5f" stroke-width="2" d="M213.6404,-103.4831C208.4152,-94.8092 202.1901,-84.4756 196.3217,-74.7341"></path>
<polygon fill="#112c5f" stroke="#112c5f" stroke-width="2" points="199.2298,-72.7786 191.0716,-66.0188 193.2337,-76.3907 199.2298,-72.7786"></polygon>
</g>
<!-- p_0 -->

<!-- p_0&#45;&gt;Gnuplotter_0_50 -->

<!-- time_0 -->
<g id="node9" class="node">
<title>time_0</title>
<g id="a_node9">
<ellipse fill="#d3d247" stroke="#000000" cx="190" cy="-932.7" rx="28.4069" ry="18"></ellipse>
<text text-anchor="middle" x="190" y="-928.5" font-family="Times,serif" font-size="14.00" fill="#000000">time</text>
</g>
</g>
<!-- Event_1_100 -->
<g id="node10" class="node">
<title>Event_1_100</title>
<g id="a_node10">">
<polygon fill="#fffea3" stroke="transparent" points="178,-878.7 136,-878.7 136,-828.7 178,-828.7 178,-878.7"></polygon>
<text text-anchor="start" x="139.5048" y="-861.2" font-family="times" font-size="15.00" fill="#000000">Event</text>
<text text-anchor="start" x="145.75" y="-837.2" font-family="times" font-size="15.00" fill="#000000">100</text>
<polygon fill="#000000" stroke="#000000" points="136,-853.7 136,-853.7 178,-853.7 178,-853.7 136,-853.7"></polygon>
<polygon fill="none" stroke="#000000" points="136,-828.7 136,-878.7 178,-878.7 178,-828.7 136,-828.7"></polygon>
</g>
</g>
<!-- time_0&#45;&gt;Event_1_100 -->
<g id="edge34" class="edge">
<title>time_0-&gt;Event_1_100</title>
<path fill="none" stroke="#112c5f" stroke-width="2" d="M182.6762,-915.1673C179.3785,-907.2727 175.3637,-897.6615 171.4977,-888.4066"></path>
<polygon fill="#112c5f" stroke="#112c5f" stroke-width="2" points="174.6432,-886.8561 167.5591,-878.9779 168.1841,-889.5543 174.6432,-886.8561"></polygon>
</g>
<!-- time_0&#45;&gt;Event_2_100 -->
<g id="edge35" class="edge">
<title>time_0-&gt;Event_2_100</title>
<path fill="none" stroke="#112c5f" stroke-width="2" d="M197.3238,-915.1673C200.6215,-907.2727 204.6363,-897.6615 208.5023,-888.4066"></path>
<polygon fill="#112c5f" stroke="#112c5f" stroke-width="2" points="211.8159,-889.5543 212.4409,-878.9779 205.3568,-886.8561 211.8159,-889.5543"></polygon>
</g>
<!-- Event_1_100&#45;&gt;U_0 -->
<g id="edge7" class="edge">
<title>Event_1_100-&gt;U_0</title>
<path fill="none" stroke="#8f100d" stroke-width="3" d="M166.0174,-828.6152C170.4143,-816.3838 175.7107,-801.6504 180.2065,-789.1438"></path>
<polygon fill="#8f100d" stroke="#8f100d" stroke-width="3" points="183.5187,-790.276 183.6079,-779.6816 176.9314,-787.908 183.5187,-790.276"></polygon>
</g>
<!-- Event_2_100&#45;&gt;U_0 -->
<g id="edge8" class="edge">
<title>Event_2_100-&gt;U_0</title>
<path fill="none" stroke="#8f100d" stroke-width="3" d="M213.9826,-828.6152C209.5857,-816.3838 204.2893,-801.6504 199.7935,-789.1438"></path>
<polygon fill="#8f100d" stroke="#8f100d" stroke-width="3" points="203.0686,-787.908 196.3921,-779.6816 196.4813,-790.276 203.0686,-787.908"></polygon>
</g><g id="edge10" class="edge">
<title>Mapper_4_10911208160457661814_1-&gt;s_4</title>
<path fill="none" stroke="#8f100d" stroke-width="3" d="M779.0156,-633.8868C782.1649,-624.9312 785.474,-615.5208 788.4315,-607.1105"></path>
<polygon fill="#8f100d" stroke="#8f100d" stroke-width="3" points="791.8145,-608.0405 791.8301,-597.4457 785.2109,-605.7183 791.8145,-608.0405"></polygon>
</g>
<!-- s_4 -->
<g id="node22" class="node">
<title>s_4</title>
<g id="a_node22">
<ellipse fill="#d3d247" stroke="#000000" cx="798" cy="-579.9" rx="27" ry="18"></ellipse>
<text text-anchor="middle" x="798" y="-575.7" font-family="Times,serif" font-size="14.00" fill="#000000">s</text>
</g>
</g><g id="node13" class="node">
<title>Mapper_4_15676967374274656139_1</title>
<g id="a_node13">">
<polygon fill="#fffea3" stroke="transparent" points="671.5,-343.9 442.5,-343.9 442.5,-269.9 671.5,-269.9 671.5,-343.9"></polygon>
<text text-anchor="start" x="534.178" y="-326.4" font-family="times" font-size="15.00" fill="#000000">Mapper</text>
<text text-anchor="start" x="446.9155" y="-303.4" font-family="times" font-style="italic" font-size="15.00" fill="#000000">'Polarity extraction from membrane'</text>
<text text-anchor="start" x="553.75" y="-278.4" font-family="times" font-size="15.00" fill="#000000">1</text>
<polygon fill="#000000" stroke="#000000" points="443,-294.9 443,-294.9 672,-294.9 672,-294.9 443,-294.9"></polygon>
<polygon fill="none" stroke="#000000" points="442.5,-269.9 442.5,-343.9 671.5,-343.9 671.5,-269.9 442.5,-269.9"></polygon>
</g>
</g>
<!-- Mapper_4_10911208160457661814_1&#45;&gt;s_4 -->

<!-- Mapper_4_15676967374274656139_1 -->
<g id="edge11" class="edge">
<title>Mapper_4_15676967374274656139_1-&gt;p_4</title>
<path fill="none" stroke="#8f100d" stroke-width="3" d="M557,-269.737C557,-258.842 557,-247.1101 557,-236.8653"></path>
<polygon fill="#8f100d" stroke="#8f100d" stroke-width="3" points="560.5001,-236.825 557,-226.825 553.5001,-236.825 560.5001,-236.825"></polygon>
</g>
<!-- p_4 -->
<g id="node21" class="node">
<title>p_4</title>
<g id="a_node21">
<ellipse fill="#b5b426" stroke="#000000" cx="557" cy="-208.6" rx="27" ry="18"></ellipse>
<text text-anchor="middle" x="557" y="-204.4" font-family="Times,serif" font-size="14.00" fill="#000000">p</text>
</g>
</g>
<!-- Mapper_4_15676967374274656139_1&#45;&gt;p_4 -->
<g id="edge12" class="edge">
<title>Mapper_4_6689202470932471455_1-&gt;U_mean_4</title>
<path fill="none" stroke="#8f100d" stroke-width="3" d="M627.1636,-633.8868C645.1331,-622.4516 664.2679,-610.275 679.8081,-600.3858"></path>
<polygon fill="#8f100d" stroke="#8f100d" stroke-width="3" points="681.949,-603.172 688.5066,-594.8504 678.1909,-597.2663 681.949,-603.172"></polygon>
</g>
<!-- U_mean_4 -->
<g id="node18" class="node">
<title>U_mean_4</title>
<g id="a_node18">
<ellipse fill="#d3d247" stroke="#000000" cx="712" cy="-579.9" rx="41.1729" ry="18"></ellipse>
<text text-anchor="middle" x="712" y="-575.7" font-family="Times,serif" font-size="14.00" fill="#000000">U.mean</text>
</g>
</g>
<!-- Mapper_4_6689202470932471455_1&#45;&gt;U_mean_4 -->
<g id="edge3" class="edge">
<title>A_4-&gt;Logger_0_50</title>
<path fill="none" stroke="#112c5f" stroke-width="2" d="M461.158,-386.0497C456.3061,-383.6978 451.0725,-381.4725 446,-379.9 334.5737,-345.3564 289.7229,-397.2914 186,-343.9 183.3466,-342.5342 180.7846,-340.8854 178.3358,-339.052"></path>
<polygon fill="#112c5f" stroke="#112c5f" stroke-width="2" points="180.3303,-336.1493 170.479,-332.2503 175.7487,-341.4417 180.3303,-336.1493"></polygon>
</g>
<!-- A_4 -->
<g id="node16" class="node">
<title>A_4</title>
<g id="a_node16">
<ellipse fill="#d3d247" stroke="#000000" cx="482" cy="-397.9" rx="27" ry="18"></ellipse>
<text text-anchor="middle" x="482" y="-393.7" font-family="Times,serif" font-size="14.00" fill="#000000">A</text>
</g>
</g><g id="edge2" class="edge">
<title>A_4-&gt;A_0</title>
<path fill="none" stroke="#38568c" d="M461.0915,-386.2542C456.243,-383.8917 451.0277,-381.6104 446,-379.9 366.6989,-352.9216 334.4024,-384.2558 261,-343.9 253.2516,-339.64 246.2161,-333.0624 240.5188,-326.6278" stroke-dasharray="5,2"></path>
</g>
<!-- A_4&#45;&gt;Logger_0_50 -->
<g id="edge4" class="edge">
<title>A_4-&gt;Mapper_4_15676967374274656139_1</title>
<path fill="none" stroke="#112c5f" stroke-width="2" d="M495.064,-382.049C502.021,-373.6079 510.9654,-362.7554 519.881,-351.9377"></path>
<polygon fill="#112c5f" stroke="#112c5f" stroke-width="2" points="522.6799,-354.0448 526.3391,-344.1019 517.2781,-349.5927 522.6799,-354.0448"></polygon>
</g>
<!-- A_4&#45;&gt;A_0 -->

<!-- A_4&#45;&gt;Mapper_4_15676967374274656139_1 -->
<g id="node23" class="node">
<title>System_5_13363403053405578460_0_05</title>
<g id="a_node23">">
<polygon fill="#fffea3" stroke="transparent" points="531.5,-525.9 432.5,-525.9 432.5,-451.9 531.5,-451.9 531.5,-525.9"></polygon>
<text text-anchor="start" x="460.4163" y="-508.4" font-family="times" font-size="15.00" fill="#000000">System</text>
<text text-anchor="start" x="436.681" y="-485.4" font-family="times" font-style="italic" font-size="15.00" fill="#000000">'WavePinning'</text>
<text text-anchor="start" x="469.375" y="-460.4" font-family="times" font-size="15.00" fill="#000000">0.05</text>
<polygon fill="#000000" stroke="#000000" points="433,-476.9 433,-476.9 532,-476.9 532,-476.9 433,-476.9"></polygon>
<polygon fill="none" stroke="#000000" points="432.5,-451.9 432.5,-525.9 531.5,-525.9 531.5,-451.9 432.5,-451.9"></polygon>
</g>
</g>
<g id="node17" class="node">
<title>B_4</title>
<g id="a_node17">
<ellipse fill="#d3d247" stroke="#000000" cx="338" cy="-397.9" rx="27" ry="18"></ellipse>
<text text-anchor="middle" x="338" y="-393.7" font-family="Times,serif" font-size="14.00" fill="#000000">B</text>
</g>
</g><!-- U_mean_4&#45;&gt;System_5_13363403053405578460_0_05 -->
<g id="edge20" class="edge">
<title>U_mean_4-&gt;System_5_13363403053405578460_0_05</title>
<path fill="none" stroke="#112c5f" stroke-width="2" d="M681.3045,-567.6715C675.9026,-565.6552 670.3101,-563.6535 665,-561.9 611.569,-544.256 592.0853,-550.2845 540.8848,-527.9485"></path>
<polygon fill="#112c5f" stroke="#112c5f" stroke-width="2" points="542.2212,-524.7116 531.6676,-523.7771 539.335,-531.0889 542.2212,-524.7116"></polygon>
</g>
<!-- c_4 -->
<g id="node19" class="node">
<title>c_4</title>
<g id="a_node19">
<ellipse fill="#d3d247" stroke="#000000" cx="410" cy="-397.9" rx="27" ry="18"></ellipse>
<text text-anchor="middle" x="410" y="-393.7" font-family="Times,serif" font-size="14.00" fill="#000000">c</text>
</g>
</g>
<!-- c_4&#45;&gt;TiffPlotter_0_100 -->
<g id="edge21" class="edge">
<title>c_4-&gt;TiffPlotter_0_100</title>
<path fill="none" stroke="#112c5f" stroke-width="2" d="M389.1561,-386.0556C384.3043,-383.7035 379.0713,-381.4766 374,-379.9 263.8621,-345.6601 222.6094,-390.2613 117,-343.9 113.3534,-342.2992 109.764,-340.3155 106.3005,-338.1046"></path>
<polygon fill="#112c5f" stroke="#112c5f" stroke-width="2" points="108.1755,-335.1439 97.9894,-332.2295 104.1348,-340.8599 108.1755,-335.1439"></polygon>
</g>
<!-- cell_center_4 -->
<g id="node20" class="node">
<title>cell_center_4</title>
<ellipse fill="#b5b426" stroke="#000000" cx="780" cy="-761.9" rx="50.9572" ry="18"></ellipse>
<text text-anchor="middle" x="780" y="-757.7" font-family="Times,serif" font-size="14.00" fill="#000000">cell.center</text>
</g>
<!-- cell_center_4&#45;&gt;cell_center_0 -->
<g id="edge25" class="edge">
<title>cell_center_4-&gt;cell_center_0</title>
<path fill="none" stroke="#38568c" d="M807.1776,-746.4507C851.388,-719.0648 934,-657.5079 934,-579.9 934,-579.9 934,-579.9 934,-306.9 934,-248.67 924.8522,-180.5111 919.5993,-146.1729" stroke-dasharray="5,2"></path>
</g>
<!-- cell_center_4&#45;&gt;Mapper_4_10911208160457661814_1 -->
<g id="edge22" class="edge">
<title>cell_center_4-&gt;Mapper_4_10911208160457661814_1</title>
<path fill="none" stroke="#112c5f" stroke-width="2" d="M777.2341,-743.9213C776.0753,-736.3897 774.6687,-727.2465 773.2484,-718.0146"></path>
<polygon fill="#112c5f" stroke="#112c5f" stroke-width="2" points="776.6929,-717.3857 771.713,-708.0342 769.7743,-718.4501 776.6929,-717.3857"></polygon>
</g>
<!-- cell_center_4&#45;&gt;Mapper_4_15676967374274656139_1 -->
<g id="edge23" class="edge">
<title>cell_center_4-&gt;Mapper_4_15676967374274656139_1</title>
<path fill="none" stroke="#112c5f" stroke-width="2" d="M802.7788,-745.5447C814.237,-735.9681 827.1214,-722.8321 834,-707.9 857.8748,-656.0725 844,-636.9622 844,-579.9 844,-579.9 844,-579.9 844,-488.9 844,-443.1919 738.8672,-386.143 655.8629,-348.2248"></path>
<polygon fill="#112c5f" stroke="#112c5f" stroke-width="2" points="657.1814,-344.9797 646.6281,-344.0427 654.2936,-351.3564 657.1814,-344.9797"></polygon>
</g>
<!-- cell_center_4&#45;&gt;Mapper_4_6689202470932471455_1 -->
<g id="edge24" class="edge">
<title>cell_center_4-&gt;Mapper_4_6689202470932471455_1</title>
<path fill="none" stroke="#112c5f" stroke-width="2" d="M747.4937,-747.8807C725.0745,-738.2117 694.0296,-724.8227 664.1101,-711.9191"></path>
<polygon fill="#112c5f" stroke="#112c5f" stroke-width="2" points="665.4402,-708.6811 654.8717,-707.9347 662.668,-715.1088 665.4402,-708.6811"></polygon>
</g>
<!-- cell_id_4 -->

<!-- cell_id_4&#45;&gt;TiffPlotter_0_100 -->

<!-- p_4&#45;&gt;p_0 -->
<g id="edge32" class="edge">
<title>p_4-&gt;p_0</title>
<path fill="none" stroke="#38568c" d="M541.6174,-193.5762C536.923,-189.7058 531.5314,-185.9029 526,-183.3 434.7274,-140.3502 313.6849,-128.489 257.339,-125.2279" stroke-dasharray="5,2"></path>
</g>
<!-- p_4&#45;&gt;DirectedMotion_4 -->
<g id="edge31" class="edge">
<title>p_4-&gt;DirectedMotion_4</title>
<path fill="none" stroke="#112c5f" stroke-width="2" d="M571.9523,-193.5927C576.7175,-189.6248 582.2546,-185.7658 588,-183.3 613.937,-172.1684 625.3394,-187.0549 651,-175.3 664.2141,-169.2468 676.5239,-159.0268 686.2976,-149.2949"></path>
<polygon fill="#112c5f" stroke="#112c5f" stroke-width="2" points="688.8681,-151.6711 693.2503,-142.025 683.8091,-146.833 688.8681,-151.6711"></polygon>
</g>
<!-- s_4&#45;&gt;System_5_13363403053405578460_0_05 -->
<g id="edge33" class="edge">
<title>s_4-&gt;System_5_13363403053405578460_0_05</title>
<path fill="none" stroke="#112c5f" stroke-width="2" d="M777.1338,-568.1262C772.2832,-565.7704 767.0562,-563.5241 762,-561.9 668.2832,-531.7966 632.7801,-561.5184 540.9377,-527.6048"></path>
<polygon fill="#112c5f" stroke="#112c5f" stroke-width="2" points="542.1609,-524.3254 531.5711,-524.0007 539.647,-530.8584 542.1609,-524.3254"></polygon>
</g>
<!-- System_5_13363403053405578460_0_05&#45;&gt;A_4 -->
<g id="edge13" class="edge">
<title>System_5_13363403053405578460_0_05-&gt;A_4</title>
<path fill="none" stroke="#8f100d" stroke-width="3" d="M482,-451.8868C482,-443.2649 482,-434.2214 482,-426.0547"></path>
<polygon fill="#8f100d" stroke="#8f100d" stroke-width="3" points="485.5001,-425.933 482,-415.933 478.5001,-425.9331 485.5001,-425.933"></polygon>
</g>
<!-- System_5_13363403053405578460_0_05&#45;&gt;B_4 -->
<g id="edge14" class="edge">
<title>System_5_13363403053405578460_0_05-&gt;B_4</title>
<path fill="none" stroke="#8f100d" stroke-width="3" d="M440.1708,-451.8709C436.4736,-449.0658 432.721,-446.3699 429,-443.9 427.5797,-442.9572 394.9048,-426.4861 369.1121,-413.5201"></path>
<polygon fill="#8f100d" stroke="#8f100d" stroke-width="3" points="370.4983,-410.2997 359.9915,-408.937 367.3553,-416.5544 370.4983,-410.2997"></polygon>
</g>
<!-- System_5_13363403053405578460_0_05&#45;&gt;c_4 -->
<g id="edge15" class="edge">
<title>System_5_13363403053405578460_0_05-&gt;c_4</title>
<path fill="none" stroke="#8f100d" stroke-width="3" d="M452.7148,-451.8868C444.7263,-441.7902 436.2804,-431.1156 429.0268,-421.9478"></path>
<polygon fill="#8f100d" stroke="#8f100d" stroke-width="3" points="431.6974,-419.6823 422.7478,-414.0118 426.2079,-424.0257 431.6974,-419.6823"></polygon>
</g>
<g id="node24" class="node">
<title>K_5</title>
<g id="a_node24">
<ellipse fill="#d3d247" stroke="#000000" cx="482" cy="-579.9" rx="27" ry="18"></ellipse>
<text text-anchor="middle" x="482" y="-575.7" font-family="Times,serif" font-size="14.00" fill="#000000">K</text>
</g>
</g><g id="edge9" class="edge">
<title>K_5-&gt;System_5_13363403053405578460_0_05</title>
<path fill="none" stroke="#112c5f" stroke-width="2" d="M482,-561.4848C482,-554.089 482,-545.1921 482,-536.2013"></path>
<polygon fill="#112c5f" stroke="#112c5f" stroke-width="2" points="485.5001,-536.0854 482,-526.0855 478.5001,-536.0855 485.5001,-536.0854"></polygon>
</g><g id="node25" class="node">
<title>delta_5</title>
<g id="a_node25">
<ellipse fill="#d3d247" stroke="#000000" cx="407" cy="-579.9" rx="29.6127" ry="18"></ellipse>
<text text-anchor="middle" x="407" y="-575.7" font-family="Times,serif" font-size="14.00" fill="#000000">delta</text>
</g>
</g><g id="edge26" class="edge">
<title>delta_5-&gt;System_5_13363403053405578460_0_05</title>
<path fill="none" stroke="#112c5f" stroke-width="2" d="M420.4085,-563.631C427.3251,-555.2389 436.1378,-544.5461 444.9199,-533.8905"></path>
<polygon fill="#112c5f" stroke="#112c5f" stroke-width="2" points="447.6224,-536.1145 451.2816,-526.1716 442.2206,-531.6625 447.6224,-536.1145"></polygon>
</g><g id="node26" class="node">
<title>gamma_5</title>
<g id="a_node26">
<ellipse fill="#d3d247" stroke="#000000" cx="320" cy="-579.9" rx="39.4254" ry="18"></ellipse>
<text text-anchor="middle" x="320" y="-575.7" font-family="Times,serif" font-size="14.00" fill="#000000">gamma</text>
</g>
</g><g id="edge27" class="edge">
<title>gamma_5-&gt;System_5_13363403053405578460_0_05</title>
<path fill="none" stroke="#112c5f" stroke-width="2" d="M348.3853,-567.2608C368.5646,-557.972 396.3643,-544.563 423.6614,-528.941"></path>
<polygon fill="#112c5f" stroke="#112c5f" stroke-width="2" points="425.6177,-531.8519 432.4962,-523.7935 422.0937,-525.8036 425.6177,-531.8519"></polygon>
</g><g id="node27" class="node">
<title>k_0_5</title>
<g id="a_node27">
<ellipse fill="#d3d247" stroke="#000000" cx="626" cy="-579.9" rx="27" ry="18"></ellipse>
<text text-anchor="middle" x="626" y="-575.7" font-family="Times,serif" font-size="14.00" fill="#000000">k_0</text>
</g>
</g><g id="edge28" class="edge">
<title>k_0_5-&gt;System_5_13363403053405578460_0_05</title>
<path fill="none" stroke="#112c5f" stroke-width="2" d="M605.4106,-568.0223C588.8948,-558.3937 564.9674,-544.2203 540.1081,-528.4797"></path>
<polygon fill="#112c5f" stroke="#112c5f" stroke-width="2" points="541.9644,-525.5124 531.6512,-523.0859 538.2002,-531.4142 541.9644,-525.5124"></polygon>
</g><g id="node28" class="node">
<title>n_5</title>
<g id="a_node28">
<ellipse fill="#d3d247" stroke="#000000" cx="554" cy="-579.9" rx="27" ry="18"></ellipse>
<text text-anchor="middle" x="554" y="-575.7" font-family="Times,serif" font-size="14.00" fill="#000000">n</text>
</g>
</g><g id="edge29" class="edge">
<title>n_5-&gt;System_5_13363403053405578460_0_05</title>
<path fill="none" stroke="#112c5f" stroke-width="2" d="M541.1278,-563.631C534.5524,-555.3204 526.1918,-544.7535 517.8425,-534.2009"></path>
<polygon fill="#112c5f" stroke="#112c5f" stroke-width="2" points="520.4393,-531.8422 511.4897,-526.1716 514.9497,-536.1856 520.4393,-531.8422"></polygon>
</g></g>
</svg>