<?xml version="1.0" encoding="UTF-8" standalone="no"?> <svg xmlns="http://www.w3.org/2000/svg" xmlns:xlink="http://www.w3.org/1999/xlink" width="414pt" height="353pt" viewBox="0.00 0.00 414.00 352.80">
<g id="graph0" class="graph" transform="scale(1 1) rotate(0) translate(4 348.8)">
<title style="">%0</title>
<polygon fill="#ffffff" stroke="transparent" points="-4,4 -4,-348.8 410,-348.8 410,4 -4,4" style=""></polygon>
<g id="clust1" class="cluster">
<title style="">cluster</title>
<polygon fill="#234178" fill-opacity="0.184314" stroke="#000000" points="8,-8 8,-336.8 398,-336.8 398,-8 8,-8" style=""></polygon>
<text text-anchor="middle" x="203" y="-320.2" font-family="Times,serif" font-size="14.00" fill="#000000">Global</text>
</g>
<g id="clust3" class="cluster">
<title style="">cluster_2</title>
<polygon fill="#234178" fill-opacity="0.184314" stroke="#000000" points="104,-166 104,-304 390,-304 390,-166 104,-166" style=""></polygon>
</g>
<!-- Logger_0_1 -->
<g id="node1" class="node">
<title style="">Logger_0_1</title>
<g id="a_node1">">
<polygon fill="#fffea3" stroke="transparent" points="189.5,-66 138.5,-66 138.5,-16 189.5,-16 189.5,-66" style=""></polygon>
<text text-anchor="start" x="142.8423" y="-48.5" font-family="times" font-size="15.00" fill="#000000">Logger</text>
<text text-anchor="start" x="160.75" y="-24.5" font-family="times" font-size="15.00" fill="#000000">1</text>
<polygon fill="#000000" stroke="#000000" points="139,-41 139,-41 190,-41 190,-41 139,-41" style=""></polygon>
<polygon fill="none" stroke="#000000" points="138.5,-16 138.5,-66 189.5,-66 189.5,-16 138.5,-16" style=""></polygon>
</g>
</g>
<!-- L_0 -->
<g id="node2" class="node">
<title style="">L_0</title>
<g id="a_node2">
<ellipse fill="#d3d247" stroke="#000000" cx="128" cy="-120" rx="27" ry="18" style=""></ellipse>
<text text-anchor="middle" x="128" y="-115.8" font-family="Times,serif" font-size="14.00" fill="#000000">L</text>
</g>
</g>
<!-- L_0&#45;&gt;Logger_0_1 -->
<g id="edge2" class="edge">
<title style="">L_0-&gt;Logger_0_1</title>
<path fill="none" stroke="#112c5f" stroke-width="2" d="M135.9896,-102.4673C139.625,-94.4896 144.0592,-84.759 148.3175,-75.4145" style=""></path>
<polygon fill="#112c5f" stroke="#112c5f" stroke-width="2" points="151.5191,-76.829 152.481,-66.2779 145.1493,-73.9262 151.5191,-76.829" style=""></polygon>
</g>
<!-- space_0 -->
<g id="node3" class="node">
<title style="">space_0</title>
<g id="a_node3">
<ellipse fill="#b5b426" stroke="#000000" cx="56" cy="-278" rx="32.4615" ry="18" style=""></ellipse>
<text text-anchor="middle" x="56" y="-273.8" font-family="Times,serif" font-size="14.00" fill="#000000">space</text>
</g>
</g>
<!-- space_x_0 -->
<g id="node4" class="node">
<title style="">space_x_0</title>
<ellipse fill="#d3d247" stroke="#000000" cx="56" cy="-199" rx="39.9481" ry="18" style=""></ellipse>
<text text-anchor="middle" x="56" y="-194.8" font-family="Times,serif" font-size="14.00" fill="#000000">space.x</text>
</g>
<!-- space_0&#45;&gt;space_x_0 -->
<g id="edge8" class="edge">
<title style="">space_0-&gt;space_x_0</title>
<path fill="none" stroke="#38568c" stroke-dasharray="5,2" d="M56,-259.6772C56,-246.9146 56,-229.9642 56,-217.2234" style=""></path>
</g>
<!-- x_0 -->
<g id="node7" class="node">
<title style="">x_0</title>
<g id="a_node7">
<ellipse fill="#d3d247" stroke="#000000" cx="56" cy="-120" rx="27" ry="18" style=""></ellipse>
<text text-anchor="middle" x="56" y="-115.8" font-family="Times,serif" font-size="14.00" fill="#000000">x</text>
</g>
</g>
<!-- space_x_0&#45;&gt;x_0 -->
<g id="edge9" class="edge">
<title style="">space_x_0-&gt;x_0</title>
<path fill="none" stroke="#112c5f" stroke-width="2" d="M56,-180.6772C56,-171.1053 56,-159.1777 56,-148.4371" style=""></path>
<polygon fill="#112c5f" stroke="#112c5f" stroke-width="2" points="59.5001,-148.2234 56,-138.2234 52.5001,-148.2234 59.5001,-148.2234" style=""></polygon>
</g>
<!-- u_0 -->
<g id="node5" class="node">
<title style="">u_0</title>
<g id="a_node5">
<ellipse fill="#d3d247" stroke="#000000" cx="200" cy="-120" rx="27" ry="18" style=""></ellipse>
<text text-anchor="middle" x="200" y="-115.8" font-family="Times,serif" font-size="14.00" fill="#000000">u</text>
</g>
</g>
<!-- u_0&#45;&gt;Logger_0_1 -->
<g id="edge10" class="edge">
<title style="">u_0-&gt;Logger_0_1</title>
<path fill="none" stroke="#112c5f" stroke-width="2" d="M192.0104,-102.4673C188.375,-94.4896 183.9408,-84.759 179.6825,-75.4145" style=""></path>
<polygon fill="#112c5f" stroke="#112c5f" stroke-width="2" points="182.8507,-73.9262 175.519,-66.2779 176.4809,-76.829 182.8507,-73.9262" style=""></polygon>
</g>
<!-- v_0 -->
<g id="node6" class="node">
<title style="">v_0</title>
<g id="a_node6">
<ellipse fill="#d3d247" stroke="#000000" cx="272" cy="-120" rx="27" ry="18" style=""></ellipse>
<text text-anchor="middle" x="272" y="-115.8" font-family="Times,serif" font-size="14.00" fill="#000000">v</text>
</g>
</g>
<!-- v_0&#45;&gt;Logger_0_1 -->
<g id="edge11" class="edge">
<title style="">v_0-&gt;Logger_0_1</title>
<path fill="none" stroke="#112c5f" stroke-width="2" d="M253.6793,-106.5987C238.4402,-95.4516 216.3393,-79.2853 197.8913,-65.7909" style=""></path>
<polygon fill="#112c5f" stroke="#112c5f" stroke-width="2" points="199.8476,-62.8855 189.7101,-59.8064 195.7149,-68.5353 199.8476,-62.8855" style=""></polygon>
</g>
<!-- x_0&#45;&gt;Logger_0_1 -->
<g id="edge12" class="edge">
<title style="">x_0-&gt;Logger_0_1</title>
<path fill="none" stroke="#112c5f" stroke-width="2" d="M74.3207,-106.5987C89.5598,-95.4516 111.6607,-79.2853 130.1087,-65.7909" style=""></path>
<polygon fill="#112c5f" stroke="#112c5f" stroke-width="2" points="132.2851,-68.5353 138.2899,-59.8064 128.1524,-62.8855 132.2851,-68.5353" style=""></polygon>
</g>
<!-- System_2_0_0106875 -->
<g id="node8" class="node">
<title style="">System_2_0_0106875</title>
<g id="a_node8">">
<polygon fill="#fffea3" stroke="transparent" points="276.5,-224 205.5,-224 205.5,-174 276.5,-174 276.5,-224" style=""></polygon>
<text text-anchor="start" x="219.4163" y="-206.5" font-family="times" font-size="15.00" fill="#000000">System</text>
<text text-anchor="start" x="209.625" y="-182.5" font-family="times" font-size="15.00" fill="#000000">0.0106875</text>
<polygon fill="#000000" stroke="#000000" points="206,-199 206,-199 277,-199 277,-199 206,-199" style=""></polygon>
<polygon fill="none" stroke="#000000" points="205.5,-174 205.5,-224 276.5,-224 276.5,-174 205.5,-174" style=""></polygon>
</g>
</g>
<!-- System_2_0_0106875&#45;&gt;u_0 -->
<g id="edge3" class="edge">
<title style="">System_2_0_0106875-&gt;u_0</title>
<path fill="none" stroke="#8f100d" stroke-width="3" d="M227.8017,-173.5691C223.2632,-164.8241 218.1754,-155.021 213.6052,-146.2149" style=""></path>
<polygon fill="#8f100d" stroke="#8f100d" stroke-width="3" points="216.6126,-144.4115 208.8995,-137.1479 210.3995,-147.636 216.6126,-144.4115" style=""></polygon>
</g>
<!-- System_2_0_0106875&#45;&gt;v_0 -->
<g id="edge4" class="edge">
<title style="">System_2_0_0106875-&gt;v_0</title>
<path fill="none" stroke="#8f100d" stroke-width="3" d="M250.9792,-173.5691C254.2869,-165.1399 257.9803,-155.7275 261.3374,-147.1725" style=""></path>
<polygon fill="#8f100d" stroke="#8f100d" stroke-width="3" points="264.6856,-148.2214 265.0804,-137.6339 258.1693,-145.6643 264.6856,-148.2214" style=""></polygon>
</g>
<!-- H_2 -->
<g id="node9" class="node">
<title style="">H_2</title>
<g id="a_node9">
<ellipse fill="#d3d247" stroke="#000000" cx="355" cy="-278" rx="27" ry="18" style=""></ellipse>
<text text-anchor="middle" x="355" y="-273.8" font-family="Times,serif" font-size="14.00" fill="#000000">H</text>
</g>
</g>
<!-- H_2&#45;&gt;System_2_0_0106875 -->
<g id="edge1" class="edge">
<title style="">H_2-&gt;System_2_0_0106875</title>
<path fill="none" stroke="#112c5f" stroke-width="2" d="M336.1752,-264.9548C322.371,-255.3887 303.0382,-241.9914 285.4,-229.7684" style=""></path>
<polygon fill="#112c5f" stroke="#112c5f" stroke-width="2" points="287.1219,-226.7034 276.909,-223.8843 283.1347,-232.4569 287.1219,-226.7034" style=""></polygon>
</g>
<!-- a_2 -->
<g id="node10" class="node">
<title style="">a_2</title>
<g id="a_node10">
<ellipse fill="#d3d247" stroke="#000000" cx="283" cy="-278" rx="27" ry="18" style=""></ellipse>
<text text-anchor="middle" x="283" y="-273.8" font-family="Times,serif" font-size="14.00" fill="#000000">a</text>
</g>
</g>
<!-- a_2&#45;&gt;System_2_0_0106875 -->
<g id="edge5" class="edge">
<title style="">a_2-&gt;System_2_0_0106875</title>
<path fill="none" stroke="#112c5f" stroke-width="2" d="M273.8866,-260.8582C269.5718,-252.7423 264.2588,-242.7487 259.1713,-233.1794" style=""></path>
<polygon fill="#112c5f" stroke="#112c5f" stroke-width="2" points="262.1875,-231.3966 254.4027,-224.2099 256.0067,-234.6826 262.1875,-231.3966" style=""></polygon>
</g>
<!-- b_2 -->
<g id="node11" class="node">
<title style="">b_2</title>
<g id="a_node11">
<ellipse fill="#d3d247" stroke="#000000" cx="211" cy="-278" rx="27" ry="18" style=""></ellipse>
<text text-anchor="middle" x="211" y="-273.8" font-family="Times,serif" font-size="14.00" fill="#000000">b</text>
</g>
</g>
<!-- b_2&#45;&gt;System_2_0_0106875 -->
<g id="edge6" class="edge">
<title style="">b_2-&gt;System_2_0_0106875</title>
<path fill="none" stroke="#112c5f" stroke-width="2" d="M217.658,-260.4673C220.6559,-252.5727 224.3058,-242.9615 227.8203,-233.7066" style=""></path>
<polygon fill="#112c5f" stroke="#112c5f" stroke-width="2" points="231.1227,-234.8691 231.4008,-224.2779 224.5786,-232.3839 231.1227,-234.8691" style=""></polygon>
</g>
<!-- eps_2 -->
<g id="node12" class="node">
<title style="">eps_2</title>
<g id="a_node12">
<ellipse fill="#d3d247" stroke="#000000" cx="139" cy="-278" rx="27" ry="18" style=""></ellipse>
<text text-anchor="middle" x="139" y="-273.8" font-family="Times,serif" font-size="14.00" fill="#000000">eps</text>
</g>
</g>
<!-- eps_2&#45;&gt;System_2_0_0106875 -->
<g id="edge7" class="edge">
<title style="">eps_2-&gt;System_2_0_0106875</title>
<path fill="none" stroke="#112c5f" stroke-width="2" d="M156.767,-264.2393C168.8068,-254.9143 185.2233,-242.1996 200.3666,-230.471" style=""></path>
<polygon fill="#112c5f" stroke="#112c5f" stroke-width="2" points="202.8498,-232.9747 208.6127,-224.0843 198.5635,-227.4405 202.8498,-232.9747" style=""></polygon>
</g>
</g>
</svg>