<?xml version="1.0" encoding="UTF-8" standalone="no"?> <svg xmlns="http://www.w3.org/2000/svg" xmlns:xlink="http://www.w3.org/1999/xlink" width="1079pt" height="614pt" viewBox="0.00 0.00 1079 614.4">
<g id="graph0" class="graph" transform="translate(4, 610.4000244140625)">
<title>%0</title>
<polygon fill="#ffffff" stroke="transparent" points="-4,4 -4,-610.4 1075,-610.4 1075,4 -4,4"></polygon>
<g id="clust1" class="cluster">
<title>cluster</title>
<polygon fill="#234178" fill-opacity="0.184314" stroke="#000000" points="8,-8 8,-598.4 1063,-598.4 1063,-8 8,-8"></polygon>
<text text-anchor="middle" x="535.5" y="-581.8" font-family="Times,serif" font-size="14.00" fill="#000000">Global</text>
</g>
<g id="clust2" class="cluster">
<title>cluster_1</title>
<polygon fill="#234178" fill-opacity="0.184314" stroke="#000000" points="28,-16 28,-499.6 1023,-499.6 1023,-16 28,-16"></polygon>
<text text-anchor="middle" x="525.5" y="-483" font-family="Times,serif" font-size="14.00" fill="#000000">CellType[cells]</text>
</g>
<g id="clust3" class="cluster">
<title>cluster_cpm1</title>
<polygon fill="#234178" fill-opacity="0.184314" stroke="#000000" points="881,-95 881,-171.8 1015,-171.8 1015,-95 881,-95"></polygon>
<text text-anchor="middle" x="948" y="-155.2" font-family="Times,serif" font-size="14.00" fill="#000000">CPM plugins</text>
</g>
<g id="clust4" class="cluster">
<title>cluster_2</title>
<polygon fill="#234178" fill-opacity="0.184314" stroke="#000000" points="491,-246 491,-336.8 561,-336.8 561,-246 491,-246"></polygon>
<text text-anchor="middle" x="526" y="-320.2" font-family="Times,serif" font-size="14.00" fill="#000000">System</text>
</g>
<!-- CPM_0_1 -->
<g id="node1" class="node">
<title>CPM_0_1</title>
<g id="a_node1">">
<polygon fill="#fffea3" stroke="transparent" points="1054.5,-565.6 999.5,-565.6 999.5,-507.6 1054.5,-507.6 1054.5,-565.6"></polygon>
<text text-anchor="start" x="1011.6623" y="-544.1" font-family="times" font-size="15.00" fill="#000000">CPM</text>
<text text-anchor="start" x="1023.75" y="-520.1" font-family="times" font-size="15.00" fill="#000000">1</text>
<polygon fill="#000000" stroke="#000000" points="1008,-536.6 1008,-536.6 1047,-536.6 1047,-536.6 1008,-536.6"></polygon>
<polygon fill="none" stroke="#000000" points="1007.5,-511.6 1007.5,-561.6 1046.5,-561.6 1046.5,-511.6 1007.5,-511.6"></polygon>
</g>
</g>
<!-- cell_center_0 -->

<!-- CPM_0_1&#45;&gt;cell_center_0 -->

<!-- cell_type_0 -->

<!-- CPM_0_1&#45;&gt;cell_type_0 -->
<g id="edge2" class="edge">
<title style="">CPM_0_1-&gt;cell_center_1</title>
<path fill="none" stroke="#8f100d" stroke-width="3" d="M1034.3779,-507.2937C1042.3721,-472.918 1054,-414.0997 1054,-362.8 1054,-362.8 1054,-362.8 1054,-200 1054,-150.809 1053.4338,-130.1293 1019,-95 994.9986,-70.5138 958.9563,-57.305 928.3325,-50.1978"></path>
<polygon fill="#8f100d" stroke="#8f100d" stroke-width="3" points="928.6923,-46.6953 918.1799,-48.014 927.2203,-53.5387 928.6923,-46.6953"></polygon>
</g>
<!-- VolumeConstraint_1 -->
<g id="node5" class="node">
<title>VolumeConstraint_1</title>
<g id="a_node5">">
<polygon fill="#fffea3" stroke="transparent" points="1007,-139 889,-139 889,-103 1007,-103 1007,-139"></polygon>
<text text-anchor="start" x="892.5908" y="-116.5" font-family="times" font-size="15.00" fill="#000000">VolumeConstraint</text>
<polygon fill="none" stroke="#000000" points="889,-108 889,-134 1007,-134 1007,-108 889,-108"></polygon>
</g>
</g>
<!-- CPM_0_1&#45;&gt;VolumeConstraint_1 -->
<g id="edge1" class="edge">
<title>CPM_0_1-&gt;VolumeConstraint_1</title>
<path fill="none" stroke="#38568c" stroke-dasharray="5,2" d="M1028.8943,-507.4007C1030.9674,-472.8794 1034,-413.6838 1034,-362.8 1034,-362.8 1034,-362.8 1034,-279 1034,-235.7768 1049.1354,-219.1251 1027,-182 1022.6812,-174.7566 1017.8485,-176.721 1011,-171.8"></path>
</g><g id="edge3" class="edge">
<title style="">CPM_0_1-&gt;cell_type_1</title>
<path fill="none" stroke="#8f100d" stroke-width="3" d="M1009.7412,-507.3833C1002.3658,-494.8978 993.8184,-480.4283 986.6315,-468.262"></path>
<polygon fill="#8f100d" stroke="#8f100d" stroke-width="3" points="989.5425,-466.3082 981.4429,-459.4783 983.5155,-469.8684 989.5425,-466.3082"></polygon>
</g>
<!-- Logger_0_100 -->

<!-- Gnuplotter_0_1200 -->

<!-- cc_0 -->

<!-- cc_0&#45;&gt;Gnuplotter_0_1200 -->

<!-- cc_0&#45;&gt;cc_0 -->

<!-- cell_center_x_0 -->

<!-- cell_center_0&#45;&gt;cell_center_x_0 -->

<!-- cell_center_y_0 -->

<!-- cell_center_0&#45;&gt;cell_center_y_0 -->

<!-- cell_center_x_0&#45;&gt;Logger_0_100 -->

<!-- cell_center_y_0&#45;&gt;Logger_0_100 -->

<!-- cell_volume_0 -->

<!-- cell_volume_0&#45;&gt;Logger_0_100 -->

<!-- cellCycleTime_0 -->

<!-- cellCycleTime_0&#45;&gt;Logger_0_100 -->

<!-- cellCycleTime_0&#45;&gt;cellCycleTime_0 -->

<!-- celltype_cells_size_0 -->

<!-- celltype_cells_size_0&#45;&gt;Logger_0_100 -->

<!-- clone_0 -->

<!-- clone_0&#45;&gt;Logger_0_100 -->

<!-- clone_0&#45;&gt;Gnuplotter_0_1200 -->

<!-- clone_0&#45;&gt;clone_0 -->

<!-- p_0 -->

<!-- p_0&#45;&gt;Logger_0_100 -->

<!-- p_0&#45;&gt;p_0 -->

<!-- progenitor_0 -->

<!-- progenitor_0&#45;&gt;Logger_0_100 -->

<!-- progenitor_0&#45;&gt;progenitor_0 -->

<!-- time_0 -->
<g id="node2" class="node">
<title>time_0</title>
<g id="a_node2">
<ellipse fill="#d3d247" stroke="#000000" cx="285" cy="-536.6" rx="28.4069" ry="18"></ellipse>
<text text-anchor="middle" x="285" y="-532.4" font-family="Times,serif" font-size="14.00" fill="#000000">time</text>
</g>
</g>
<!-- CellDivision_1_1 -->
<g id="node3" class="node">
<title>CellDivision_1_1</title>
<g id="a_node3">">
<polygon fill="#fffea3" stroke="transparent" points="506,-466.8 422,-466.8 422,-416.8 506,-416.8 506,-466.8"></polygon>
<text text-anchor="start" x="425.66679999999997" y="-449.3" font-family="times" font-size="15.00" fill="#000000">CellDivision</text>
<text text-anchor="start" x="460.25" y="-425.3" font-family="times" font-size="15.00" fill="#000000">1</text>
<polygon fill="#000000" stroke="#000000" points="422,-441.8 422,-441.8 506,-441.8 506,-441.8 422,-441.8"></polygon>
<polygon fill="none" stroke="#000000" points="422,-416.8 422,-466.8 506,-466.8 506,-416.8 422,-416.8"></polygon>
</g>
</g>
<!-- time_0&#45;&gt;CellDivision_1_1 -->
<g id="edge26" class="edge">
<title>time_0-&gt;CellDivision_1_1</title>
<path fill="none" stroke="#112c5f" stroke-width="2" d="M313.062,-533.8982C341.5183,-530.0478 385.8287,-520.9066 418,-499.6 427.578,-493.2566 436.0853,-484.2755 443.0985,-475.2792"></path>
<polygon fill="#112c5f" stroke="#112c5f" stroke-width="2" points="446.0142,-477.2218 449.1069,-467.0884 440.37,-473.0814 446.0142,-477.2218"></polygon>
</g>
<!-- CellDeath_1_1 -->
<g id="node4" class="node">
<title>CellDeath_1_1</title>
<g id="a_node4">">
<polygon fill="#fffea3" stroke="transparent" points="308,-146 240,-146 240,-96 308,-96 308,-146"></polygon>
<text text-anchor="start" x="243.59349999999995" y="-128.5" font-family="times" font-size="15.00" fill="#000000">CellDeath</text>
<text text-anchor="start" x="270.25" y="-104.5" font-family="times" font-size="15.00" fill="#000000">1</text>
<polygon fill="#000000" stroke="#000000" points="240,-121 240,-121 308,-121 308,-121 240,-121"></polygon>
<polygon fill="none" stroke="#000000" points="240,-96 240,-146 308,-146 308,-96 240,-96"></polygon>
</g>
</g>
<!-- time_0&#45;&gt;CellDeath_1_1 -->
<g id="edge25" class="edge">
<title>time_0-&gt;CellDeath_1_1</title>
<path fill="none" stroke="#112c5f" stroke-width="2" d="M257.3287,-532.1906C188.8552,-519.545 17,-476.4832 17,-362.8 17,-362.8 17,-362.8 17,-279 17,-180.2049 156.5292,-141.2192 229.9696,-127.5417"></path>
<polygon fill="#112c5f" stroke="#112c5f" stroke-width="2" points="230.642,-130.9771 239.8724,-125.7762 229.4133,-124.0858 230.642,-130.9771"></polygon>
</g>
<!-- c_1 -->
<g id="node6" class="node">
<title>c_1</title>
<g id="a_node6">
<ellipse fill="#d3d247" stroke="#000000" cx="210" cy="-200" rx="27" ry="18"></ellipse>
<text text-anchor="middle" x="210" y="-195.8" font-family="Times,serif" font-size="14.00" fill="#000000">c</text>
</g>
</g>
<!-- CellDivision_1_1&#45;&gt;c_1 -->
<g id="edge5" class="edge">
<title>CellDivision_1_1-&gt;c_1</title>
<path fill="none" stroke="#8f100d" stroke-width="3" d="M421.8833,-418.2259C420.5855,-417.7204 419.2893,-417.2432 418,-416.8 325.5477,-385.0179 264.2192,-455.3712 201,-380.8 164.4343,-337.6684 183.7124,-265.8571 198.3999,-226.9845"></path>
<polygon fill="#8f100d" stroke="#8f100d" stroke-width="3" points="201.7685,-227.9831 202.1843,-217.3964 195.2573,-225.4131 201.7685,-227.9831"></polygon>
</g>
<!-- cell_center_1 -->
<g id="node8" class="node">
<title>cell_center_1</title>
<ellipse fill="#b5b426" stroke="#000000" cx="870" cy="-42" rx="50.9572" ry="18"></ellipse>
<text text-anchor="middle" x="870" y="-37.80000000000001" font-family="Times,serif" font-size="14.00" fill="#000000">cell.center</text>
</g>
<!-- CellDivision_1_1&#45;&gt;cell_center_1 -->
<g id="edge7" class="edge">
<title>CellDivision_1_1-&gt;cell_center_1</title>
<path fill="none" stroke="#8f100d" stroke-width="3" d="M506.3693,-440.1398C626.9436,-434.9839 965.3849,-417.3529 998,-380.8 1008.6524,-368.8615 1001.838,-360.3329 998,-344.8 986.0969,-296.6271 980.9214,-281.2534 946,-246 927.5275,-227.3518 911.2035,-237.8249 894,-218 879.6601,-201.4751 881.4161,-193.229 877,-171.8 869.914,-137.4151 868.8551,-96.8883 869.1149,-70.3817"></path>
<polygon fill="#8f100d" stroke="#8f100d" stroke-width="3" points="872.6161,-70.3343 869.2851,-60.2768 865.6171,-70.2164 872.6161,-70.3343"></polygon>
</g>
<!-- cellCycleTime_1 -->
<g id="node10" class="node">
<title>cellCycleTime_1</title>
<g id="a_node10">
<ellipse fill="#d3d247" stroke="#000000" cx="104" cy="-362.8" rx="67.7702" ry="18"></ellipse>
<text text-anchor="middle" x="104" y="-358.6" font-family="Times,serif" font-size="14.00" fill="#000000">cellCycleTime</text>
</g>
</g>
<!-- CellDivision_1_1&#45;&gt;cellCycleTime_1 -->
<g id="edge6" class="edge">
<title>CellDivision_1_1-&gt;cellCycleTime_1</title>
<path fill="none" stroke="#8f100d" stroke-width="3" d="M421.7499,-421.9939C417.5088,-420.0218 413.2194,-418.2259 409,-416.8 310.1468,-383.3943 279.5643,-399.9954 177,-380.8 172.0238,-379.8687 166.8885,-378.8587 161.7511,-377.8086"></path>
<polygon fill="#8f100d" stroke="#8f100d" stroke-width="3" points="162.4156,-374.3719 151.9107,-375.7498 160.982,-381.2236 162.4156,-374.3719"></polygon>
</g>
<!-- m2dProg_1 -->
<g id="node11" class="node">
<title>m2dProg_1</title>
<g id="a_node11">
<ellipse fill="#d3d247" stroke="#000000" cx="403" cy="-362.8" rx="46.3913" ry="18"></ellipse>
<text text-anchor="middle" x="403" y="-358.6" font-family="Times,serif" font-size="14.00" fill="#000000">m2dProg</text>
</g>
</g>
<!-- CellDivision_1_1&#45;&gt;m2dProg_1 -->
<g id="edge8" class="edge">
<title>CellDivision_1_1-&gt;m2dProg_1</title>
<path fill="none" stroke="#8f100d" stroke-width="3" d="M444.3634,-416.3691C437.5011,-407.4818 429.7948,-397.5015 422.9104,-388.5856"></path>
<polygon fill="#8f100d" stroke="#8f100d" stroke-width="3" points="425.498,-386.2099 416.616,-380.4339 419.9574,-390.488 425.498,-386.2099"></polygon>
</g>
<!-- maxCellSize_1 -->
<g id="node12" class="node">
<title>maxCellSize_1</title>
<g id="a_node12">
<ellipse fill="#d3d247" stroke="#000000" cx="663" cy="-362.8" rx="60.2672" ry="18"></ellipse>
<text text-anchor="middle" x="663" y="-358.6" font-family="Times,serif" font-size="14.00" fill="#000000">maxCellSize</text>
</g>
</g>
<g id="edge9" class="edge">
<title>CellDivision_1_1-&gt;maxCellSize_1</title>
<path fill="none" stroke="#8f100d" stroke-width="3" d="M506.2028,-425.0461C538.7049,-412.1433 583.5806,-394.3283 616.9982,-381.062"></path>
<polygon fill="#8f100d" stroke="#8f100d" stroke-width="3" points="618.5335,-384.2183 626.5365,-377.2755 615.9507,-377.7122 618.5335,-384.2183"></polygon>
</g><g id="node13" class="node">
<title>minCellSize_1</title>
<g id="a_node13">
<ellipse fill="#d3d247" stroke="#000000" cx="526" cy="-362.8" rx="58.5617" ry="18"></ellipse>
<text text-anchor="middle" x="526" y="-358.6" font-family="Times,serif" font-size="14.00" fill="#000000">minCellSize</text>
</g>
</g><g id="edge10" class="edge">
<title>CellDivision_1_1-&gt;minCellSize_1</title>
<path fill="none" stroke="#8f100d" stroke-width="3" d="M483.9585,-416.3691C491.0052,-407.3902 498.9275,-397.2956 505.9794,-388.3102"></path>
<polygon fill="#8f100d" stroke="#8f100d" stroke-width="3" points="508.7402,-390.4614 512.1607,-380.4339 503.2336,-386.1397 508.7402,-390.4614"></polygon>
</g><g id="node14" class="node">
<title>mother2daughters_1</title>
<g id="a_node14">
<ellipse fill="#d3d247" stroke="#000000" cx="822" cy="-362.8" rx="80.5219" ry="18"></ellipse>
<text text-anchor="middle" x="822" y="-358.6" font-family="Times,serif" font-size="14.00" fill="#000000">mother2daughters</text>
</g>
</g><g id="edge11" class="edge">
<title>CellDivision_1_1-&gt;mother2daughters_1</title>
<path fill="none" stroke="#8f100d" stroke-width="3" d="M506.1199,-432.5054C567.2874,-419.0075 681.3503,-393.8372 754.3756,-377.7227"></path>
<polygon fill="#8f100d" stroke="#8f100d" stroke-width="3" points="755.3868,-381.0838 764.3977,-375.5111 753.8784,-374.2483 755.3868,-381.0838"></polygon>
</g><g id="node15" class="node">
<title>p_1</title>
<g id="a_node15">
<ellipse fill="#d3d247" stroke="#000000" cx="948" cy="-362.8" rx="27" ry="18"></ellipse>
<text text-anchor="middle" x="948" y="-358.6" font-family="Times,serif" font-size="14.00" fill="#000000">p</text>
</g>
</g><g id="edge12" class="edge">
<title>CellDivision_1_1-&gt;p_1</title>
<path fill="none" stroke="#8f100d" stroke-width="3" d="M506.12,-440.4186C585.5491,-436.8936 761.6223,-424.454 903,-380.8 906.981,-379.5708 911.0604,-377.9377 915.0902,-376.1556"></path>
<polygon fill="#8f100d" stroke="#8f100d" stroke-width="3" points="916.7486,-379.2442 924.3333,-371.8467 913.791,-372.8997 916.7486,-379.2442"></polygon>
</g><g id="node16" class="node">
<title>progenitor_1</title>
<g id="a_node16">
<ellipse fill="#d3d247" stroke="#000000" cx="574" cy="-200" rx="51.0261" ry="18"></ellipse>
<text text-anchor="middle" x="574" y="-195.8" font-family="Times,serif" font-size="14.00" fill="#000000">progenitor</text>
</g>
</g><g id="edge13" class="edge">
<title>CellDivision_1_1-&gt;progenitor_1</title>
<path fill="none" stroke="#8f100d" stroke-width="3" d="M506.105,-440.0141C624.2549,-434.5745 952.3584,-416.3704 984,-380.8 1088.6687,-263.1351 771.4298,-218.5052 634.0879,-204.9799"></path>
<polygon fill="#8f100d" stroke="#8f100d" stroke-width="3" points="634.4133,-201.4952 624.1243,-204.0223 633.7436,-208.4631 634.4133,-201.4952"></polygon>
</g><g id="node17" class="node">
<title>time_of_birth_1</title>
<g id="a_node17">
<ellipse fill="#d3d247" stroke="#000000" cx="274" cy="-362.8" rx="64.2843" ry="18"></ellipse>
<text text-anchor="middle" x="274" y="-358.6" font-family="Times,serif" font-size="14.00" fill="#000000">time_of_birth</text>
</g>
</g><g id="edge14" class="edge">
<title>CellDivision_1_1-&gt;time_of_birth_1</title>
<path fill="none" stroke="#8f100d" stroke-width="3" d="M421.9329,-423.085C417.5792,-420.8756 413.2169,-418.7252 409,-416.8 380.0329,-403.5747 346.8023,-390.952 320.4777,-381.2408"></path>
<polygon fill="#8f100d" stroke="#8f100d" stroke-width="3" points="321.3435,-377.8302 310.7499,-377.6662 318.9291,-384.4006 321.3435,-377.8302"></polygon>
</g><g id="edge4" class="edge">
<title>CellDeath_1_1-&gt;cell_center_1</title>
<path fill="none" stroke="#8f100d" stroke-width="3" d="M308.1842,-116.4689C406.2225,-103.4739 689.1592,-65.9705 811.9685,-49.6921"></path>
<polygon fill="#8f100d" stroke="#8f100d" stroke-width="3" points="812.4852,-53.1543 821.9386,-48.3706 811.5654,-46.215 812.4852,-53.1543"></polygon>
</g><g id="node7" class="node">
<title>cc_1</title>
<g id="a_node7">
<ellipse fill="#d3d247" stroke="#000000" cx="478" cy="-200" rx="27" ry="18"></ellipse>
<text text-anchor="middle" x="478" y="-195.8" font-family="Times,serif" font-size="14.00" fill="#000000">cc</text>
</g>
</g><g id="node9" class="node">
<title>cell_type_1</title>
<g id="a_node9">
<ellipse fill="#d3d247" stroke="#000000" cx="971" cy="-441.8" rx="44.0377" ry="18"></ellipse>
<text text-anchor="middle" x="971" y="-437.6" font-family="Times,serif" font-size="14.00" fill="#000000">cell.type</text>
</g>
</g><g id="edge20" class="edge">
<title>cellCycleTime_1-&gt;CellDivision_1_1</title>
<path fill="none" stroke="#112c5f" stroke-width="2" d="M159.0139,-373.4896C170.9255,-376.0287 183.3957,-378.6282 195,-380.8 294.062,-399.34 325.9742,-384.4864 417.1065,-413.5494"></path>
<polygon fill="#112c5f" stroke="#112c5f" stroke-width="2" points="416.1178,-416.9085 426.7106,-416.7023 418.3012,-410.2577 416.1178,-416.9085"></polygon>
</g><g id="edge19" class="edge">
<title>cellCycleTime_1-&gt;CellDeath_1_1</title>
<path fill="none" stroke="#112c5f" stroke-width="2" d="M126.1119,-345.5992C128.7007,-342.8713 131.0933,-339.9141 133,-336.8 170.1645,-276.1016 131.4401,-239.0451 174,-182 188.2775,-162.8632 210.4922,-148.4492 230.3608,-138.4511"></path>
<polygon fill="#112c5f" stroke="#112c5f" stroke-width="2" points="232.0776,-141.5096 239.5833,-134.032 229.0527,-135.1969 232.0776,-141.5096"></polygon>
</g><g id="node19" class="node">
<title>System_2_1</title>
<g id="a_node19">">
<polygon fill="#fffea3" stroke="transparent" points="553,-304 499,-304 499,-254 553,-254 553,-304"></polygon>
<text text-anchor="start" x="503.9163" y="-286.5" font-family="times" font-size="15.00" fill="#000000">System</text>
<text text-anchor="start" x="522.25" y="-262.5" font-family="times" font-size="15.00" fill="#000000">1</text>
<polygon fill="#000000" stroke="#000000" points="500,-279 500,-279 552,-279 552,-279 500,-279"></polygon>
<polygon fill="none" stroke="#000000" points="500,-254 500,-304 552,-304 552,-254 500,-254"></polygon>
</g>
</g><g id="edge21" class="edge">
<title>maxCellSize_1-&gt;System_2_1</title>
<path fill="none" stroke="#112c5f" stroke-width="2" d="M617.7871,-350.7135C609.8733,-348.6814 601.7072,-346.6376 594,-344.8 577.6343,-340.8979 570.4371,-346.9245 557,-336.8 549.0354,-330.7988 542.8921,-322.1391 538.2562,-313.3422"></path>
<polygon fill="#112c5f" stroke="#112c5f" stroke-width="2" points="541.3899,-311.7815 533.9576,-304.2309 535.0591,-314.7684 541.3899,-311.7815"></polygon>
</g><g id="edge22" class="edge">
<title>minCellSize_1-&gt;System_2_1</title>
<path fill="none" stroke="#112c5f" stroke-width="2" d="M526,-344.6166C526,-335.7353 526,-324.7343 526,-314.2944"></path>
<polygon fill="#112c5f" stroke="#112c5f" stroke-width="2" points="529.5001,-314.141 526,-304.141 522.5001,-314.141 529.5001,-314.141"></polygon>
</g><g id="edge23" class="edge">
<title>p_1-&gt;CellDivision_1_1</title>
<path fill="none" stroke="#112c5f" stroke-width="2" d="M931.0013,-377.0059C927.7459,-378.4544 924.3383,-379.7692 921,-380.8 779.1989,-424.5847 602.4943,-436.9678 516.1583,-440.45"></path>
<polygon fill="#112c5f" stroke="#112c5f" stroke-width="2" points="515.9461,-436.9554 506.0859,-440.832 516.2115,-443.9504 515.9461,-436.9554"></polygon>
</g><g id="edge24" class="edge">
<title>progenitor_1-&gt;CellDeath_1_1</title>
<path fill="none" stroke="#112c5f" stroke-width="2" d="M535.3389,-188.1382C528.2559,-186.0401 520.9173,-183.9157 514,-182 445.9222,-163.146 366.3635,-143.3648 318.1075,-131.6138"></path>
<polygon fill="#112c5f" stroke="#112c5f" stroke-width="2" points="318.8444,-128.1911 308.3007,-129.2314 317.1918,-134.9933 318.8444,-128.1911"></polygon>
</g><g id="edge28" class="edge">
<title>time_of_birth_1-&gt;CellDivision_1_1</title>
<path fill="none" stroke="#112c5f" stroke-width="2" d="M319.7441,-375.5484C347.9499,-384.7917 384.6999,-398.1538 417.4994,-412.5488"></path>
<polygon fill="#112c5f" stroke="#112c5f" stroke-width="2" points="416.0778,-415.747 426.6355,-416.6337 418.9351,-409.3567 416.0778,-415.747"></polygon>
</g><g id="edge27" class="edge">
<title>time_of_birth_1-&gt;CellDeath_1_1</title>
<path fill="none" stroke="#112c5f" stroke-width="2" d="M274,-344.6257C274,-304.6552 274,-208.5238 274,-156.2637"></path>
<polygon fill="#112c5f" stroke="#112c5f" stroke-width="2" points="277.5001,-156.1199 274,-146.1199 270.5001,-156.12 277.5001,-156.1199"></polygon>
</g><g id="edge29" class="edge">
<title>time_of_birth_1-&gt;System_2_1</title>
<path fill="none" stroke="#112c5f" stroke-width="2" d="M320.3229,-350.1497C329.4386,-348.0531 338.9746,-346.1317 348,-344.8 364.1823,-342.4124 481.1972,-345.5779 495,-336.8 503.7197,-331.2547 510.1528,-322.3775 514.8248,-313.2275"></path>
<polygon fill="#112c5f" stroke="#112c5f" stroke-width="2" points="518.0202,-314.6557 518.9292,-304.0999 511.6359,-311.7849 518.0202,-314.6557"></polygon>
</g><g id="node18" class="node">
<title>volume_1</title>
<g id="a_node18">
<ellipse fill="#d3d247" stroke="#000000" cx="943" cy="-200" rx="40.0089" ry="18"></ellipse>
<text text-anchor="middle" x="943" y="-195.8" font-family="Times,serif" font-size="14.00" fill="#000000">volume</text>
</g>
</g><g id="edge30" class="edge">
<title>volume_1-&gt;VolumeConstraint_1</title>
<path fill="none" stroke="#112c5f" stroke-width="2" d="M944.1597,-181.6772C944.7655,-172.1053 945.5204,-160.1777 946.2002,-149.4371"></path>
<polygon fill="#112c5f" stroke="#112c5f" stroke-width="2" points="949.7079,-149.4245 946.8466,-139.2234 942.7219,-148.9823 949.7079,-149.4245"></polygon>
</g><g id="edge15" class="edge">
<title>System_2_1-&gt;c_1</title>
<path fill="none" stroke="#8f100d" stroke-width="3" d="M505.9193,-253.8279C502.5575,-250.8059 498.8874,-248.0652 495,-246 452.6711,-223.513 314.5016,-208.9498 247.3327,-203.0227"></path>
<polygon fill="#8f100d" stroke="#8f100d" stroke-width="3" points="247.452,-199.5201 237.1877,-202.1457 246.849,-206.4941 247.452,-199.5201"></polygon>
</g><g id="edge16" class="edge">
<title>System_2_1-&gt;cc_1</title>
<path fill="none" stroke="#8f100d" stroke-width="3" d="M510.5483,-253.5691C505.1784,-244.7311 499.1518,-234.8123 493.7575,-225.9342"></path>
<polygon fill="#8f100d" stroke="#8f100d" stroke-width="3" points="496.6028,-223.8767 488.419,-217.1479 490.6205,-227.5115 496.6028,-223.8767"></polygon>
</g><g id="edge17" class="edge">
<title>System_2_1-&gt;progenitor_1</title>
<path fill="none" stroke="#8f100d" stroke-width="3" d="M541.4517,-253.5691C546.7402,-244.865 552.6658,-235.1126 557.9969,-226.3384"></path>
<polygon fill="#8f100d" stroke="#8f100d" stroke-width="3" points="561.0843,-227.9975 563.2857,-217.6339 555.1019,-224.3626 561.0843,-227.9975"></polygon>
</g><g id="edge18" class="edge">
<title>System_2_1-&gt;volume_1</title>
<path fill="none" stroke="#8f100d" stroke-width="3" d="M546.004,-253.6797C549.377,-250.6795 553.0707,-247.9842 557,-246 614.717,-216.854 802.2877,-205.568 892.986,-201.7346"></path>
<polygon fill="#8f100d" stroke="#8f100d" stroke-width="3" points="893.1791,-205.2298 903.0278,-201.3241 892.8931,-198.2356 893.1791,-205.2298"></polygon>
</g></g>
</svg>