<?xml version="1.0" encoding="UTF-8" standalone="no"?> <svg xmlns="http://www.w3.org/2000/svg" xmlns:xlink="http://www.w3.org/1999/xlink" width="1459pt" height="464pt" viewBox="0.00 0.00 1459 464">
<g id="graph0" class="graph" transform="translate(4, 460)">
<title>%0</title>
<polygon fill="#ffffff" stroke="transparent" points="-4,4 -4,-460 1455,-460 1455,4 -4,4"></polygon>
<g id="clust1" class="cluster">
<title>cluster</title>
<polygon fill="#234178" fill-opacity="0.184314" stroke="#000000" points="8,-8 8,-448 1443,-448 1443,-8 8,-8"></polygon>
<text text-anchor="middle" x="725.5" y="-431.4" font-family="Times,serif" font-size="14.00" fill="#000000">Global</text>
</g>
<g id="clust2" class="cluster">
<title>cluster_1</title>
<polygon fill="#234178" fill-opacity="0.184314" stroke="#000000" points="659,-88 659,-226.5 886,-226.5 886,-88 659,-88"></polygon>
</g>
<g id="clust3" class="cluster">
<title>cluster_2</title>
<polygon fill="#234178" fill-opacity="0.184314" stroke="#000000" points="16,-16 16,-284.6 651,-284.6 651,-16 16,-16"></polygon>
<text text-anchor="middle" x="333.5" y="-268" font-family="Times,serif" font-size="14.00" fill="#000000">CellType[worm]</text>
</g>
<g id="clust5" class="cluster">
<title>cluster_3</title>
<polygon fill="#234178" fill-opacity="0.184314" stroke="#000000" points="1264,-174.5 1264,-251.3 1435,-251.3 1435,-174.5 1264,-174.5"></polygon>
<text text-anchor="middle" x="1349.5" y="-234.7" font-family="Times,serif" font-size="14.00" fill="#000000">CellType[medium]</text>
</g><g id="clust4" class="cluster">
<title>cluster_cpm2</title>
<polygon fill="#234178" fill-opacity="0.184314" stroke="#000000" points="242,-174 242,-251.8 478,-251.8 478,-174 242,-174"></polygon>
<text text-anchor="middle" x="360" y="-235.2" font-family="Times,serif" font-size="14.00" fill="#000000">CPM components</text>
</g>


<!-- CPM_0_0_15 -->
<g id="node1" class="node">
<title>CPM_0_0_15</title>
<g id="a_node1">
<polygon fill="#fffea3" stroke="#000000" points="161,-293.1 161,-342.7 215,-342.7 215,-293.1 161,-293.1"></polygon>
<text text-anchor="middle" x="187.7819" y="-326.1" font-family="Times,serif" font-size="14.00" fill="#000000">CPM</text>
<polyline fill="none" stroke="#000000" points="161,-317.9 214.5638,-317.9 "></polyline>
<text text-anchor="middle" x="187.7819" y="-301.3" font-family="Times,serif" font-size="14.00" fill="#000000">0.15</text>
</g>
</g>
<!-- cell_center_0 -->

<!-- CPM_0_0_15&#45;&gt;cell_center_0 -->

<!-- cell_type_0 -->

<!-- CPM_0_0_15&#45;&gt;cell_type_0 --><g id="edge2" class="edge">
<title style="">CPM_0_0_15-&gt;cell_center_2</title>
<path fill="none" stroke="#8f100d" stroke-width="3" d="M160.9365,-303.6884C152.1356,-298.3638 142.6691,-291.8315 135,-284.6 117.1093,-267.7301 101.1724,-244.8083 90.228,-227.1555"></path>
<polygon fill="#8f100d" stroke="#8f100d" stroke-width="3" points="93.1435,-225.2128 84.9759,-218.4644 87.1524,-228.8333 93.1435,-225.2128"></polygon>
</g>

<!-- VolumeConstraint_3 --><g id="node17" class="node">
<title>VolumeConstraint_2</title>
<g id="a_node17">
<path fill="#fffea3" stroke="#000000" d="M262.2847,-182.5C262.2847,-182.5 357.7153,-182.5 357.7153,-182.5 363.7153,-182.5 369.7153,-188.5 369.7153,-194.5 369.7153,-194.5 369.7153,-206.5 369.7153,-206.5 369.7153,-212.5 363.7153,-218.5 357.7153,-218.5 357.7153,-218.5 262.2847,-218.5 262.2847,-218.5 256.2847,-218.5 250.2847,-212.5 250.2847,-206.5 250.2847,-206.5 250.2847,-194.5 250.2847,-194.5 250.2847,-188.5 256.2847,-182.5 262.2847,-182.5"></path>
<text text-anchor="middle" x="310" y="-196.3" font-family="Times,serif" font-size="14.00" fill="#000000">VolumeConstraint</text>
</g>
</g>

<!-- CPM_0_0_15&#45;&gt;VolumeConstraint_3 --><g id="edge1" class="edge">
<title>CPM_0_0_15-&gt;VolumeConstraint_2</title>
<path fill="none" stroke="#38568c" d="M215.1718,-305.2083C225.4371,-299.6935 236.8402,-292.6457 246,-284.6 256.891,-275.0336 267.1553,-263.3618 276.1425,-251.7953" stroke-dasharray="5,2"></path>
</g><g id="edge3" class="edge">
<title style="">CPM_0_0_15-&gt;cell_type_2</title>
<path fill="none" stroke="#8f100d" stroke-width="3" d="M188,-293.0025C188,-274.2614 188,-248.547 188,-228.9863"></path>
<polygon fill="#8f100d" stroke="#8f100d" stroke-width="3" points="191.5001,-228.8357 188,-218.8357 184.5001,-228.8357 191.5001,-228.8357"></polygon>
</g>

<!-- Gnuplotter_0_10285476791478552813_1000 -->

<!-- Ua_0 -->
<g id="node2" class="node">
<title>Ua_0</title>
<g id="a_node2">
<ellipse fill="#d3d247" stroke="#000000" cx="901" cy="-42" rx="27" ry="18"></ellipse>
<text text-anchor="middle" x="901" y="-37.80000000000001" font-family="Times,serif" font-size="14.00" fill="#000000">Ua</text>
</g>
</g>
<!-- Ua_0&#45;&gt;Gnuplotter_0_10285476791478552813_1000 -->

<!-- System_2_13798601352815686473_1000 -->

<!-- Ua_0&#45;&gt;System_2_13798601352815686473_1000 -->

<!-- Ur_0 -->
<g id="node3" class="node">
<title>Ur_0</title>
<g id="a_node3">
<ellipse fill="#d3d247" stroke="#000000" cx="829" cy="-42" rx="27" ry="18"></ellipse>
<text text-anchor="middle" x="829" y="-37.80000000000001" font-family="Times,serif" font-size="14.00" fill="#000000">Ur</text>
</g>
</g>
<!-- Ur_0&#45;&gt;Gnuplotter_0_10285476791478552813_1000 --><g id="node13" class="node">
<title style="">System_1_1</title>
<g id="a_node13">" style="">
<polygon fill="#fffea3" stroke="transparent" points="878,-146 826,-146 826,-96 878,-96 878,-146" style=""></polygon>
<text text-anchor="start" x="829.9163" y="-128.5" font-family="times" font-size="15.00" fill="#000000" style="">System</text>
<text text-anchor="start" x="848.25" y="-104.5" font-family="times" font-size="15.00" fill="#000000" style="">1</text>
<polygon fill="#000000" stroke="#000000" points="826,-121 826,-121 878,-121 878,-121 826,-121" style=""></polygon>
<polygon fill="none" stroke="#000000" points="826,-96 826,-146 878,-146 878,-96 826,-96" style=""></polygon>
</g>
</g>

<!-- Ur_0&#45;&gt;System_2_13798601352815686473_1000 --><g id="node18" class="node">
<title>Chemotaxis_2</title>
<g id="a_node18">
<path fill="#fffea3" stroke="#000000" d="M399.5589,-182.5C399.5589,-182.5 458.4411,-182.5 458.4411,-182.5 464.4411,-182.5 470.4411,-188.5 470.4411,-194.5 470.4411,-194.5 470.4411,-206.5 470.4411,-206.5 470.4411,-212.5 464.4411,-218.5 458.4411,-218.5 458.4411,-218.5 399.5589,-218.5 399.5589,-218.5 393.5589,-218.5 387.5589,-212.5 387.5589,-206.5 387.5589,-206.5 387.5589,-194.5 387.5589,-194.5 387.5589,-188.5 393.5589,-182.5 399.5589,-182.5"></path>
<text text-anchor="middle" x="429" y="-196.3" font-family="Times,serif" font-size="14.00" fill="#000000">Chemotaxis</text>
</g>
</g><g id="edge10" class="edge">
<title style="">alpha_a_0-&gt;System_1_1</title>
<path fill="none" stroke="#112c5f" stroke-width="2" d="M1189.03,-185.808C1180.9988,-181.432 1171.8354,-177.0074 1163,-174 1067.0843,-141.3524 947.3963,-128.2131 888.3748,-123.4357"></path>
<polygon fill="#112c5f" stroke="#112c5f" stroke-width="2" points="888.3201,-119.921 878.0796,-122.6381 887.7793,-126.9001 888.3201,-119.921"></polygon>
</g>

<!-- V_0 --><g id="edge9" class="edge">
<title>V_0-&gt;Chemotaxis_2</title>
<path fill="none" stroke="#112c5f" stroke-width="2" d="M690.2987,-54.4956C658.1302,-74.703 592.0819,-115.3794 534,-146 507.9686,-159.7237 500.0417,-160.2958 474,-174 471.9791,-175.0635 469.9203,-176.1742 467.8505,-177.3126"></path>
<polygon fill="#112c5f" stroke="#112c5f" stroke-width="2" points="465.7824,-174.4606 458.7899,-182.4202 469.2198,-180.5585 465.7824,-174.4606"></polygon>
</g>
<g id="node4" class="node">
<title>V_0</title>
<g id="a_node4">
<ellipse fill="#d3d247" stroke="#000000" cx="710" cy="-42" rx="27" ry="18"></ellipse>
<text text-anchor="middle" x="710" y="-37.80000000000001" font-family="Times,serif" font-size="14.00" fill="#000000">V</text>
</g>
</g>
<!-- V_0&#45;&gt;Gnuplotter_0_10285476791478552813_1000 --><g id="edge11" class="edge">
<title style="">alpha_r_0-&gt;System_1_1</title>
<path fill="none" stroke="#112c5f" stroke-width="2" d="M1090.1511,-186.0424C1082.3345,-181.7317 1073.4764,-177.2859 1065,-174 1004.932,-150.7143 931.3077,-135.0697 888.2288,-127.1293"></path>
<polygon fill="#112c5f" stroke="#112c5f" stroke-width="2" points="888.6834,-123.6549 878.2206,-125.3224 887.4396,-130.5435 888.6834,-123.6549"></polygon>
</g>

<!-- Chemotaxis_3 -->

<!-- V_0&#45;&gt;Chemotaxis_3 --><g id="edge12" class="edge">
<title style="">beta_a_0-&gt;System_1_1</title>
<path fill="none" stroke="#112c5f" stroke-width="2" d="M996.9539,-186.1802C989.9989,-182.0635 982.2768,-177.6921 975,-174 946.2597,-159.4179 912.5855,-145.0899 887.7444,-135.0153"></path>
<polygon fill="#112c5f" stroke="#112c5f" stroke-width="2" points="888.9349,-131.7216 878.3511,-131.2375 886.3229,-138.2161 888.9349,-131.7216"></polygon>
</g>

<!-- Va_0 -->

<!-- Vaos2_0 --><g id="edge13" class="edge">
<title style="">beta_r_0-&gt;System_1_1</title>
<path fill="none" stroke="#112c5f" stroke-width="2" d="M915.0132,-184.412C906.1481,-175.4908 894.7988,-164.0696 884.1806,-153.3843"></path>
<polygon fill="#112c5f" stroke="#112c5f" stroke-width="2" points="886.5174,-150.7704 876.9859,-146.1441 881.552,-155.7045 886.5174,-150.7704"></polygon>
</g>

<!-- Vos2_0 -->

<!-- Vr_0 -->

<!-- Vros2_0 -->

<!-- alpha_a_0 -->
<g id="node5" class="node">
<title>alpha_a_0</title>
<g id="a_node5">
<ellipse fill="#d3d247" stroke="#000000" cx="1213" cy="-200.5" rx="41.1316" ry="18"></ellipse>
<text text-anchor="middle" x="1213" y="-196.3" font-family="Times,serif" font-size="14.00" fill="#000000">alpha_a</text>
</g>
</g>
<!-- System_1_11729279728807398571_1 -->

<!-- alpha_a_0&#45;&gt;System_1_11729279728807398571_1 -->

<!-- alpha_a_0&#45;&gt;System_2_13798601352815686473_1000 --><g id="edge15" class="edge">
<title>cellvolume_0-&gt;VolumeConstraint_2</title>
<path fill="none" stroke="#112c5f" stroke-width="2" d="M306.6162,-299.8135C307.2603,-280.9096 308.28,-250.9832 309.0317,-228.9182"></path>
<polygon fill="#112c5f" stroke="#112c5f" stroke-width="2" points="312.5338,-228.9139 309.3765,-218.8004 305.5379,-228.6754 312.5338,-228.9139"></polygon>
</g>

<!-- alpha_r_0 -->
<g id="node6" class="node">
<title>alpha_r_0</title>
<g id="a_node6">
<ellipse fill="#d3d247" stroke="#000000" cx="1114" cy="-200.5" rx="39.9876" ry="18"></ellipse>
<text text-anchor="middle" x="1114" y="-196.3" font-family="Times,serif" font-size="14.00" fill="#000000">alpha_r</text>
</g>
</g>
<!-- alpha_r_0&#45;&gt;System_1_11729279728807398571_1 --><g id="edge16" class="edge">
<title>cmstrength_0-&gt;Chemotaxis_2</title>
<path fill="none" stroke="#112c5f" stroke-width="2" d="M431.5378,-299.8135C431.0548,-280.9096 430.29,-250.9832 429.7262,-228.9182"></path>
<polygon fill="#112c5f" stroke="#112c5f" stroke-width="2" points="433.2221,-228.7077 429.4676,-218.8004 426.2243,-228.8866 433.2221,-228.7077"></polygon>
</g><g id="edge6" class="edge">
<title style="">System_1_1-&gt;Ua_0</title>
<path fill="none" stroke="#8f100d" stroke-width="3" d="M867.7736,-95.5691C873.397,-86.5028 879.7259,-76.299 885.3398,-67.2481" style=""></path>
<polygon fill="#8f100d" stroke="#8f100d" stroke-width="3" points="888.366,-69.0093 890.6626,-58.6664 882.4173,-65.3196 888.366,-69.0093" style=""></polygon>
</g>

<!-- alpha_r_0&#45;&gt;System_2_13798601352815686473_1000 --><g id="edge7" class="edge">
<title style="">System_1_1-&gt;Ur_0</title>
<path fill="none" stroke="#8f100d" stroke-width="3" d="M844.5961,-95.5691C842.206,-87.3598 839.5445,-78.2179 837.1064,-69.8438" style=""></path>
<polygon fill="#8f100d" stroke="#8f100d" stroke-width="3" points="840.4325,-68.7472 834.2767,-60.1242 833.7116,-70.704 840.4325,-68.7472" style=""></polygon>
</g>

<!-- beta_a_0 --><g id="edge8" class="edge">
<title style="">System_1_1-&gt;V_0</title>
<path fill="none" stroke="#8f100d" stroke-width="3" d="M831.4914,-95.934C828.4924,-93.0446 825.297,-90.3109 822,-88 798.4589,-71.4995 768.1058,-59.5007 744.9376,-51.903" style=""></path>
<polygon fill="#8f100d" stroke="#8f100d" stroke-width="3" points="745.7594,-48.4922 735.1696,-48.8188 743.6517,-55.1673 745.7594,-48.4922" style=""></polygon>
</g>
<g id="node7" class="node">
<title>beta_a_0</title>
<g id="a_node7">
<ellipse fill="#d3d247" stroke="#000000" cx="1020" cy="-200.5" rx="36.4761" ry="18"></ellipse>
<text text-anchor="middle" x="1020" y="-196.3" font-family="Times,serif" font-size="14.00" fill="#000000">beta_a</text>
</g>
</g>
<!-- beta_a_0&#45;&gt;System_1_11729279728807398571_1 -->

<!-- beta_a_0&#45;&gt;System_2_13798601352815686473_1000 --><g id="edge17" class="edge">
<title style="">gamma_a_1-&gt;System_1_1</title>
<path fill="none" stroke="#112c5f" stroke-width="2" d="M834.2191,-182.4602C836.4966,-174.5877 839.2484,-165.0763 841.8994,-155.9129"></path>
<polygon fill="#112c5f" stroke="#112c5f" stroke-width="2" points="845.2923,-156.7792 844.7093,-146.2004 838.568,-154.8337 845.2923,-156.7792"></polygon>
</g>

<!-- beta_r_0 -->
<g id="node8" class="node">
<title>beta_r_0</title>
<g id="a_node8">
<ellipse fill="#d3d247" stroke="#000000" cx="931" cy="-200.5" rx="35.3315" ry="18"></ellipse>
<text text-anchor="middle" x="931" y="-196.3" font-family="Times,serif" font-size="14.00" fill="#000000">beta_r</text>
</g>
</g>
<!-- beta_r_0&#45;&gt;System_1_11729279728807398571_1 --><g id="edge18" class="edge">
<title style="">gamma_r_1-&gt;System_1_1</title>
<path fill="none" stroke="#112c5f" stroke-width="2" d="M744.755,-186.2702C767.5704,-175.2158 797.9132,-160.1755 817.0802,-148.8218"></path>
<polygon fill="#112c5f" stroke="#112c5f" stroke-width="2" points="819.1123,-151.6795 825.7478,-143.4199 815.4098,-145.7388 819.1123,-151.6795"></polygon>
</g>

<!-- beta_r_0&#45;&gt;System_2_13798601352815686473_1000 --><g id="node16" class="node">
<title style="">MotilityReporter_2_100</title>
<g id="a_node16">" style="">
<polygon fill="#fffea3" stroke="transparent" points="133.5,-146 24.5,-146 24.5,-96 133.5,-96 133.5,-146" style=""></polygon>
<text text-anchor="start" x="28.674" y="-128.5" font-family="times" font-size="15.00" fill="#000000" style="">MotilityReporter</text>
<text text-anchor="start" x="68.25" y="-104.5" font-family="times" font-size="15.00" fill="#000000" style="">100</text>
<polygon fill="#000000" stroke="#000000" points="25,-121 25,-121 134,-121 134,-121 25,-121" style=""></polygon>
<polygon fill="none" stroke="#000000" points="24.5,-96 24.5,-146 133.5,-146 133.5,-96 24.5,-96" style=""></polygon>
</g>
</g>

<!-- cell_type_0&#45;&gt;Gnuplotter_0_10285476791478552813_1000 -->

<!-- cellvolume_0 --><g id="edge4" class="edge">
<title style="">MotilityReporter_2_100-&gt;delta_r_2</title>
<path fill="none" stroke="#8f100d" stroke-width="3" d="M101.2118,-95.5691C109.378,-86.2194 118.6006,-75.6602 126.6859,-66.4031" style=""></path>
<polygon fill="#8f100d" stroke="#8f100d" stroke-width="3" points="129.5011,-68.5005 133.4433,-58.6664 124.2289,-63.8957 129.5011,-68.5005" style=""></polygon>
</g>
<g id="node9" class="node">
<title>cellvolume_0</title>
<g id="a_node9">
<ellipse fill="#d3d247" stroke="#000000" cx="306" cy="-317.9" rx="53.8905" ry="18"></ellipse>
<text text-anchor="middle" x="306" y="-313.7" font-family="Times,serif" font-size="14.00" fill="#000000">cellvolume</text>
</g>
</g>
<!-- cellvolume_0&#45;&gt;VolumeConstraint_3 -->

<!-- cmstrength_0 --><g id="edge5" class="edge">
<title style="">MotilityReporter_2_100-&gt;vel_2</title>
<path fill="none" stroke="#8f100d" stroke-width="3" d="M74.4932,-95.5691C73.0544,-87.45 71.4539,-78.4187 69.9833,-70.1201" style=""></path>
<polygon fill="#8f100d" stroke="#8f100d" stroke-width="3" points="73.4032,-69.36 68.2119,-60.1242 66.5106,-70.5815 73.4032,-69.36" style=""></polygon>
</g>
<g id="node10" class="node">
<title>cmstrength_0</title>
<g id="a_node10">
<ellipse fill="#d3d247" stroke="#000000" cx="432" cy="-317.9" rx="53.8905" ry="18"></ellipse>
<text text-anchor="middle" x="432" y="-313.7" font-family="Times,serif" font-size="14.00" fill="#000000">cmstrength</text>
</g>
</g>
<!-- cmstrength_0&#45;&gt;Chemotaxis_3 --><g id="edge14" class="edge">
<title style="">cell_center_2-&gt;MotilityReporter_2_100</title>
<path fill="none" stroke="#112c5f" stroke-width="2" d="M75.9077,-182.4602C76.2996,-174.6714 76.7722,-165.2785 77.2287,-156.2055"></path>
<polygon fill="#112c5f" stroke="#112c5f" stroke-width="2" points="80.725,-156.3636 77.7321,-146.2004 73.7339,-156.0118 80.725,-156.3636"></polygon>
</g>

<!-- gridsa_0 -->

<!-- gridsa_0&#45;&gt;System_1_11729279728807398571_1 --><g id="edge19" class="edge">
<title style="">gridsa_2-&gt;System_1_1</title>
<path fill="none" stroke="#112c5f" stroke-width="2" d="M543.0636,-185.5873C550.0001,-181.1426 558.0376,-176.7329 566,-174 671.0858,-137.9324 714.1198,-187.684 816.2869,-148.0515"></path>
<polygon fill="#112c5f" stroke="#112c5f" stroke-width="2" points="817.763,-151.2295 825.7024,-144.214 815.121,-144.7472 817.763,-151.2295"></polygon>
</g>

<!-- gridsr_0 -->

<!-- gridsr_0&#45;&gt;System_1_11729279728807398571_1 --><g id="edge21" class="edge">
<title style="">gridsr_2-&gt;System_1_1</title>
<path fill="none" stroke="#112c5f" stroke-width="2" d="M630.2223,-186.1619C637.7644,-181.6476 646.4981,-177.0494 655,-174 722.6571,-149.7329 751.0247,-174.9232 816.212,-148.2431"></path>
<polygon fill="#112c5f" stroke="#112c5f" stroke-width="2" points="817.8941,-151.328 825.6624,-144.1236 815.0969,-144.9111 817.8941,-151.328"></polygon>
</g>

<!-- treport_0 -->

<!-- treport_0&#45;&gt;Gnuplotter_0_10285476791478552813_1000 --><g id="edge20" class="edge">
<title style="">gridsa_3-&gt;System_1_1</title>
<path fill="none" stroke="#112c5f" stroke-width="2" d="M1371.9407,-185.5747C1365.0045,-181.1292 1356.9661,-176.7221 1349,-174 1263.4364,-144.762 987.8047,-128.0035 888.275,-122.7828"></path>
<polygon fill="#112c5f" stroke="#112c5f" stroke-width="2" points="888.2816,-119.2785 878.1143,-122.258 887.9205,-126.2692 888.2816,-119.2785"></polygon>
</g>

<!-- treport_0&#45;&gt;System_2_13798601352815686473_1000 --><g id="node21" class="node">
<title>delta_r_2</title>
<g id="a_node21">
<ellipse fill="#b5b426" stroke="#000000" cx="148" cy="-42" rx="37.6986" ry="18"></ellipse>
<text text-anchor="middle" x="148" y="-37.80000000000001" font-family="Times,serif" font-size="14.00" fill="#000000">delta_r</text>
</g>
</g>

<!-- wormtomedium_0 --><g id="edge22" class="edge">
<title style="">gridsr_3-&gt;System_1_1</title>
<path fill="none" stroke="#112c5f" stroke-width="2" d="M1287.6966,-185.0836C1281.7542,-180.8317 1274.9046,-176.6609 1268,-174 1198.8011,-147.3321 976.2997,-129.5448 888.3057,-123.3919"></path>
<polygon fill="#112c5f" stroke="#112c5f" stroke-width="2" points="888.478,-119.8955 878.2609,-122.6994 887.9965,-126.8789 888.478,-119.8955"></polygon>
</g>
<g id="node11" class="node">
<title>wormtomedium_0</title>
<g id="a_node11">
<ellipse fill="#d3d247" stroke="#000000" cx="288" cy="-397.2" rx="72.9547" ry="18"></ellipse>
<text text-anchor="middle" x="288" y="-393" font-family="Times,serif" font-size="14.00" fill="#000000">wormtomedium</text>
</g>
</g><g id="node24" class="node">
<title>vel_2</title>
<g id="a_node24">
<ellipse fill="#b5b426" stroke="#000000" cx="65" cy="-42" rx="27" ry="18"></ellipse>
<text text-anchor="middle" x="65" y="-37.80000000000001" font-family="Times,serif" font-size="14.00" fill="#000000">vel</text>
</g>
</g><g id="edge23" class="edge">
<title>wormtomedium_0-&gt;CPM_0_0_15</title>
<path fill="none" stroke="#112c5f" stroke-width="2" d="M266.3015,-379.9931C253.7206,-370.0164 237.5752,-357.2131 223.2169,-345.827"></path>
<polygon fill="#112c5f" stroke="#112c5f" stroke-width="2" points="225.0201,-342.79 215.01,-339.3189 220.6706,-348.2748 225.0201,-342.79"></polygon>
</g><g id="node12" class="node">
<title>wormtoworm_0</title>
<g id="a_node12">
<ellipse fill="#d3d247" stroke="#000000" cx="134" cy="-397.2" rx="63.7045" ry="18"></ellipse>
<text text-anchor="middle" x="134" y="-393" font-family="Times,serif" font-size="14.00" fill="#000000">wormtoworm</text>
</g>
</g><g id="node19" class="node">
<title>cell_center_2</title>
<ellipse fill="#b5b426" stroke="#000000" cx="75" cy="-200.5" rx="50.9572" ry="18"></ellipse>
<text text-anchor="middle" x="75" y="-196.3" font-family="Times,serif" font-size="14.00" fill="#000000">cell.center</text>
</g><g id="edge24" class="edge">
<title>wormtoworm_0-&gt;CPM_0_0_15</title>
<path fill="none" stroke="#112c5f" stroke-width="2" d="M146.2534,-379.2056C151.9334,-370.8645 158.8693,-360.6789 165.4438,-351.0242"></path>
<polygon fill="#112c5f" stroke="#112c5f" stroke-width="2" points="168.3521,-352.9717 171.0877,-342.7361 162.5661,-349.0317 168.3521,-352.9717"></polygon>
</g><g id="node20" class="node">
<title>cell_type_2</title>
<g id="a_node20">
<ellipse fill="#d3d247" stroke="#000000" cx="188" cy="-200.5" rx="44.0377" ry="18"></ellipse>
<text text-anchor="middle" x="188" y="-196.3" font-family="Times,serif" font-size="14.00" fill="#000000">cell.type</text>
</g>
</g><g id="node14" class="node">
<title>gamma_a_1</title>
<g id="a_node14">
<ellipse fill="#d3d247" stroke="#000000" cx="829" cy="-200.5" rx="48.6559" ry="18"></ellipse>
<text text-anchor="middle" x="829" y="-196.3" font-family="Times,serif" font-size="14.00" fill="#000000">gamma_a</text>
</g>
</g><g id="node22" class="node">
<title>gridsa_2</title>
<g id="a_node22">
<ellipse fill="#d3d247" stroke="#000000" cx="523" cy="-200.5" rx="34.769" ry="18"></ellipse>
<text text-anchor="middle" x="523" y="-196.3" font-family="Times,serif" font-size="14.00" fill="#000000">gridsa</text>
</g>
</g><g id="node15" class="node">
<title>gamma_r_1</title>
<g id="a_node15">
<ellipse fill="#d3d247" stroke="#000000" cx="715" cy="-200.5" rx="47.5119" ry="18"></ellipse>
<text text-anchor="middle" x="715" y="-196.3" font-family="Times,serif" font-size="14.00" fill="#000000">gamma_r</text>
</g>
</g><g id="node23" class="node">
<title>gridsr_2</title>
<g id="a_node23">
<ellipse fill="#d3d247" stroke="#000000" cx="609" cy="-200.5" rx="33.6247" ry="18"></ellipse>
<text text-anchor="middle" x="609" y="-196.3" font-family="Times,serif" font-size="14.00" fill="#000000">gridsr</text>
</g>
</g><g id="node25" class="node">
<title>gridsa_3</title>
<g id="a_node25">
<ellipse fill="#d3d247" stroke="#000000" cx="1392" cy="-200.5" rx="34.769" ry="18"></ellipse>
<text text-anchor="middle" x="1392" y="-196.3" font-family="Times,serif" font-size="14.00" fill="#000000">gridsa</text>
</g>
</g><g id="node26" class="node">
<title>gridsr_3</title>
<g id="a_node26">
<ellipse fill="#d3d247" stroke="#000000" cx="1306" cy="-200.5" rx="33.6247" ry="18"></ellipse>
<text text-anchor="middle" x="1306" y="-196.3" font-family="Times,serif" font-size="14.00" fill="#000000">gridsr</text>
</g>
</g></g>
</svg>